<svg width="128" height="96" viewBox="0 0 128 96" fill="none" xmlns="http://www.w3.org/2000/svg">
<path d="M22.9331 9.66344C22.7913 9.13651 22.7549 8.58679 22.8259 8.04576C22.8969 7.50473 23.0739 6.98301 23.3467 6.51048C23.6196 6.03794 23.983 5.62387 24.4161 5.29197C24.8493 4.96007 25.3436 4.71686 25.8708 4.57625L41.9042 0.277449C42.4554 0.130562 43.031 0.0989013 43.595 0.184443C44.1589 0.269986 44.6992 0.470893 45.1821 0.77462C45.6649 1.07835 46.08 1.47837 46.4013 1.9497C46.7226 2.42103 46.9432 2.95355 47.0495 3.514C52.4852 2.85839 58.2529 2.54303 64.004 2.54303C69.9792 2.54303 75.9793 2.88329 81.5976 3.58869C81.6946 3.01975 81.9092 2.4773 82.2278 1.99601C82.5463 1.51472 82.9618 1.10518 83.4476 0.793549C83.9334 0.481922 84.4788 0.275066 85.0491 0.1862C85.6194 0.0973345 86.2019 0.128412 86.7595 0.277449L102.793 4.57625C103.405 4.74002 103.971 5.04167 104.448 5.45807C104.925 5.87447 105.301 6.39458 105.546 6.97855C105.791 7.56253 105.899 8.19486 105.862 8.82711C105.825 9.45936 105.644 10.0747 105.332 10.6261C106.494 11.373 107.54 12.2029 108.428 13.0909C111.814 16.4768 114.901 21.8047 117.515 27.7964C120.171 33.8795 122.486 40.9999 124.196 48.2614C125.905 55.5229 127.017 63.0333 127.216 69.8882C127.416 76.66 126.727 83.1829 124.494 88.2286C123.476 90.4939 121.769 92.3797 119.615 93.6166C117.461 94.8536 114.972 95.3786 112.502 95.1167C107.224 94.5606 103.249 91.8469 99.9463 88.7016C97.9131 86.7763 95.8301 84.3364 93.8135 81.9962C92.7678 80.768 91.7388 79.5729 90.7595 78.4858C84.718 71.8135 77.5063 65.8134 64.004 65.8134C50.5018 65.8134 43.2901 71.8135 37.2486 78.4858C36.261 79.5729 35.2402 80.768 34.1946 81.9962C32.178 84.3364 30.095 86.768 28.0617 88.7016C24.7588 91.8552 20.7837 94.5606 15.5056 95.1167C13.0359 95.3786 10.5466 94.8536 8.39304 93.6166C6.23949 92.3797 4.53179 90.4939 3.51376 88.2286C1.27307 83.1829 0.592563 76.6517 0.783437 69.8882C0.982609 63.0333 2.11125 55.5312 3.81252 48.2614C5.52208 40.9999 7.84575 33.8795 10.4931 27.7964C13.1072 21.8047 16.1944 16.4768 19.572 13.0909C20.6569 12.0268 21.863 11.0937 23.1654 10.3108C23.0699 10.099 22.9922 9.87975 22.9331 9.65515V9.66344ZM39.8295 13.0826C32.5514 14.6179 27.6385 16.759 25.4476 18.9582C23.1571 21.2486 20.5762 25.4561 18.1031 31.116C15.4795 37.2703 13.4024 43.6435 11.8956 50.1618C10.3038 56.7088 9.36151 63.3969 9.08228 70.1288C8.89971 76.3944 9.59681 81.4817 11.0989 84.8676C11.4065 85.5271 11.9128 86.0737 12.5468 86.4309C13.1809 86.7881 13.9108 86.9379 14.6342 86.8593C17.3479 86.5771 19.6965 85.2078 22.3438 82.6933C24.1032 81.0169 25.6634 79.1829 27.4476 77.0999C28.5514 75.8052 29.7381 74.4193 31.0991 72.9172C37.954 65.3404 47.2238 57.5229 64.004 57.5229C80.7843 57.5229 90.0541 65.3404 96.909 72.9172C98.27 74.4193 99.4567 75.8052 100.56 77.0999C102.336 79.1829 103.905 81.0169 105.664 82.6933C108.303 85.2078 110.652 86.5771 113.374 86.8676C114.098 86.9455 114.829 86.7945 115.463 86.4358C116.097 86.077 116.603 85.5286 116.909 84.8676C118.403 81.4817 119.108 76.4027 118.926 70.1288C118.646 63.3969 117.704 56.7089 116.112 50.1618C114.606 43.6435 112.528 37.2704 109.905 31.116C107.432 25.4561 104.843 21.2403 102.56 18.9582C100.37 16.759 95.4567 14.6179 88.1786 13.0826C81.1246 11.5971 72.6016 10.8419 64.004 10.8419C55.4064 10.8419 46.8835 11.5971 39.8295 13.0826Z" fill="white"/>
<path d="M93.0502 29.6264C93.0502 30.7269 92.613 31.7823 91.8349 32.5604C91.0567 33.3386 90.0013 33.7758 88.9008 33.7758C87.8003 33.7758 86.7448 33.3386 85.9667 32.5604C85.1885 31.7823 84.7513 30.7269 84.7513 29.6264C84.7513 28.5259 85.1885 27.4704 85.9667 26.6923C86.7448 25.9141 87.8003 25.4769 88.9008 25.4769C90.0013 25.4769 91.0567 25.9141 91.8349 26.6923C92.613 27.4704 93.0502 28.5259 93.0502 29.6264ZM80.6019 42.0746C81.7024 42.0746 82.7578 41.6375 83.536 40.8593C84.3142 40.0811 84.7513 39.0257 84.7513 37.9252C84.7513 36.8247 84.3142 35.7693 83.536 34.9911C82.7578 34.213 81.7024 33.7758 80.6019 33.7758C79.5014 33.7758 78.446 34.213 77.6678 34.9911C76.8897 35.7693 76.4525 36.8247 76.4525 37.9252C76.4525 39.0257 76.8897 40.0811 77.6678 40.8593C78.446 41.6375 79.5014 42.0746 80.6019 42.0746ZM101.349 37.9252C101.349 39.0257 100.912 40.0811 100.134 40.8593C99.3555 41.6375 98.3001 42.0746 97.1996 42.0746C96.0991 42.0746 95.0437 41.6375 94.2655 40.8593C93.4874 40.0811 93.0502 39.0257 93.0502 37.9252C93.0502 36.8247 93.4874 35.7693 94.2655 34.9911C95.0437 34.213 96.0991 33.7758 97.1996 33.7758C98.3001 33.7758 99.3555 34.213 100.134 34.9911C100.912 35.7693 101.349 36.8247 101.349 37.9252ZM88.9008 50.3735C90.0013 50.3735 91.0567 49.9363 91.8349 49.1581C92.613 48.38 93.0502 47.3245 93.0502 46.2241C93.0502 45.1236 92.613 44.0681 91.8349 43.29C91.0567 42.5118 90.0013 42.0746 88.9008 42.0746C87.8003 42.0746 86.7448 42.5118 85.9667 43.29C85.1885 44.0681 84.7513 45.1236 84.7513 46.2241C84.7513 47.3245 85.1885 48.38 85.9667 49.1581C86.7448 49.9363 87.8003 50.3735 88.9008 50.3735ZM34.9583 25.4769H43.2571V33.7758H51.556V42.0746H43.2571V50.3735H34.9583V42.0746H26.6594V33.7758H34.9583V25.4769Z" fill="white"/>
</svg>
