<svg width="108" height="108" viewBox="0 0 108 108" fill="none" xmlns="http://www.w3.org/2000/svg">
<path d="M46.1044 60.703C57.1854 47.0943 75.9228 29.7632 92.6397 17.0925C81.7737 36.9084 65.8067 59.4738 53.6495 72.2454C50.7847 75.2498 47.3808 77.6891 43.6151 79.4361C42.5757 79.9127 41.6595 80.2723 40.9246 80.5286L37.5497 77.1537C37.9497 75.9957 38.5278 74.4483 39.263 72.6982C40.8947 68.847 43.2152 64.2523 46.1044 60.703ZM46.1044 60.703L45.7167 60.3873M46.1044 60.703L45.7167 60.3873M45.7167 60.3873C57.0244 46.5001 76.2604 28.7703 93.2197 16.0284L45.7167 60.3873ZM59.1774 77.5076L59.1777 77.5072L105.02 2.68288L105.345 2.30278C105.345 2.30272 105.345 2.30265 105.345 2.30258C104.72 1.76882 103.94 1.4508 103.12 1.39578C102.3 1.34075 101.485 1.55173 100.794 1.99735L100.794 1.9975C81.2636 14.6188 54.6541 38.1172 40.1797 55.8776L40.1795 55.8779C36.6257 60.2446 33.9695 65.603 32.23 69.7286L32.2299 69.7288C31.6631 71.0749 31.1798 72.3168 30.789 73.3811C30.1842 73.2661 29.5275 73.1784 28.8299 73.1396L28.8287 73.1395C25.0635 72.9392 20.4244 74.2341 16.8093 79.2938L16.8093 79.2938C15.3375 81.3544 14.168 83.2593 13.1628 84.9568L13.1626 84.9572L12.3862 86.2711L12.3858 86.2718C12.3273 86.3712 12.2695 86.4694 12.2124 86.5665C11.5998 87.6082 11.0635 88.5202 10.4948 89.3822L10.4928 89.3854C8.91578 91.816 7.44332 93.4372 4.93665 94.6908C3.95162 95.1799 2.33604 96.1473 1.63414 97.9563C1.22028 99.0138 1.20975 100.187 1.6046 101.251L1.60456 101.251L1.60662 101.257C1.92081 102.075 2.43538 102.802 3.10317 103.37L3.10307 103.37L3.11294 103.378C4.07758 104.157 5.18303 104.743 6.36907 105.105C7.61023 105.509 8.88137 105.814 10.1706 106.017L10.1749 106.018C17.0398 107.042 24.0372 106.742 30.7893 105.134L30.795 105.133C37.9445 103.34 41.1266 97.7028 42.4855 93.2473L42.4858 93.2465C43.1163 91.1658 43.4053 89.2003 43.5401 87.7044C49.4698 85.5615 54.823 82.0715 59.1774 77.5076ZM28.4228 80.7672C29.2912 80.818 30.1443 81.0163 30.9456 81.3533L31.056 81.4636V81.5908H31.1834L35.9826 86.3839C35.8958 87.9549 35.6259 89.5106 35.1782 91.0194C34.2089 94.1912 32.4156 96.85 28.9469 97.7125L28.946 97.7127C23.3751 99.11 17.0956 99.2238 12.6087 98.6574C14.2794 97.1733 15.7263 95.4522 16.9025 93.5474C17.6178 92.4375 18.3315 91.23 19.0337 90.031C19.0339 90.0306 19.0342 90.0301 19.0345 90.0296L19.7298 88.8575L19.7301 88.8571C20.6892 87.2365 21.7292 85.5453 23.0241 83.7376L23.0247 83.7368C23.9962 82.3748 24.9802 81.6215 25.8883 81.2134C26.7969 80.8051 27.663 80.7272 28.4228 80.7672Z" fill="white" stroke="white"/>
</svg>
