<svg width="154" height="68" viewBox="0 0 154 68" fill="none" xmlns="http://www.w3.org/2000/svg">
<path d="M10.3604 0.799805V22.3298H18.5304V8.1698H24.7203V0.799805H10.3604Z" fill="white"/>
<path d="M18.5297 22.3198H10.3496V31.2798H18.5297V22.3198Z" fill="white"/>
<path d="M22.8201 22.3198H18.54V31.2798H22.8201V22.3198Z" fill="white"/>
<path d="M24.8203 22.3198H22.8203V31.2798H24.8203V22.3198Z" fill="white"/>
<path d="M30.8596 31.2798H24.8096V57.6798H30.8596V31.2798Z" fill="white"/>
<path d="M22.8201 8.15967H18.54V22.3197H22.8201V8.15967Z" fill="white"/>
<path d="M0.790039 22.3198V67.5298H30.8701V57.6798H24.8201V31.2898H10.36V22.3198H0.790039Z" fill="white"/>
<path d="M22.8203 8.16992V22.3299H24.8103V31.2799H30.8603V57.6799H41.1103V8.16992H22.8203Z" fill="white"/>
<path d="M24.24 8.16992V22.1099H22.5V22.7199H25.19V8.16992H24.24Z" fill="#1D1D1B"/>
<path d="M20.6098 11.1396C20.5145 10.9543 20.4041 10.777 20.2799 10.6096C20.0868 10.3816 19.8391 10.2061 19.5599 10.0996C18.9782 9.93566 18.373 9.87142 17.7699 9.90964C17.0599 9.90964 16.2198 10.0396 16.1098 10.6496C15.9998 11.2596 16.3099 11.4096 16.8899 11.5296C17.6762 11.6902 18.4773 11.7673 19.2799 11.7596C19.7395 11.764 20.1883 11.6202 20.5599 11.3496C20.6699 11.2896 20.6098 11.1396 20.6098 11.1396Z" fill="#1D1D1B"/>
<path d="M27.2394 35.0695C27.1294 34.8895 26.8494 34.0695 25.0594 33.9695C23.2694 33.8695 22.8294 34.7295 22.7994 34.9695C22.7694 35.2095 22.6294 35.6295 23.2694 35.7295C24.0865 35.8536 24.9138 35.8971 25.7394 35.8595C26.2589 35.881 26.7724 35.7413 27.2094 35.4595C27.3194 35.3295 27.2094 35.0395 27.2094 35.0395" fill="#1D1D1B"/>
<path d="M13.9998 39.9994C13.9998 39.9994 12.6098 37.6394 11.2698 37.0994C9.96187 36.7312 8.57769 36.7312 7.26978 37.0994C6.90933 37.1603 6.58171 37.3459 6.34412 37.6237C6.10652 37.9015 5.97399 38.2539 5.96973 38.6194C6.00107 39.0448 6.15329 39.4525 6.40839 39.7944C6.66348 40.1363 7.01085 40.3982 7.40973 40.5494C8.80972 41.0751 10.3106 41.2768 11.7997 41.1394C12.2253 41.1115 12.6404 40.9958 13.019 40.7996C13.3977 40.6034 13.7316 40.331 13.9998 39.9994Z" fill="#1D1D1B"/>
<path d="M11.1497 40.3897C11.3212 40.1151 11.3992 39.7924 11.3722 39.4698C11.3452 39.1471 11.2145 38.8419 10.9996 38.5997C10.7198 38.3833 10.3919 38.2376 10.0437 38.1749C9.69554 38.1123 9.33738 38.1345 8.99963 38.2397C8.73757 38.3732 8.51596 38.5743 8.35773 38.8222C8.19949 39.0701 8.11035 39.3558 8.09961 39.6497C8.09961 40.1897 8.27961 40.6497 8.78961 40.7497C9.3566 40.89 9.93614 40.9737 10.5197 40.9997C10.6608 40.9527 10.7888 40.873 10.8931 40.7669C10.9974 40.6609 11.075 40.5316 11.1196 40.3897" fill="white"/>
<path d="M18.54 31.2798V57.6698H22.42V56.5798H20.5201V31.2798H18.54Z" fill="#1D1D1B"/>
<path d="M60.5004 11.9394H57.5004V19.0494H60.0004C61.9104 19.0494 62.4904 18.8194 63.1204 17.8394C63.5555 17.1145 63.7547 16.2724 63.6904 15.4294C63.6904 13.2494 62.5203 11.9394 60.5403 11.9394H60.5004ZM64.8004 22.0994C63.3356 22.741 61.7336 23.0057 60.1404 22.8694H57.5504V31.4594H52.8604V8.14941H59.0004C63.0004 8.14941 64.1603 8.54941 65.4703 9.28941C66.53 9.88151 67.4049 10.7556 67.998 11.8147C68.5911 12.8738 68.8793 14.0765 68.8304 15.2894C68.8982 16.6853 68.5555 18.0705 67.8446 19.2737C67.1337 20.4769 66.0858 21.4454 64.8304 22.0594" fill="white"/>
<path d="M79.0008 23.9997C75.8808 23.9997 74.8108 24.5697 74.8108 26.6097C74.7751 26.8925 74.8004 27.1797 74.8848 27.452C74.9692 27.7243 75.1109 27.9754 75.3003 28.1885C75.4897 28.4016 75.7225 28.5717 75.983 28.6875C76.2435 28.8032 76.5257 28.8619 76.8108 28.8597C77.2607 28.8381 77.7012 28.7228 78.1041 28.5214C78.507 28.3199 78.8635 28.0367 79.1508 27.6897L79.2208 23.9997H79.0008ZM82.8208 32.3797C81.8021 31.9842 80.9509 31.2496 80.4108 30.2997C80.1 30.627 79.7658 30.9311 79.4108 31.2097C78.3802 31.8684 77.173 32.1964 75.9508 32.1497C72.1208 32.1497 70.0508 30.1997 70.0508 26.7797C70.0508 22.7797 72.8308 20.8797 78.3008 20.8797C78.6408 20.8797 78.9408 20.8797 79.3008 20.8797V20.1797C79.3008 18.2697 78.9308 17.6297 77.3008 17.6297C75.4816 17.7794 73.7448 18.4532 72.3008 19.5697L70.3908 16.3597C71.2715 15.8042 72.2022 15.3321 73.1708 14.9497C74.65 14.2906 76.2513 13.9499 77.8708 13.9497C80.7508 13.9497 82.7308 15.0197 83.4008 16.9497C83.7082 17.9489 83.8102 19 83.7008 20.0397L83.6008 25.8097C83.6008 27.6897 83.7008 28.4897 85.2208 29.6297L82.8208 32.3797Z" fill="white"/>
<path d="M96.8599 18.2096C96.4609 17.9838 96.0083 17.8698 95.5499 17.8796C95.0132 17.8992 94.4876 18.0388 94.0118 18.2879C93.5359 18.5371 93.1218 18.8896 92.7999 19.3196V31.4596H88.2999V19.9996C88.3627 18.3098 88.1499 16.621 87.6699 14.9996L91.6699 13.9296C92.0921 14.677 92.3352 15.5123 92.3799 16.3696C92.8122 15.6809 93.3985 15.102 94.0927 14.6786C94.7868 14.2552 95.5698 13.9987 96.3799 13.9296C96.9591 13.9081 97.534 14.0355 98.0499 14.2996L96.8599 18.2096Z" fill="white"/>
<path d="M101.29 31.4595V14.5895L105.78 13.8895V31.4595H101.29ZM103.53 12.3395C102.797 12.3342 102.096 12.0387 101.581 11.5176C101.066 10.9966 100.778 10.2925 100.78 9.55953C100.788 8.81683 101.089 8.10724 101.617 7.58485C102.145 7.06247 102.857 6.76949 103.6 6.76953C104.31 6.8201 104.974 7.14004 105.456 7.66389C105.937 8.18775 106.201 8.8759 106.192 9.58754C106.183 10.2992 105.902 10.9805 105.408 11.4921C104.913 12.0037 104.241 12.3068 103.53 12.3395Z" fill="white"/>
<path d="M115.571 31.9993C113.132 31.893 110.753 31.2074 108.631 29.9993L110.241 26.7093C111.949 27.8312 113.906 28.5179 115.941 28.7093C116.224 28.7339 116.509 28.7011 116.778 28.613C117.048 28.5248 117.297 28.3832 117.511 28.1964C117.725 28.0097 117.899 27.7818 118.023 27.5262C118.146 27.2707 118.217 26.9929 118.231 26.7093C118.231 25.5393 117.381 24.9393 115.571 24.5993L113.571 24.2393C112.37 23.983 111.273 23.3736 110.421 22.4893C109.764 21.5935 109.414 20.51 109.421 19.3993C109.421 16.0493 112.071 13.7993 116.061 13.7993C118.209 13.8204 120.319 14.3736 122.201 15.4093L120.721 18.4093C119.431 17.6624 117.98 17.2403 116.491 17.1793C115.181 17.1793 114.311 17.8393 114.311 18.8493C114.311 19.8593 114.881 20.1993 116.461 20.5993L118.541 21.1393C120.651 21.6693 121.361 22.3093 121.961 23.0793C122.596 23.9139 122.924 24.9414 122.891 25.9893C122.891 29.5493 119.951 31.9893 115.551 31.9893" fill="white"/>
<path d="M65.2404 57.6697V46.5297H55.5403V57.6697H52.8604V34.6597H55.5403V44.2797H65.2404V34.6597H67.9904V57.6697H65.2404Z" fill="white"/>
<path d="M80.8297 49.1098C76.6097 49.1098 75.0997 50.5598 75.0997 53.1098C75.0997 55.1098 76.0997 56.1698 77.9797 56.1698C78.832 56.1547 79.6633 55.9025 80.3804 55.4415C81.0975 54.9805 81.6721 54.329 82.0397 53.5598L82.1397 49.1898C81.7097 49.1898 81.2997 49.1198 80.8297 49.1198V49.1098ZM84.6597 58.3098C84.1013 58.1345 83.598 57.8176 83.1984 57.39C82.7989 56.9624 82.5168 56.4387 82.3797 55.8698C81.7892 56.5758 81.0501 57.1426 80.2151 57.5298C79.3802 57.9171 78.47 58.1151 77.5497 58.1098C73.4197 58.1098 72.1797 55.5998 72.1797 53.3498C72.1797 49.5598 75.4397 47.3498 81.0297 47.3498C81.7397 47.3498 82.2097 47.3498 82.2097 47.3498V46.1998C82.2097 44.7198 82.1397 44.1198 81.6697 43.5798C81.3883 43.2679 81.0392 43.0246 80.6492 42.8686C80.2591 42.7126 79.8385 42.648 79.4197 42.6798C77.4762 42.7662 75.6103 43.4664 74.0897 44.6798L72.7797 42.7998C74.8369 41.3694 77.2744 40.586 79.7797 40.5498C82.0997 40.5498 83.7097 41.4498 84.4097 43.1698C84.7633 44.3623 84.8889 45.6108 84.7797 46.8498L84.6497 52.3598C84.5797 55.0698 84.7497 55.7798 85.9897 56.4498L84.6597 58.3098Z" fill="white"/>
<path d="M99.9996 44.4199C99.6246 43.9531 99.1449 43.5813 98.5993 43.3346C98.0538 43.0879 97.4577 42.9732 96.8596 42.9999C96.0411 43.0247 95.2389 43.2347 94.5132 43.614C93.7875 43.9933 93.1572 44.5321 92.6696 45.1899V53.7699C93.1747 54.3795 93.8048 54.8735 94.5173 55.2185C95.2298 55.5635 96.0081 55.7516 96.7996 55.7699C97.3773 55.7624 97.9461 55.6266 98.465 55.3724C98.9838 55.1182 99.4396 54.7518 99.7996 54.2999C100.709 52.6558 101.126 50.7845 101 48.9099C101 46.6999 100.73 45.3899 99.9996 44.4199ZM97.2496 58.0699C96.3687 58.0504 95.5022 57.8421 94.7086 57.4591C93.9151 57.0762 93.213 56.5274 92.6496 55.8499C92.6311 56.4841 92.4704 57.106 92.1796 57.6699H89.5596C90.0134 56.333 90.1871 54.9169 90.0696 53.5099V37.0699C90.1014 35.9173 89.9529 34.7667 89.6296 33.6599L92.2496 33.1499C92.5802 34.4565 92.7282 35.8027 92.6896 37.1499V40.9999C92.6896 41.8399 92.6196 42.8399 92.6196 42.8399C93.2147 42.147 93.9505 41.5889 94.7782 41.2027C95.6059 40.8164 96.5063 40.6109 97.4196 40.5999C101.42 40.5999 103.89 43.8499 103.89 49.0799C103.89 54.3099 101.24 58.0799 97.2496 58.0799" fill="white"/>
<path d="M108.77 57.6698V40.9998L111.48 40.5698V57.6398L108.77 57.6698ZM110.18 37.8498C109.649 37.8498 109.141 37.6391 108.766 37.264C108.39 36.8889 108.18 36.3802 108.18 35.8498C108.177 35.3119 108.384 34.7943 108.758 34.4075C109.132 34.0207 109.642 33.7954 110.18 33.7798C110.722 33.7798 111.242 33.9952 111.626 34.3788C112.009 34.7623 112.225 35.2824 112.225 35.8248C112.225 36.3672 112.009 36.8873 111.626 37.2708C111.242 37.6543 110.722 37.8698 110.18 37.8698" fill="white"/>
<path d="M124.26 42.9399H120.77V53.7099C120.77 55.5499 121.28 56.1899 122.92 56.1899C123.49 56.2203 124.058 56.1032 124.57 55.8499L124.93 57.5299C124.019 57.9989 123.005 58.2326 121.98 58.2099C121.227 58.2229 120.481 58.0621 119.8 57.7399C118.63 57.1599 118.19 56.0899 118.19 54.4199V42.9399H116V40.9999H118.18C118.18 39.3799 118.45 36.7599 118.45 36.7599L121.2 36.1699C120.999 37.7725 120.885 39.3849 120.86 40.9999H125.06L124.26 42.9399Z" fill="white"/>
<path d="M136.74 49.1098C132.52 49.1098 131.01 50.5598 131.01 53.1098C131.01 55.1098 132.01 56.1698 133.89 56.1698C134.742 56.1536 135.573 55.9009 136.29 55.4401C137.007 54.9792 137.582 54.3282 137.95 53.5598L138.05 49.1898C137.62 49.1898 137.21 49.1198 136.74 49.1198V49.1098ZM140.57 58.3098C140.012 58.1316 139.509 57.814 139.108 57.387C138.708 56.96 138.423 56.4378 138.28 55.8698C137.691 56.5774 136.952 57.1453 136.117 57.5327C135.282 57.9201 134.371 58.1172 133.45 58.1098C129.33 58.1098 128.08 55.5998 128.08 53.3498C128.08 49.5598 131.34 47.3498 136.94 47.3498C137.64 47.3498 138.12 47.3498 138.12 47.3498V46.1998C138.12 44.7198 138.05 44.1198 137.58 43.5798C137.299 43.2679 136.95 43.0246 136.56 42.8686C136.17 42.7126 135.749 42.648 135.33 42.6798C133.386 42.7641 131.52 43.4646 130 44.6798L128.69 42.7998C130.746 41.3667 133.184 40.5829 135.69 40.5498C138 40.5498 139.62 41.4498 140.32 43.1698C140.674 44.3623 140.799 45.6108 140.69 46.8498L140.56 52.3598C140.48 55.0698 140.66 55.7798 141.89 56.4498L140.57 58.3098Z" fill="white"/>
<path d="M152.74 42.9399H149.25V53.7099C149.25 55.5499 149.75 56.1899 151.39 56.1899C151.961 56.2226 152.529 56.1054 153.04 55.8499L153.41 57.5299C152.499 58.0001 151.485 58.2339 150.46 58.2099C149.707 58.224 148.961 58.0631 148.28 57.7399C147.11 57.1599 146.66 56.0899 146.66 54.4199V42.9399H144.49V40.9999H146.66C146.66 39.3799 146.94 36.7599 146.94 36.7599L149.69 36.1699C149.489 37.7725 149.375 39.3849 149.35 40.9999H153.54L152.74 42.9399Z" fill="white"/>
</svg>
