<svg width="32" height="26" viewBox="0 0 32 26" fill="none" xmlns="http://www.w3.org/2000/svg">
<path d="M31.6909 22.905L23.8009 16.807C24.4304 15.6065 24.7999 14.2505 24.7999 12.8V10.4C24.7999 9.958 24.4419 9.6 23.9999 9.6H23.1999C22.7579 9.6 22.4 9.958 22.4 10.4V12.8C22.4 13.696 22.2019 14.54 21.8639 15.31L20.5365 14.284C20.6915 13.814 20.8005 13.323 20.8005 12.8005V4.8C20.8005 2.149 18.6515 0 16.0005 0C13.3495 0 11.2005 2.149 11.2005 4.8V7.068L2.27346 0.1685C1.92446 -0.1025 1.42146 -0.04 1.15046 0.309L0.168456 1.5725C-0.102544 1.921 -0.0400443 2.4235 0.308956 2.695L29.7269 25.4315C30.0759 25.703 30.5784 25.64 30.8499 25.291L31.8319 24.0275C32.1024 23.679 32.0399 23.1765 31.6909 22.905ZM20 23.2H17.2V21.5115C17.783 21.4315 18.3425 21.2845 18.8835 21.096L16.378 19.1595C16.0424 19.1795 15.7075 19.203 15.3605 19.1695C12.568 18.897 10.4235 16.738 9.80145 14.077L7.19995 12.0655V12.408C7.19995 16.89 10.3985 20.8855 14.8 21.4925V23.2H12C11.558 23.2 11.2 23.558 11.2 24V24.8C11.2 25.242 11.558 25.6 12 25.6H20C20.4419 25.6 20.7999 25.242 20.7999 24.8V24C20.7999 23.558 20.4419 23.2 20 23.2Z" fill="#D2B06F"/>
</svg>
