<svg width="265" height="142" viewBox="0 0 265 142" fill="none" xmlns="http://www.w3.org/2000/svg">
<path d="M13.6447 50.1755C16.1853 57.275 16.6546 56.4605 22.6746 63.0112C28.6809 69.5619 30.7521 75.1387 35.488 81.6362C40.2378 88.1338 51.9602 96.862 55.7573 101.129C59.5543 105.378 59.5543 101.129 61.4597 104.581C63.3513 108.033 81.8809 120.409 87.8872 125.49C93.9072 130.553 105.312 138.875 107.839 140.911C110.366 142.929 130.469 132.59 136.02 131.173C141.557 129.739 160.238 123.047 171.629 121.418C183.034 119.789 193.638 107.414 204.408 99.6947C215.164 91.9933 227.038 85.2833 232.106 80.2198C237.173 75.1387 238.277 71.8988 244.933 67.8268C251.574 63.7725 253.48 50.7774 253.48 50.7774C253.212 50.787 252.945 50.7811 252.679 50.7597C253.48 54.6901 241.398 57.5582 241.398 57.5582C241.398 57.5582 185.878 64.5869 176.379 62.6925C166.879 60.7981 130.787 61.6125 116.234 59.1693C101.667 56.7438 69.1644 52.4062 64.3042 50.5119C59.4577 48.6175 60.3 42.4032 56.0749 41.3056C51.8498 40.2256 38.9813 40.7745 38.9813 40.7745C38.9813 40.7745 32.4366 35.3569 28.4187 33.728C24.4145 32.117 11.7531 33.728 11.7531 33.728C11.7531 33.728 3.93811 31.0193 2.66781 26.4338C-1.19829 29.957 11.1179 43.076 13.6447 50.1755Z" fill="#F7FBFD"/>
<path d="M250.677 48.8477C252.472 46.7231 258.865 36.5786 261.861 32.9137C263.711 30.6652 263.283 29.656 262.689 29.1957C261.985 33.3563 243.953 31.3202 237.173 31.7098C230.2 32.1347 236.11 32.6481 233.376 36.9857C230.629 41.3055 224.926 38.5967 223.67 44.2976C222.537 49.3611 244.049 46.4753 250.677 48.8477Z" fill="#F7FBFD"/>
<path d="M37.2834 14.802C39.7964 14.448 47.3491 11.7569 55.5644 8.94183H55.5782C65.3401 5.59583 76.0132 2.0725 80.1417 2.0725C87.7358 2.0725 91.7398 1.807 97.2766 3.15255C98.778 3.46736 100.331 3.4371 101.819 3.06405C106.307 2.19644 111.415 -0.335268 117.491 1.25817C125.734 3.41806 149.786 2.88696 149.786 2.88696C149.786 2.88696 167.736 1.52368 174.488 4.78133C181.24 8.02127 189.262 5.86129 189.262 5.86129L206.783 6.39239C206.783 6.39239 220.287 7.20683 222.607 10.9956C224.926 14.7844 262.193 17.6702 262.717 28.8593C262.722 28.9721 262.713 29.0852 262.69 29.1957C261.985 33.3563 243.953 31.3202 237.173 31.7098C230.201 32.1347 236.11 32.648 233.376 36.9856C230.629 41.3055 224.926 38.5967 223.67 44.2976C222.538 49.361 244.05 46.4752 250.677 48.8476C251.346 49.0336 251.937 49.4311 252.362 49.9807C252.517 50.2174 252.625 50.4819 252.679 50.7596C253.48 54.6901 241.399 57.5582 241.399 57.5582C241.399 57.5582 185.879 64.5869 176.379 62.6925C166.88 60.7981 130.787 61.6125 116.234 59.1692C101.667 56.7437 69.1648 52.4062 64.3046 50.5118C59.4582 48.6175 60.3004 42.4032 56.0753 41.3055C51.8503 40.2256 38.9818 40.7744 38.9818 40.7744C38.9818 40.7744 32.437 35.3569 28.4191 33.728C24.4149 32.117 11.7535 33.728 11.7535 33.728C11.7535 33.728 3.93854 31.0193 2.66824 26.4338C1.41176 21.8307 31.8019 15.5987 37.2834 14.802Z" fill="#3BCBA4"/>
<path d="M177.13 62.8096C177.869 63.0155 171.267 74.3598 169.229 79.8106C167.191 85.2614 162.103 107.889 162.103 107.889L160.562 62.1513C160.562 62.1513 167.112 60.0173 177.13 62.8096Z" fill="#071462"/>
<path d="M61.5682 48.4286C61.5682 48.4286 68.8807 59.705 70.1398 62.1639C71.399 64.6228 75.9823 76.4024 86.6866 87.2407C97.3909 98.0789 108.277 118.576 109.744 122.164C111.212 125.753 113.572 133.04 113.572 133.04C113.572 133.04 102.149 117.355 98.7028 112.84C95.2566 108.325 81.3161 90.4807 78.8018 87.6183C76.2876 84.7558 71.2691 78.1731 67.2335 77.1651C62.0858 75.6502 57.4917 72.6666 54.0143 68.5799C50.4525 64.2392 49.9476 60.9981 46.5189 58.7932C43.0903 56.5883 40.2628 58.5667 37.5565 53.2512C34.8502 47.9358 36.9989 45.9623 31.2943 41.5676C25.5897 37.1729 16.0239 34.2514 16.0239 34.2514C16.0239 34.2514 26.9569 32.5097 30.4562 34.7408C33.9554 36.972 37.5529 41.0414 39.9274 41.0414C42.3019 41.0414 56.1735 40.1377 57.7157 42.1695C59.1122 44.1846 60.3983 46.274 61.5682 48.4286Z" fill="#071462"/>
<path d="M258.203 37.9475C257.436 39.081 242.87 38.6056 241.92 42.0563C241.403 43.9844 240.767 45.8784 240.014 47.7273C240.014 47.7273 224.253 48.987 223.747 45.2172C223.24 41.4473 231.568 38.7761 231.568 38.7761C231.568 38.7761 234.633 36.0087 234.124 34.2514C233.615 32.4942 232.11 33.1077 233.615 32.4942C235.12 31.8806 249.202 31.8583 249.202 31.8583C249.202 31.8583 261.929 30.7467 262.689 29.1957C263.449 27.6447 262.369 31.7942 258.203 37.9475Z" fill="#071462"/>
<path d="M12.434 50.4999C13.1032 52.6852 14.072 54.7671 15.313 56.6862C16.6886 58.4142 18.1826 60.0445 19.7841 61.5655C22.4476 64.3083 24.8511 67.2921 26.9638 70.4786C28.8181 73.3199 30.4712 76.2865 32.3265 79.1273C35.5744 84.1003 39.738 88.1142 44.1601 92.0401C46.3464 93.9811 48.5703 95.8795 50.7501 97.8279C51.6479 98.6303 52.5405 99.4401 53.3991 100.285C54.1891 101.168 55.0261 102.008 55.9065 102.802C56.6039 103.399 57.4945 103.723 58.4127 103.713C59.1815 103.694 59.0985 103.441 59.6059 103.951C60.1029 104.45 60.3763 105.17 60.833 105.716C61.2755 106.227 61.7504 106.709 62.255 107.159C65.7215 110.2 69.3525 113.048 73.1314 115.69C77.0779 118.598 81.0842 121.434 84.9448 124.456C88.9975 127.628 92.9585 130.906 97.0595 134.02C99.2094 135.653 101.369 137.273 103.524 138.899C104.296 139.482 105.069 140.065 105.834 140.656C106.216 141.015 106.649 141.317 107.118 141.55C108.292 141.992 109.853 141.579 111.016 141.304C112.91 140.825 114.771 140.223 116.588 139.504C121.059 137.817 125.42 135.853 129.822 133.997C132.906 132.733 136.053 131.628 139.251 130.689C149.917 127.415 160.529 123.626 171.586 121.885C177.816 120.905 183.306 117.431 188.226 113.66C193.8 109.388 198.891 104.516 204.545 100.345C210.635 95.8534 217.1 91.8918 223.376 87.6708C225.892 85.9782 228.397 84.253 230.75 82.3359C232.869 80.5592 234.819 78.5906 236.576 76.4554C238.221 74.3711 240.036 72.427 242.003 70.643C244.17 68.81 246.815 67.6293 248.678 65.4481C251.592 62.0363 253.144 57.5295 254.151 53.2201C254.355 52.3464 254.546 51.4647 254.677 50.5767C254.73 50.2226 254.228 50.242 253.993 50.2492C253.814 50.2565 253.634 50.2506 253.455 50.2318C253.06 50.2122 251.363 50.4323 251.468 51.0841C251.709 52.5773 250.182 53.6145 249.065 54.2648C247.458 55.1483 245.76 55.8544 244.001 56.3708C243.112 56.6539 242.205 56.9392 241.291 57.1347C242.049 56.9725 241.034 57.1375 240.859 57.1593C235.962 57.7694 231.061 58.3483 226.157 58.896C218.116 59.8003 210.068 60.6432 202.006 61.3407C195.149 62.066 188.259 62.447 181.364 62.4824C179.347 62.4017 177.336 62.1986 175.344 61.8743C171.838 61.4125 168.287 61.2643 164.758 61.1123C154.92 60.6887 145.072 60.5716 135.234 60.1484C130.75 59.9556 126.262 59.7215 121.797 59.2646C118.073 58.8835 114.389 58.2059 110.691 57.6345C101.006 56.1379 91.3029 54.7542 81.6249 53.2089C77.6909 52.5808 73.7536 51.9444 69.848 51.1559C66.9451 50.5699 64.048 50.137 62.31 47.4338C61.2566 45.7954 60.7216 43.8267 59.4484 42.3277C58.2576 40.9258 56.5789 40.6391 54.8454 40.4381C50.6751 40.0559 46.4834 39.9627 42.3002 40.159C41.365 40.181 40.4297 40.2068 39.495 40.2463L40.1191 40.3494C38.0167 38.6042 35.8155 36.9814 33.5266 35.4892C32.1494 34.5142 30.6548 33.7168 29.0781 33.1158C27.7417 32.7342 26.3598 32.535 24.9699 32.5235C21.7086 32.4201 18.4441 32.5416 15.1995 32.8871C14.213 32.9787 13.2037 33.0413 12.2254 33.2032C11.553 33.3144 12.7002 33.2379 12.6743 33.2108C12.3686 33.0371 12.04 32.907 11.6982 32.8243C8.65754 31.5396 4.90573 29.477 3.87887 26.1094C3.67338 25.4354 1.84616 26.2281 1.56533 26.501C0.388629 27.6443 0.646361 29.3369 1.11617 30.7533C1.95347 32.9688 3.0516 35.0767 4.38735 37.0325C7.12283 41.3928 10.6506 45.6235 12.434 50.4999C12.663 51.1262 15.0554 50.3969 14.8558 49.851C13.1413 45.163 9.78715 41.0716 7.13253 36.8955C5.81146 34.9514 4.68268 32.8834 3.76205 30.7208C3.26153 29.4334 2.61057 27.4938 3.77059 26.3666L1.45711 26.7583C2.19705 29.185 4.33888 30.8982 6.4341 32.1567C7.76075 33.0618 9.21885 33.7572 10.7572 34.2185C11.0304 34.2597 11.3083 34.2589 11.5813 34.2161C11.8364 34.1935 11.8586 34.1823 11.9528 34.1716C12.8055 34.0743 13.6593 33.9877 14.5142 33.9121C17.103 33.6527 19.7036 33.5305 22.3053 33.5458C24.6437 33.4513 26.9673 33.9568 29.0551 35.0141C31.5582 36.4474 33.9444 38.0758 36.1917 39.8841C36.6928 40.3622 37.2359 40.7942 37.8144 41.175C38.1773 41.3065 38.5677 41.344 38.949 41.284C40.9185 41.2198 42.8881 41.1726 44.8588 41.1645C47.5134 41.1202 50.1684 41.213 52.8134 41.4426C53.873 41.4675 54.9185 41.6926 55.8944 42.1061C56.8689 42.7101 57.6396 43.5926 58.1068 44.6395C59.2751 46.8441 60.1309 49.3381 62.456 50.6058C63.6827 51.188 64.9848 51.5956 66.3245 51.8168C76.7399 54.1185 87.4169 55.4195 97.9579 56.9989C108.131 58.5233 118.229 60.3634 128.511 60.9487C140.344 61.6222 152.2 61.6661 164.038 62.2048C167.899 62.2956 171.749 62.6342 175.566 63.2186C178.365 63.595 181.195 63.6883 184.013 63.4971C193.385 63.2244 202.748 62.2924 212.072 61.3502C220.393 60.5095 228.704 59.5815 237.005 58.5661C238.392 58.3981 239.809 58.2943 241.185 58.0513C244.732 57.4061 248.13 56.1134 251.209 54.2378C252.496 53.4326 254.168 52.1592 253.89 50.4352L251.903 51.2875C252.257 51.3051 252.611 51.3165 252.966 51.3055L252.282 50.978C251.828 53.9139 251.034 56.7871 249.917 59.54C249.076 61.8167 247.849 63.9316 246.29 65.7922C244.433 67.8815 241.778 69.0729 239.665 70.8898C235.54 74.4384 232.673 79.1707 228.395 82.5872C223.2 86.7367 217.449 90.194 211.911 93.8563C205.92 97.7773 200.168 102.052 194.685 106.656C189.615 110.951 184.544 115.548 178.599 118.615C176.008 119.894 173.23 120.751 170.369 121.156C167.617 121.624 164.89 122.253 162.185 122.939C156.456 124.393 150.805 126.138 145.17 127.915C141.564 129.051 137.882 130.026 134.305 131.245C130.375 132.584 126.589 134.375 122.772 135.996C118.992 137.776 115.075 139.247 111.058 140.396C110.084 140.633 109.455 140.843 108.677 140.247C107.155 139.082 105.629 137.922 104.099 136.768C96.1078 130.751 88.4045 124.369 80.3377 118.456C76.2558 115.464 72.1405 112.508 68.1714 109.366C66.7627 108.251 65.353 107.119 64.0613 105.868C63.6301 105.473 63.234 105.042 62.8773 104.579C62.4492 103.987 62.1792 103.194 61.5216 102.802C60.9487 102.563 60.3166 102.505 59.7096 102.634C58.8515 102.47 58.0754 102.018 57.5099 101.352C55.8609 99.7435 54.2875 98.0966 52.5597 96.5632C48.18 92.6763 43.6217 88.9525 39.5887 84.6949C35.1735 80.0339 32.3832 74.2643 28.8249 68.9829C26.8085 66.04 24.5451 63.2741 22.0593 60.7153C20.4443 59.2 18.9472 57.5638 17.581 55.8208C16.4156 53.9585 15.4994 51.9515 14.8559 49.851C14.6309 49.2259 12.2362 49.9502 12.434 50.4999Z" fill="#1D1D1B"/>
<path d="M251.667 49.1159C254.324 45.9198 256.463 42.2382 258.804 38.8111C260.029 37.0174 261.253 35.2125 262.593 33.5021C263.497 32.3492 265.44 30.0744 263.807 28.6958C263.194 28.1783 261.658 28.4281 261.472 29.3215C261.172 30.7536 257.908 30.8072 256.746 30.9102C253.501 31.1353 250.245 31.1772 246.994 31.0356C244.026 30.963 241.051 30.8169 238.082 30.9121C236.864 30.9511 232.051 30.7779 232.423 33.0404C232.543 33.7767 232.988 34.3226 232.92 35.1191C232.816 35.8477 232.534 36.5396 232.1 37.1341C231.666 37.7286 231.093 38.2076 230.431 38.5292C227.887 39.8016 224.774 39.724 223.177 42.4783C222.151 44.2472 222.069 45.9931 224.034 46.9451C226.105 47.949 228.651 48.068 230.907 48.2148C234.389 48.4415 237.882 48.4317 241.368 48.5508C244.193 48.6474 247.251 48.639 249.954 49.5748C250.836 49.88 252.794 48.6034 251.4 48.1206C249.085 47.4503 246.689 47.1045 244.279 47.093C241.184 46.9309 238.083 46.9206 234.986 46.8194C232.389 46.8412 229.796 46.5983 227.248 46.0945C225.336 45.6304 224.311 44.904 225.326 42.8738C225.635 42.3328 226.059 41.866 226.567 41.5065C227.076 41.1469 227.657 40.9032 228.271 40.7926C229.708 40.4516 231.092 39.9138 232.383 39.1943C234.386 37.9243 235.972 35.4367 235.097 33.0527C235.024 32.8014 234.934 32.5553 234.829 32.3158C235.005 32.3696 233.841 32.8102 234.923 32.6533C236.282 32.4806 237.651 32.4055 239.021 32.4285C242.079 32.4284 245.135 32.5721 248.192 32.6225C251.627 32.7863 255.069 32.6423 258.478 32.1922C260.331 31.8865 263.442 31.2956 263.907 29.07L261.572 29.6957C262.924 30.8371 260.546 33.0297 259.831 33.9797C258.552 35.6811 257.351 37.4417 256.154 39.2013C254.036 42.3141 252.098 45.6803 249.687 48.5794C248.743 49.7146 251.066 49.8386 251.667 49.1159Z" fill="#1D1D1B"/>
<path d="M60.3775 47.6129C60.8263 50.4309 61.9514 53.0981 63.6564 55.3862C65.0779 57.3128 66.7845 59.0176 68.0889 61.0324C69.8867 63.8093 71.1994 66.9239 72.9041 69.7686C74.7165 72.7932 76.6745 75.7285 78.7182 78.6013C86.6148 89.7009 95.7682 99.8862 102.831 111.575C107.012 118.356 110.22 125.691 112.361 133.365L114.687 132.532C108.452 123.811 102.062 115.203 95.5194 106.708C92.2935 102.524 89.0296 98.3687 85.7278 94.2435C82.5965 90.1258 79.2385 86.1855 75.6694 82.4408C72.5057 79.3817 68.9346 76.7743 65.0573 74.6926C61.3684 72.62 57.5746 70.5918 54.5816 67.5413C51.6493 64.5528 50.1146 60.3883 46.9497 57.6352C45.2299 56.1391 43.1306 55.8174 41.1459 54.8441C39.4154 53.858 38.0669 52.3185 37.3171 50.4733C36.3044 48.4008 35.5684 46.2043 34.4939 44.1603C33.4431 42.1573 32.0031 40.384 30.2582 38.9445C26.8681 36.1335 22.6049 34.7274 18.443 33.5018C17.5166 33.229 15.5871 34.5823 17.0093 35.0011C20.7432 36.1006 24.5144 37.326 27.6642 39.6906C31.1809 42.3307 32.6477 46.0635 34.3569 49.9503C35.022 51.7123 36.013 53.3333 37.2781 54.7285C38.8369 56.2606 40.8367 56.6777 42.7836 57.4993C46.6666 59.1381 48.3062 63.6409 50.7653 66.7569C56.1456 73.5746 64.9426 75.8931 71.3334 81.4815C75.0039 84.9059 78.371 88.6417 81.3971 92.6469C84.6614 96.6925 87.8889 100.767 91.0797 104.871C98.3985 114.285 105.524 123.844 112.456 133.548C112.955 134.246 115.039 133.669 114.782 132.716C111.204 119.439 103.87 107.75 95.6533 96.8751C87.1666 85.643 77.9158 74.903 71.5527 62.2468C70.2239 59.8483 68.6338 57.6041 66.8115 55.5551C64.7217 53.107 63.335 50.1379 62.7993 46.964C62.6392 45.9713 60.2083 46.5638 60.3775 47.6129V47.6129Z" fill="#1D1D1B"/>
<path d="M176.674 62.7099C175.93 64.5288 174.964 66.2491 173.799 67.8317C172.776 69.4221 171.83 71.0578 170.959 72.7391C169.099 76.3484 167.566 80.1171 166.379 84C163.792 92.3859 162.528 101.168 160.942 109.781L163.384 109.555L161.783 62.0379C161.743 60.8549 159.308 61.2905 159.341 62.2645L160.942 109.781C160.982 110.977 163.207 110.517 163.384 109.555C164.97 100.941 166.235 92.1592 168.822 83.7734C170.037 79.8248 171.623 76.0004 173.561 72.3517C175.32 69.0468 177.911 66.0456 179.116 62.4832C179.457 61.4754 176.996 61.7569 176.674 62.7099H176.674Z" fill="#1D1D1B"/>
<path d="M1.45722 26.7583C2.3081 29.5393 4.88971 31.4203 7.32691 32.767C8.57412 33.4561 10.2624 34.5453 11.7468 34.4619C16.6358 34.187 21.8008 33.027 26.6648 34.1373C29.6109 34.8099 32.3776 37.0979 34.7577 38.8595C35.9464 39.7392 37.4418 41.5316 39.0031 41.5186C44.0555 41.4766 49.2102 41.0486 54.2321 41.8028C54.8557 41.8509 55.462 42.0303 56.0114 42.3293C56.5607 42.6283 57.0407 43.0402 57.4196 43.5377C58.1798 44.7326 58.8482 45.9833 59.4191 47.2793C59.9313 48.3244 60.6615 49.2475 61.5604 49.9867C62.4594 50.7258 63.5063 51.2638 64.6306 51.5644C69.3128 52.7213 74.0557 53.6169 78.8373 54.2471C91.5657 56.3029 104.326 58.2954 117.088 60.1306C123.144 60.8948 129.236 61.3487 135.339 61.4906C142.451 61.7779 149.567 61.9309 156.682 62.152C162.217 62.324 167.793 62.4319 173.3 63.0612C174.719 63.2234 176.115 63.542 177.539 63.6591C179.184 63.7945 180.843 63.7897 182.493 63.7638C193.24 63.5956 203.992 62.4482 214.675 61.3448C223.135 60.471 231.586 59.5101 240.027 58.4623C242.258 58.132 244.444 57.5462 246.541 56.7164C248.799 55.8869 251.415 54.8475 253.031 52.9809C253.351 52.6611 253.596 52.2735 253.747 51.8467C253.898 51.4199 253.951 50.9647 253.903 50.5146C253.632 48.9628 252.1 48.2991 250.739 47.9235C248.332 47.3637 245.871 47.0753 243.4 47.0637C240.412 46.9349 237.42 46.9217 234.431 46.8129C231.942 46.8286 229.458 46.5723 227.024 46.0486C225.079 45.5376 224.329 44.6516 225.422 42.6869C225.773 42.1606 226.23 41.7128 226.763 41.3716C227.296 41.0304 227.894 40.8032 228.519 40.7044C229.884 40.3811 231.194 39.8612 232.409 39.161C234.38 37.8853 235.964 35.4482 235.106 33.0762C235.05 32.8349 234.962 32.6023 234.843 32.385C234.846 32.3871 234.577 32.3241 234.415 32.727C234.384 32.8038 234.543 32.6509 234.734 32.6637C236.073 32.754 237.53 32.4183 238.894 32.4159C241.884 32.4107 244.874 32.5502 247.863 32.6042C250.924 32.7159 253.988 32.6377 257.039 32.37C259.039 32.1567 261.625 31.855 263.148 30.377C264.433 29.1298 263.887 27.2653 263.08 25.8989C262.064 24.3601 260.7 23.0821 259.099 22.1685C254.838 19.4797 249.781 18.005 244.962 16.6803C240.022 15.3222 235.008 14.2659 230.05 12.978C228.387 12.6019 226.757 12.0949 225.175 11.4617C223.902 10.9032 223.582 10.036 222.405 9.21184C220.24 7.69584 217.373 7.09438 214.823 6.60769C212.56 6.17998 210.277 5.87335 207.982 5.68908C204.828 5.43067 201.635 5.46379 198.474 5.36797L191.47 5.15566C190.427 5.0897 189.38 5.15091 188.351 5.33794C184.963 6.05643 181.455 5.98478 178.098 5.12856C176.429 4.67564 174.923 3.82626 173.269 3.33104C171.907 2.94379 170.519 2.65675 169.115 2.47219C163.406 1.76394 157.642 1.61176 151.903 2.01778C151.302 2.04813 150.697 2.07186 150.097 2.1241C149.807 2.14934 150.055 2.13469 150.214 2.12859C150.08 2.13373 149.946 2.13422 149.812 2.13634C148.148 2.1626 146.484 2.17864 144.82 2.18447C138.8 2.20038 132.766 2.11921 126.76 1.68648C124.14 1.55402 121.533 1.23101 118.961 0.72002C117.024 0.225231 115.032 -0.0164958 113.033 0.000873534C110.878 0.122492 108.743 0.484412 106.668 1.07988C104.67 1.72001 102.627 2.21058 100.556 2.54757C98.4755 2.77566 96.4263 2.03637 94.3785 1.7397C90.5244 1.30797 86.6434 1.16353 82.7678 1.30754C79.3678 1.33718 75.9868 1.81762 72.7131 2.73635C68.251 3.93312 63.858 5.38873 59.4811 6.86235C58.3469 7.24421 57.187 7.58935 56.0709 8.02071C55.7159 8.15789 55.9098 8.21811 56.0161 8.18294C55.8558 8.23594 55.5636 8.21326 55.3797 8.25261C54.6473 8.45747 53.9275 8.70479 53.2238 8.99327C50.9115 9.78918 48.6007 10.5897 46.2843 11.3738C43.375 12.5021 40.3822 13.4019 37.333 14.065C27.5748 15.7269 17.5913 17.7958 8.33271 21.3559C6.53449 21.9761 4.82233 22.8221 3.23737 23.8738C2.34537 24.5157 1.1659 25.5142 1.45728 26.7582C1.67802 27.7007 4.10534 27.0755 3.87904 26.1093C3.70335 25.3592 4.78827 24.6876 5.54615 24.239C7.22614 23.3111 8.99278 22.5496 10.8209 21.9654C15.7838 20.2948 20.8362 18.9034 25.9546 17.7975C29.63 16.9549 33.323 16.1725 37.0454 15.5666C39.7028 15.0383 42.314 14.2992 44.8541 13.3565C46.8399 12.696 48.819 12.0156 50.7977 11.3345C51.8881 10.9591 52.9785 10.5837 54.0687 10.208C54.3129 10.1415 54.5524 10.0592 54.7858 9.96148C54.7902 9.95928 55.52 9.57073 55.1265 9.70067C55.6077 9.54179 56.1635 9.49367 56.6663 9.32174C60.8015 7.90842 64.9445 6.51136 69.1286 5.24858C72.2778 4.16973 75.5194 3.38266 78.8127 2.89733C80.6315 2.7753 82.4554 2.74703 84.277 2.81261C86.0361 2.80589 87.7966 2.80516 89.5541 2.88948C91.2403 2.95977 92.9197 3.14543 94.5805 3.44521C96.3601 3.9151 98.1982 4.12595 100.038 4.07122C103.926 3.7046 107.548 1.98417 111.437 1.59023C114.563 1.27358 117.488 2.25205 120.547 2.67376C126.115 3.33959 131.718 3.66894 137.326 3.65996C141.221 3.72243 145.119 3.72936 149.014 3.65215C151.804 3.59683 154.586 3.37225 157.38 3.36342C160.349 3.33305 163.318 3.46176 166.273 3.74901C168.766 3.91571 171.217 4.47609 173.535 5.40935C176.964 6.90003 180.702 7.54108 184.432 7.27806C185.758 7.20499 187.077 7.03978 188.38 6.78362C188.676 6.73858 188.968 6.67656 189.256 6.59789C189.778 6.43127 188.677 6.56015 188.889 6.62252C189.366 6.69181 189.85 6.7065 190.331 6.66625L193.013 6.74755L200.114 6.96279C202.648 7.03957 205.197 7.02897 207.722 7.26323C209.988 7.4606 212.239 7.79454 214.464 8.26323C216.596 8.7249 219.294 9.26558 220.936 10.8236C221.596 11.6176 222.409 12.2703 223.327 12.7424C224.786 13.3396 226.287 13.8286 227.818 14.2055C236.797 16.6182 246.346 17.9609 254.766 22.0836C257.342 23.345 261.438 25.5919 261.49 28.9612C261.514 30.4931 259.213 30.6259 258.076 30.7791C255.351 31.0864 252.607 31.1947 249.867 31.1033C247.019 31.0689 244.173 30.9525 241.326 30.9101C238.888 30.7241 236.437 30.8727 234.039 31.3516C233.398 31.5272 232.504 31.898 232.395 32.6521C232.317 33.1928 232.734 33.7397 232.853 34.25C233.455 36.8302 230.878 38.5259 228.774 39.146C226.329 39.8672 223.863 40.669 222.824 43.237C222.205 44.7669 222.294 46.0025 223.823 46.8342C225.58 47.6124 227.474 48.0371 229.395 48.0842C232.019 48.3307 234.661 48.3739 237.295 48.433C239.964 48.4929 242.639 48.5309 245.302 48.7499C246.934 48.8841 251.351 48.9797 251.494 51.2428C251.609 53.0734 248.744 54.2226 247.429 54.8026C245.61 55.5871 243.733 56.2269 241.814 56.7163C241.491 56.8013 240.965 56.8825 241.503 56.8123C241.321 56.836 241.139 56.858 240.957 56.8807C240.037 56.9956 239.117 57.1089 238.197 57.2206C234.61 57.6576 231.02 58.08 227.429 58.4876C217.222 59.6482 206.999 60.7285 196.756 61.5185C192.343 61.8588 187.918 62.1714 183.492 62.2445C181.939 62.2702 180.381 62.2742 178.83 62.1699C177.486 62.0796 176.608 61.8593 175.204 61.6679C170.485 61.0247 165.68 60.9132 160.927 60.7448C154.525 60.5179 148.121 60.379 141.719 60.1706C135.669 59.9736 129.611 59.7515 123.579 59.2313C118.657 58.8068 113.804 57.9292 108.924 57.1816C96.8721 55.3351 84.7732 53.7142 72.7741 51.5388C69.335 50.9153 64.6153 50.7121 62.4343 47.5876C61.0138 45.5526 60.5025 42.7336 58.3428 41.276C56.4578 40.0038 53.5982 40.0752 51.4171 39.9748C47.328 39.7864 43.2147 39.851 39.1255 40.0236L40.1002 40.2783C38.0978 38.619 36.0111 37.0641 33.8485 35.6197C32.3848 34.5742 30.8066 33.6991 29.1446 33.0113C27.8943 32.5981 26.5909 32.3677 25.2747 32.3272C21.9431 32.169 18.6043 32.2678 15.288 32.6228C14.2736 32.7129 13.2228 32.7573 12.2191 32.938C11.5461 33.0592 12.4385 32.8829 12.4464 32.9997C12.1945 32.8812 11.9354 32.7788 11.6705 32.6931C8.66662 31.428 4.89987 29.446 3.87898 26.1094C3.59005 25.165 1.17264 25.8281 1.45722 26.7583Z" fill="#1D1D1B"/>
</svg>
