<svg width="270" height="109" viewBox="0 0 270 109" fill="none" xmlns="http://www.w3.org/2000/svg">
<path d="M17.2277 48.8682C21.8665 57.9683 43.8149 71.4692 43.8149 71.4692C46.8527 75.9108 50.2581 80.0897 53.9952 83.9614C60.0661 90.2158 93.0821 97.9922 93.0821 97.9922C93.0821 97.9922 108.96 103.502 117.879 106.729C126.799 109.955 135.547 102.741 143.408 104.826C145.623 105.347 147.686 106.378 149.432 107.837H149.447C160.453 104.71 172.485 101.417 177.14 101.417C185.701 101.417 190.215 101.169 196.457 102.426C198.155 102.72 199.892 102.693 201.579 102.344C201.996 102.03 202.359 101.65 202.653 101.219C207.65 93.6409 212.646 91.3573 218.188 88.71C223.714 86.0461 231.559 68.4085 235.498 63.2793C239.42 58.1667 245.662 50.39 253.336 46.5845C258.66 43.9537 263.672 37.5173 266.225 33.8276C261.555 37.749 249.18 41.2569 244.713 44.7646C239.233 49.05 228.539 47.0312 228.539 47.0312L214.499 49.811C214.499 49.811 203.307 45.7742 199.975 47.2798C196.644 48.802 202.124 53.3518 200.458 55.1719C198.792 56.992 178.323 54.3611 171.66 54.874C164.998 55.3869 162.383 55.387 158.569 53.8647C154.771 52.3426 150.241 53.3516 146.443 53.3516C142.629 53.3516 131.453 52.3424 130.488 49.3145C129.538 46.2701 152.389 37.4183 150.475 31.6108C148.576 25.7867 97.6586 32.6199 92.1792 34.1421C86.7154 35.6477 80.2866 34.1421 68.861 33.8774C57.4354 33.6292 43.1611 37.1699 43.1611 37.1699C43.1611 37.1699 33.8836 36.161 31.5021 35.3999C29.1205 34.6388 21.0415 30.6013 16.5118 31.0977C11.9975 31.6107 3.6696 27.3091 1.52145 22.2461C0.63421 29.3939 12.589 39.768 17.2277 48.8682Z" fill="#F7FBFD"/>
<path d="M29.3694 12.6326C34.5997 10.3658 72.1921 7.56933 77.4379 7.07299C82.6683 6.56008 129.538 0.487872 137.866 1.24901C146.194 2.01015 165.232 5.05443 165.232 5.05443C165.232 5.05443 169.045 4.02881 171.178 3.53246C173.326 3.01955 180.471 5.05443 186.884 5.05443C193.313 5.05443 213.783 8.84349 213.783 8.84349C213.783 8.84349 229.006 16.9345 231.622 19.4661C234.237 21.9976 268.436 26.8121 268.031 31.0974C268.031 31.114 268.031 31.114 268.015 31.1306C267.786 32.2256 267.145 33.1906 266.225 33.8274C261.555 37.7487 249.18 41.2567 244.713 44.7644C239.233 49.0498 228.539 47.031 228.539 47.031L214.499 49.8108C214.499 49.8108 203.307 45.7739 199.975 47.2795C196.644 48.8017 202.124 53.3515 200.458 55.1716C198.792 56.9917 178.323 54.3609 171.66 54.8738C164.998 55.3867 162.383 55.3868 158.569 53.8645C154.771 52.3423 150.241 53.3513 146.443 53.3513C142.629 53.3513 131.453 52.3421 130.488 49.3142C129.538 46.2698 152.389 37.418 150.475 31.6106C148.576 25.7865 97.6585 32.6197 92.1792 34.1418C86.7154 35.6475 80.2866 34.1419 68.861 33.8772C57.4353 33.629 43.1611 37.1697 43.1611 37.1697C43.1611 37.1697 33.8836 36.1608 31.502 35.3996C29.1205 34.6385 21.0415 30.6011 16.5117 31.0974C11.9975 31.6104 3.66958 27.3088 1.52143 22.2458C-0.626717 17.1829 24.1236 14.9159 29.3694 12.6326Z" fill="#3BCBA4"/>
<path d="M95.0386 34.7947C95.9309 34.8296 128.769 31.9842 127.876 39.572C126.984 47.1599 124.307 62.3357 126.627 67.2678C128.947 72.1999 140.876 101.243 140.8 100.269C140.723 99.2949 135.825 67.0769 135.825 67.0769C135.825 67.0769 129.557 49.4787 130.85 48.2629C132.143 47.0471 136.859 42.4595 140.8 40.7102C144.741 38.9609 153.798 34.4606 150.474 31.6101C147.151 28.7596 132.158 29.4726 131.623 29.5002C131.089 29.5279 95.0386 34.7947 95.0386 34.7947Z" fill="#071462"/>
<path d="M85.3992 35.5874C84.2466 37.0659 83.4391 38.7834 83.0357 40.6142C82.6323 42.445 82.6431 44.3428 83.0676 46.1689C84.4168 52.5077 89.6847 71.7734 90.0417 73.7612C90.3986 75.7489 91.9121 85.8588 91.9121 85.8588L82.7596 66.6757C82.7596 66.6757 77.4694 58.0174 75.4637 54.955C73.458 51.8927 69.7305 47.1186 69.7305 47.1186C69.7305 47.1186 56.2441 38.6004 45.5698 36.6206C45.5698 36.6206 57.3257 35.7134 63.0932 34.7954C68.8608 33.8773 80.226 35.7788 81.4752 35.7788C82.7245 35.7788 85.3992 35.5874 85.3992 35.5874Z" fill="#071462"/>
<path d="M199.796 55.499C199.26 55.5639 196.408 67.4583 191.054 81.3062C185.7 95.154 198.192 78.6504 198.192 78.6504L209.614 58.5425C209.614 58.5425 218.18 54.5591 226.211 53.8003C234.242 53.0415 247.736 50.6708 253.336 46.5845C258.936 42.4982 265.263 34.5586 265.263 34.5586C265.263 34.5586 254.409 39.3833 250.661 41.2803C246.914 43.1772 242.824 47.787 238.533 47.1895C234.868 46.6936 231.152 46.7101 227.491 47.2388L214.498 49.811C214.498 49.811 203.007 44.7428 199.975 47.2798C196.943 49.8168 200.413 52.8413 200.413 52.8413C200.413 52.8413 202.213 55.2066 199.796 55.499Z" fill="#071462"/>
<path d="M15.9448 49.2114C17.9619 53.0835 21.4649 56.2087 24.734 59.0078C28.4382 62.1359 32.3059 65.0646 36.3209 67.7822C37.7437 68.7593 39.1797 69.717 40.6289 70.6548C41.3124 71.0247 41.9693 71.4417 42.5949 71.9028C42.4384 71.7657 42.9145 72.3769 43.0079 72.5117C43.6304 73.4101 44.2746 74.2935 44.9315 75.167C46.9452 77.8533 49.0938 80.4361 51.3691 82.9048C52.5531 84.267 53.938 85.4406 55.476 86.3852C57.0731 87.2992 58.728 88.1079 60.4303 88.8066C64.7044 90.5728 69.0659 92.1197 73.4979 93.4404C79.6124 95.3261 85.8477 96.72 91.9878 98.4868C94.6369 99.2491 97.2366 100.309 99.8373 101.219C105.123 103.068 110.408 104.922 115.677 106.818C118.639 107.937 121.829 108.315 124.97 107.918C128.101 107.402 131.197 106.694 134.242 105.798C137.452 104.99 140.508 104.637 143.702 105.739C145.172 106.227 146.548 106.958 147.775 107.903C148.895 108.789 150.15 108.079 151.426 107.719C158.349 105.763 165.317 103.69 172.408 102.424C175.11 102.023 177.843 101.861 180.574 101.937C183.594 101.924 186.62 101.901 189.633 102.131C192.629 102.359 195.636 103.286 198.64 103.147C200.126 103.079 201.919 103.032 203.071 101.979C204.352 100.808 205.2 99.085 206.316 97.7553C208.349 95.3321 210.778 93.2722 213.501 91.6636C215.572 90.438 217.96 89.6593 219.94 88.3042C223.498 85.8686 225.862 81.4789 228.015 77.8652C230.579 73.562 232.84 69.0694 235.534 64.8447C238.638 60.1031 242.357 55.7941 246.595 52.0312C249.167 49.8066 251.981 47.8788 254.985 46.2842C257.714 44.6553 260.169 42.607 262.26 40.2138C264.15 38.1312 265.898 35.9235 267.491 33.6059C267.744 33.2414 266.682 33.3126 266.618 33.3193C266.053 33.3671 265.514 33.5745 265.062 33.917C262.354 36.1382 258.865 37.4617 255.68 38.8291C252.216 40.1855 248.835 41.7479 245.557 43.5073C244.302 44.4059 242.988 45.2186 241.623 45.9399C239.993 46.5511 238.271 46.886 236.53 46.9306C234.232 46.9916 231.932 46.8604 229.656 46.5386C228.224 46.5565 226.802 46.781 225.434 47.2046L217.637 48.748C216.798 48.9142 215.939 49.043 215.108 49.249C214.293 49.4511 215.395 49.0223 215.543 49.3042C215.5 49.2225 215.084 49.1433 215.006 49.1167C212.556 48.2595 210.056 47.5537 207.52 47.0034C204.923 46.4564 201.908 45.9291 199.38 47.0361C196.366 48.3564 198.128 50.8563 199.065 53.0351C199.313 53.5081 199.46 54.0267 199.497 54.5591C199.492 54.774 199.122 55.7171 199.58 55.126C199.598 55.1034 199.626 55.1277 199.414 55.1474C199.306 55.1574 199.164 55.1801 199.025 55.1948C198.482 55.2519 197.934 55.2707 197.389 55.2822C194.357 55.3462 191.312 55.1333 188.287 54.9507C184.969 54.7504 181.653 54.5124 178.333 54.3677C175.356 54.2713 172.376 54.3296 169.406 54.542C167.556 54.7 165.696 54.6877 163.849 54.5054C162.262 54.2359 160.707 53.8009 159.211 53.207C155.063 51.7805 150.651 52.9278 146.393 52.8032C143.263 52.7305 140.146 52.356 137.087 51.6845C135.926 51.4212 131.41 50.5363 131.772 48.6284C131.883 48.0454 132.62 47.5189 133.037 47.1748C133.855 46.5271 134.71 45.9277 135.598 45.3799C137.915 43.8889 140.303 42.5104 142.635 41.0429C144.939 39.6705 147.118 38.0992 149.148 36.3467C150.355 35.2508 151.944 33.6849 151.87 31.9053C151.761 29.3014 147.175 29.1538 145.379 28.9878C140.393 28.6388 135.388 28.6657 130.405 29.0679C124.483 29.4165 118.573 29.9802 112.679 30.6543C107.721 31.2213 102.767 31.8561 97.8384 32.6377C94.3143 33.1965 90.7984 34.2666 87.2212 34.2676C83.2932 34.2687 79.3684 33.8166 75.4504 33.5854C70.7782 33.2624 66.0882 33.2932 61.4206 33.6772C57.3471 34.0516 53.2933 34.663 49.2757 35.4277C47.1854 35.6938 45.121 36.1347 43.1044 36.7456C43.1969 36.7106 44.4216 36.7585 43.6565 36.5991C43.2323 36.5107 42.7757 36.499 42.3458 36.4482C40.871 36.2741 39.3974 36.0889 37.927 35.8813C35.348 35.5963 32.8158 34.9837 30.392 34.0576C27.1796 32.5721 23.8092 31.4551 20.3453 30.7285C18.8441 30.4839 17.401 30.6941 15.9087 30.5786C14.115 30.3844 12.3709 29.8694 10.7595 29.0581C7.57107 27.5527 4.28227 25.2094 2.80363 21.9023C2.52511 21.2794 0.302443 21.9737 0.238563 22.5893C-0.239747 27.1986 3.44506 31.723 6.01945 35.1684C9.43991 39.7462 13.3033 44.1097 15.9448 49.2114C16.2775 49.8538 18.729 48.9475 18.5099 48.5244C15.8687 43.4234 12.0057 39.0573 8.58453 34.4809C6.0097 31.0368 2.32543 26.5106 2.80363 21.9023L0.238563 22.5893C1.72962 25.9242 4.98057 28.3159 8.1852 29.8642C9.71549 30.6316 11.3461 31.1798 13.0291 31.4931C14.4965 31.7418 15.9154 31.504 17.378 31.6289C21.0865 31.9456 24.7012 33.5954 28.1055 34.9917C30.4407 35.9076 32.8826 36.5236 35.3728 36.8257C37.6695 37.2572 39.9901 37.5505 42.3221 37.7031C43.9738 37.7377 45.8692 36.9851 47.4669 36.6655C51.4374 35.8714 55.4431 35.2214 59.4727 34.8159C64.3809 34.3716 69.3169 34.326 74.2324 34.6797C78.1011 34.9159 81.9785 35.3598 85.8582 35.3349C87.3448 35.3392 88.8294 35.2241 90.2978 34.9912C90.9792 34.8767 91.6487 34.715 92.3181 34.5459C92.4417 34.5146 93.0693 34.3657 92.6632 34.456C96.2462 33.6586 99.925 33.204 103.559 32.7109C114.927 31.1681 126.484 29.8307 137.971 29.833C140.152 29.8069 142.332 29.9084 144.501 30.1362C145.861 30.198 147.194 30.5386 148.417 31.1372C151.863 33.2232 145.219 37.8931 143.783 38.8955C139.513 41.8755 134.564 44.0766 130.588 47.4555C129.519 48.3637 128.604 49.3982 129.847 50.5918C131.784 52.4527 135.391 52.8559 137.903 53.2344C140.885 53.7228 143.905 53.9317 146.925 53.8584C149.389 53.6246 151.866 53.5487 154.339 53.6313C156.35 53.8128 158.098 54.7159 160.03 55.1924C163.709 56.0992 167.554 55.6247 171.282 55.3901C173.968 55.2909 176.658 55.3513 179.337 55.5708C182.804 55.7661 186.268 56.0178 189.736 56.1933C192.43 56.4057 195.136 56.4278 197.833 56.2597C199.281 56.1275 202.102 55.8531 202.062 53.8721C202.037 52.6121 198.929 48.4213 200.583 47.5224C201.104 47.4075 201.643 47.4047 202.165 47.5141C202.966 47.5777 203.762 47.6863 204.55 47.8398C206.079 48.1243 207.589 48.5061 209.084 48.9306C210.257 49.2637 211.421 49.6253 212.577 50.0151C213.111 50.2623 213.703 50.3589 214.288 50.2944C218.567 49.6867 222.827 48.604 227.067 47.7646C227.381 47.7025 227.705 47.6573 228.015 47.5766C228.633 47.4155 227.948 47.7741 227.516 47.541C228.214 47.7527 228.941 47.8523 229.67 47.8359C232.829 48.2142 236.027 48.1079 239.154 47.521C240.931 47.1893 242.649 46.5919 244.248 45.7485C245.572 45.0222 246.719 44.0322 248.053 43.3095C251.416 41.4865 255.029 40.1347 258.529 38.6025C261.689 37.3913 264.67 35.7549 267.388 33.7387L264.959 34.0498C263.05 36.848 260.891 39.4677 258.51 41.8769C257.188 43.2258 255.732 44.4369 254.166 45.4912C252.649 46.4822 250.978 47.2075 249.454 48.1938C243.54 52.0211 238.883 57.4703 234.618 62.9985C231.481 67.0639 229.243 71.825 226.684 76.2578C225.217 78.8008 223.709 81.3323 222.007 83.727C220.814 85.4045 219.424 87.4005 217.596 88.4516C214.71 90.1119 211.65 91.273 208.946 93.2754C207.401 94.4153 205.974 95.7075 204.687 97.1328C203.201 98.7834 202.103 101.021 200.415 102.433L201.813 101.855C199.196 102.287 196.848 101.727 194.272 101.379C192.297 101.119 190.309 100.963 188.317 100.911C186.068 100.844 183.816 100.862 181.566 100.873C179.615 100.816 177.662 100.866 175.716 101.024C171.491 101.613 167.311 102.485 163.203 103.634C160.606 104.297 158.018 104.997 155.434 105.712C154.18 106.059 152.926 106.41 151.674 106.764C151.288 106.873 150.156 107.412 149.802 107.293C151.138 107.744 149.643 106.613 149.424 106.466C145.855 104.2 141.547 103.403 137.403 104.24C132.858 105.007 128.468 106.98 123.814 107.035C119.688 107.083 115.634 105.035 111.806 103.679C108.028 102.342 104.248 101.013 100.464 99.6933C97.6826 98.7217 94.956 97.7014 92.1006 96.9927C86.8958 95.7007 81.7244 94.2809 76.5862 92.7329C70.6262 90.9226 64.4972 89.0417 58.9762 86.1084C56.4682 84.6829 54.253 82.7954 52.4477 80.5454C49.9001 77.6644 47.5243 74.6359 45.3328 71.4756C44.7073 70.7835 43.9528 70.22 43.1116 69.8169C40.8719 68.3707 38.6643 66.8759 36.4888 65.333C30.9405 61.3989 25.232 57.1839 20.8454 51.935C19.9462 50.8855 19.1632 49.7422 18.5099 48.5244C18.1751 47.8818 15.7255 48.7904 15.9448 49.2114Z" fill="#1D1D1B"/>
<path d="M129.568 49.107C134.858 65.8347 138.197 83.1183 139.517 100.613C139.588 101.542 142.163 100.982 142.082 99.9254C140.762 82.4308 137.424 65.1477 132.133 48.42C131.824 47.4439 129.266 48.1529 129.568 49.107Z" fill="#1D1D1B"/>
<path d="M84.963 34.4347C83.1597 36.3975 82.3813 39.1842 81.9834 41.7604C81.5408 44.879 81.758 48.0559 82.621 51.0851C83.6493 54.9519 85.0543 58.7119 86.1106 62.5739C87.1573 66.4012 88.0443 70.2674 88.7716 74.1725C89.6019 78.6294 90.2213 83.1174 90.6297 87.6369L93.1947 86.9499C90.4658 77.5438 85.7843 68.889 80.6223 60.6169C78.1692 56.4185 75.4903 52.3563 72.5974 48.4479C69.6343 44.6871 65.3909 42.8759 61.1479 40.9274C56.0859 38.6028 50.784 36.5734 45.1501 36.4196C44.5676 36.4037 43.7273 36.5789 43.4774 37.1965C43.4305 37.3175 43.4149 37.4482 43.4321 37.5768C43.4494 37.7055 43.4989 37.8279 43.5761 37.9323C43.6532 38.0367 43.7556 38.1198 43.8736 38.174C43.9915 38.2282 44.1213 38.2514 44.2507 38.2419C49.144 38.3754 53.7475 39.9939 58.1824 41.9557C62.3899 43.8169 66.9868 45.5797 69.9768 49.2297C72.7329 52.8617 75.2648 56.6587 77.5583 60.5993C80.0598 64.5631 82.4664 68.5918 84.613 72.7604C87.0932 77.5139 89.1081 82.4957 90.6297 87.6369C90.9737 88.8224 93.3011 88.1069 93.1947 86.9499C92.3095 77.2142 90.4431 67.5926 87.6238 58.2321C86.3171 53.9104 84.338 49.4747 84.3181 44.8879C84.3042 41.6863 84.8508 37.6056 87.1006 35.1569C88.1851 33.9766 85.7252 33.6052 84.9631 34.4347H84.963Z" fill="#1D1D1B"/>
<path d="M0.238719 22.5892C1.72045 25.4856 4.07141 27.8459 6.96202 29.3387C9.58103 30.9818 12.5984 31.8799 15.6896 31.9364C18.9107 31.9537 22.0947 32.6252 25.0483 33.9105C27.2283 34.9146 29.4798 35.7558 31.7842 36.4266C34.4371 37.0016 37.1594 37.3136 39.8513 37.6444C41.113 37.9236 42.4135 37.9834 43.6955 37.8207C49.5492 36.4509 55.4906 35.4872 61.4771 34.9364C69.4862 34.2648 77.3684 35.4944 85.36 35.6034C87.795 35.6543 90.2265 35.3898 92.5937 34.8168C93.7937 34.5214 94.4101 34.43 95.5998 34.2269C104.828 32.6519 114.178 31.6059 123.505 30.8358C128.502 30.4233 133.519 30.0933 138.535 30.1048C141.537 30.1118 145.389 29.9676 148.089 31.1009C148.948 31.4616 149.379 31.7869 149.278 32.7865C149.114 34.4288 147.382 35.8225 146.214 36.7894C142.398 39.9496 137.907 42.2241 133.757 44.8983C132.2 45.7406 130.805 46.8551 129.641 48.1893C128.702 49.485 129.507 50.57 130.731 51.3309C132.98 52.7281 135.91 53.1521 138.478 53.5355C141.024 53.9432 143.599 54.1501 146.178 54.1551C148.363 54.1349 150.537 53.8463 152.722 53.8299C154.802 53.8552 156.861 54.2509 158.802 54.9984C161.609 55.8561 164.553 56.1729 167.478 55.932C170.311 55.809 173.079 55.5642 175.916 55.6634C178.861 55.7664 181.802 55.9668 184.743 56.1517C187.623 56.3328 190.504 56.5204 193.389 56.5985C195.457 56.7541 197.536 56.6645 199.583 56.3314C201.379 55.9438 202.501 54.7919 201.846 52.8846C201.494 51.8588 198.984 48.1993 200.894 47.7987C202.052 47.6648 203.224 47.7365 204.357 48.0106C205.777 48.249 207.18 48.5895 208.569 48.9657C210.28 49.429 211.985 50.2 213.712 50.5648C214.875 50.8104 216.537 50.1782 217.662 49.9554L224.862 48.5301L228.735 47.7635L227.771 47.7919C232.805 48.7291 238.781 48.7616 243.458 46.4828C244.812 45.8227 245.942 44.8441 247.236 44.0848C248.686 43.2668 250.181 42.5306 251.714 41.8798C255.207 40.3259 258.783 38.9472 262.205 37.2362C264.557 36.06 269.093 34.0072 269.32 30.9608C269.407 29.7866 268.161 29.0428 267.269 28.5609C263.215 26.3719 258.323 25.438 253.887 24.3734C248.606 23.1062 243.279 22.0264 238.017 20.6825C236.423 20.3539 234.865 19.8743 233.362 19.2494C232.94 19.0453 232.555 18.772 232.223 18.4408C231.411 17.8058 230.565 17.2151 229.69 16.6713C225.21 13.7978 220.508 11.2524 215.824 8.73083C213.285 7.36402 210.068 7.27594 207.263 6.80407C201.382 5.81475 195.451 4.77444 189.498 4.34167C188.016 4.23398 186.532 4.2648 185.05 4.16979C182.685 4.01816 180.338 3.67255 177.997 3.30895C176.302 2.98405 174.588 2.76354 172.866 2.64928C171.399 2.69422 169.946 2.94739 168.55 3.40075C167.376 3.70075 166.205 4.00773 165.035 4.32213L166 4.29381C160.518 3.41781 155.029 2.59396 149.531 1.82262C144.063 1.05862 138.655 0.212902 133.127 0.467642C119.916 1.07646 106.72 2.8348 93.5951 4.38463C85.0343 5.39549 76.5087 6.36323 67.9204 7.09264C60.9852 7.68164 54.0516 8.30166 47.1314 9.04821C41.6261 9.64211 35.9198 10.0752 30.5416 11.4637C28.6759 11.9454 27.2536 12.5717 25.3212 13.0126C22.2227 13.7194 19.0916 14.2786 15.9784 14.9154C12.7762 15.5115 9.61113 16.2925 6.499 17.2538C4.50667 17.9084 1.78328 18.7272 0.539004 20.5746C0.325112 20.8588 0.185621 21.1919 0.133189 21.5438C0.0807566 21.8957 0.117044 22.2549 0.238764 22.5892C0.625075 23.5829 3.16797 22.8383 2.80384 21.9017C2.23045 20.4269 4.4373 19.6525 5.54708 19.2064C8.28835 18.1982 11.1091 17.4208 13.9799 16.8827C19.2633 15.7342 24.9165 15.1933 29.9752 13.2152C30.2892 13.0924 29.879 13.2397 30.083 13.1717C30.224 13.1248 30.3667 13.0835 30.5094 13.0423C30.8996 12.9299 31.2955 12.8361 31.6917 12.7474C32.6325 12.5369 33.5822 12.3708 34.5335 12.2157C37.3824 11.7512 40.2489 11.3936 43.1155 11.059C49.8568 10.272 56.6168 9.64549 63.3776 9.05309C71.5489 8.33709 79.6784 7.60492 87.8225 6.63024C100.754 5.08274 113.698 3.50047 126.682 2.46667C130.945 1.99431 135.243 1.92882 139.518 2.27184C146.642 3.05842 153.736 4.14981 160.818 5.24401C162.223 5.46101 164.052 6.06961 165.48 5.77282C167.044 5.44758 168.586 4.94807 170.138 4.56334C171.626 4.25068 173.163 4.24761 174.652 4.55456C177.028 4.89756 179.392 5.31404 181.778 5.57604C183.784 5.79628 185.784 5.7935 187.794 5.90417C190.893 6.07478 193.982 6.51603 197.051 6.95836C202.339 7.72049 207.639 8.55268 212.883 9.57995C213.219 9.64574 212.624 9.44794 212.848 9.54918C213.076 9.65177 213.293 9.78719 213.513 9.90514C214.429 10.3972 215.343 10.8932 216.256 11.3929C219.109 12.9547 221.949 14.5424 224.745 16.2049C226.778 17.3994 228.738 18.7134 230.615 20.1405C231.94 20.9521 233.403 21.513 234.931 21.7943C240.546 23.345 246.284 24.448 251.948 25.7987C254.856 26.492 257.763 27.2132 260.617 28.1019C262.553 28.5572 264.399 29.3331 266.079 30.3978C266.274 30.5374 266.449 30.7047 266.596 30.8939C266.637 30.9487 266.802 31.4106 266.809 31.0575C266.773 32.9218 264.281 34.2758 262.866 35.0912C259.167 37.0328 255.363 38.7685 251.472 40.2899C249.74 41.0463 248.019 41.8299 246.361 42.7396C244.895 43.5444 243.618 44.6983 242.101 45.3929C238.887 46.8647 235.048 46.8656 231.591 46.556C230.222 46.3034 228.82 46.2766 227.442 46.4769L219.647 48.0204L214.302 49.0785L215.267 49.0502C211.538 47.5979 207.636 46.6358 203.659 46.1883C201.773 46.033 198.834 46.0813 197.822 48.0511C196.878 49.8907 198.781 51.9994 199.316 53.6757C199.397 54.0495 199.441 54.4307 199.446 54.8133C199.483 55.0977 199.451 54.7451 199.476 54.8441C199.46 54.7802 199.709 54.7707 199.612 54.7679C199.202 54.756 198.358 54.9582 197.695 54.9891C195.432 55.0948 193.151 54.9613 190.891 54.8456C185.539 54.5714 180.187 54.0536 174.826 54.0028C172.028 53.9763 169.253 54.3526 166.458 54.3739C165.143 54.4088 163.828 54.31 162.533 54.0785C161.125 53.7987 159.847 53.2159 158.482 52.8055C154.671 51.66 150.713 52.5548 146.832 52.5453C144.459 52.521 142.092 52.329 139.747 51.9701C137.434 51.6333 134.536 51.2811 132.577 49.8885C131.378 49.0369 131.711 48.5938 132.639 47.7767C135.731 45.0572 139.711 43.2197 143.165 41.0111C145.088 39.822 146.923 38.4954 148.655 37.0424C150.028 36.0194 151.092 34.6392 151.733 33.0521C152.473 30.6103 150.297 29.649 148.318 29.201C144.945 28.573 141.511 28.3376 138.084 28.4994C133.319 28.5512 128.557 28.8484 123.809 29.2406C114.94 29.9731 106.07 30.9875 97.2838 32.4037C94.6824 32.8229 92.0672 33.6004 89.4545 33.8705C86.6687 34.0638 83.8715 34.0158 81.0942 33.7259C77.1791 33.4483 73.2645 33.1507 69.3388 33.0716C62.2324 33.0668 55.1456 33.8163 48.1976 35.308C46.4778 35.5383 44.7789 35.9039 43.1165 36.4007C42.6754 36.5645 43.6377 36.4253 43.5765 36.3573C43.5008 36.2734 42.9313 36.2847 42.8362 36.2738C41.8433 36.1601 40.8511 36.0403 39.8597 35.9144C37.4639 35.6844 35.0851 35.3021 32.7379 34.7699C30.4567 34.1764 28.2937 33.02 26.0863 32.2015C23.3332 31.1807 20.3507 30.1638 17.3752 30.2577C14.5414 30.3378 11.7421 29.6196 9.29692 28.1849C6.68843 26.7414 4.05132 24.6891 2.80391 21.9017C2.36485 20.9212 -0.162671 21.6923 0.238719 22.5892Z" fill="#1D1D1B"/>
</svg>
