<svg width="265" height="143" viewBox="0 0 265 143" fill="none" xmlns="http://www.w3.org/2000/svg">
<path d="M13.4977 50.4934C16.0383 57.5929 16.5077 56.7784 22.5277 63.3291C28.5339 69.8798 30.6051 75.4566 35.341 81.9541C40.0908 88.4517 51.8133 97.1799 55.6103 101.447C59.4073 105.696 59.4073 101.447 61.3128 104.899C63.2044 108.351 81.7339 120.727 87.7402 125.808C93.7602 130.871 105.165 139.192 107.692 141.229C110.219 143.247 130.322 132.907 135.873 131.491C141.41 130.057 160.091 123.365 171.482 121.736C182.887 120.107 193.491 107.732 204.261 100.013C215.017 92.3112 226.891 85.6012 231.959 80.5377C237.026 75.4566 238.131 72.2166 244.786 68.1447C251.427 64.0904 253.333 51.0953 253.333 51.0953C253.066 51.1049 252.798 51.099 252.532 51.0776C253.333 55.0081 241.251 57.8761 241.251 57.8761C241.251 57.8761 185.731 64.9049 176.232 63.0105C166.732 61.1161 130.64 61.9304 116.087 59.4872C101.52 57.0617 69.0173 52.7242 64.157 50.8298C59.3106 48.9355 60.1529 42.7212 55.9278 41.6235C51.7027 40.5436 38.8343 41.0924 38.8343 41.0924C38.8343 41.0924 32.2896 35.6749 28.2717 34.046C24.2675 32.435 11.606 34.046 11.606 34.046C11.606 34.046 3.79111 31.3373 2.52081 26.7518C-1.34523 30.2749 10.971 43.3939 13.4977 50.4934Z" fill="#F7FBFD"/>
<path d="M250.53 49.1655C252.325 47.041 258.718 36.8964 261.714 33.2316C263.564 30.9831 263.136 29.9739 262.542 29.5135C261.838 33.6741 243.806 31.6382 237.026 32.0277C230.054 32.4526 235.963 32.966 233.229 37.3036C230.482 41.6235 224.779 38.9145 223.523 44.6155C222.39 49.679 243.902 46.7931 250.53 49.1655Z" fill="#F7FBFD"/>
<path d="M37.1363 15.1199C39.6493 14.7659 47.2019 12.0748 55.4173 9.25977H55.4312C65.193 5.91371 75.8662 2.39051 79.9947 2.39051C87.5887 2.39051 91.5927 2.12491 97.1295 3.47046C98.6309 3.78528 100.184 3.75502 101.672 3.38196C106.16 2.51435 111.268 -0.0172629 117.344 1.57618C125.587 3.73607 149.639 3.20496 149.639 3.20496C149.639 3.20496 167.589 1.8416 174.341 5.09925C181.092 8.33919 189.115 6.17933 189.115 6.17933L206.636 6.71045C206.636 6.71045 220.14 7.52483 222.46 11.3136C224.779 15.1024 262.045 17.9882 262.57 29.1773C262.575 29.2901 262.566 29.4032 262.543 29.5137C261.838 33.6743 243.806 31.6383 237.026 32.0278C230.054 32.4527 235.963 32.9661 233.229 37.3037C230.482 41.6236 224.779 38.9147 223.523 44.6156C222.391 49.679 243.903 46.7931 250.53 49.1655C251.199 49.3515 251.79 49.7491 252.215 50.2987C252.37 50.5354 252.478 50.7999 252.532 51.0776C253.333 55.0081 241.251 57.8761 241.251 57.8761C241.251 57.8761 185.732 64.9049 176.232 63.0105C166.733 61.1161 130.64 61.9304 116.087 59.4872C101.521 57.0617 69.0177 52.7242 64.1575 50.8298C59.3111 48.9355 60.1533 42.7212 55.9283 41.6235C51.7032 40.5436 38.8349 41.0924 38.8349 41.0924C38.8349 41.0924 32.29 35.6748 28.2721 34.0459C24.2679 32.4349 11.6065 34.0459 11.6065 34.0459C11.6065 34.0459 3.79157 31.3372 2.52127 26.7517C1.26471 22.1486 31.6548 15.9166 37.1363 15.1199Z" fill="#3BCBA4"/>
<path d="M176.982 63.1276C177.721 63.3335 171.119 74.6778 169.081 80.1286C167.044 85.5794 161.956 108.207 161.956 108.207L160.415 62.4693C160.415 62.4693 166.964 60.3353 176.982 63.1276Z" fill="#071462"/>
<path d="M61.4213 48.7464C61.4213 48.7464 68.7338 60.0229 69.9929 62.4818C71.2521 64.9407 75.8354 76.7203 86.5397 87.5586C97.244 98.3968 108.13 118.894 109.597 122.482C111.065 126.071 113.425 133.358 113.425 133.358C113.425 133.358 102.002 117.673 98.5558 113.158C95.1096 108.642 81.1692 90.7986 78.6549 87.9361C76.1407 85.0737 71.1222 78.491 67.0865 77.4829C61.9389 75.968 57.3448 72.9844 53.8674 68.8977C50.3056 64.557 49.8006 61.3159 46.3719 59.1111C42.9433 56.9062 40.1159 58.8845 37.4095 53.5691C34.7032 48.2536 36.8519 46.2802 31.1473 41.8855C25.4428 37.4908 15.877 34.5693 15.877 34.5693C15.877 34.5693 26.81 32.8276 30.3092 35.0587C33.8084 37.2898 37.406 41.3592 39.7805 41.3592C42.155 41.3592 56.0266 40.4556 57.5687 42.4874C58.9653 44.5025 60.2514 46.5919 61.4213 48.7464Z" fill="#071462"/>
<path d="M258.056 38.2653C257.289 39.3988 242.723 38.9234 241.773 42.3741C241.256 44.3022 240.62 46.1963 239.867 48.0453C239.867 48.0453 224.106 49.3048 223.6 45.535C223.093 41.7652 231.421 39.094 231.421 39.094C231.421 39.094 234.486 36.3265 233.977 34.5693C233.468 32.812 231.963 33.4257 233.468 32.8121C234.973 32.1985 249.055 32.1761 249.055 32.1761C249.055 32.1761 261.782 31.0647 262.542 29.5136C263.302 27.9626 262.222 32.112 258.056 38.2653Z" fill="#071462"/>
<path d="M12.287 50.8179C12.9562 53.0032 13.9251 55.0851 15.1661 57.0042C16.5417 58.7322 18.0356 60.3625 19.6371 61.8835C22.3006 64.6263 24.7041 67.6101 26.8168 70.7966C28.6711 73.6378 30.3242 76.6045 32.1795 79.4452C35.4274 84.4182 39.591 88.4322 44.0131 92.3581C46.1994 94.2991 48.4233 96.1975 50.6031 98.1459C51.5008 98.9483 52.3935 99.7581 53.2521 100.602C54.0421 101.486 54.8791 102.326 55.7595 103.12C56.4568 103.717 57.3474 104.041 58.2657 104.031C59.0344 104.012 58.9516 103.759 59.4589 104.269C59.9559 104.768 60.2293 105.488 60.686 106.034C61.1285 106.545 61.6034 107.027 62.108 107.477C65.5745 110.518 69.2055 113.366 72.9844 116.008C76.9309 118.916 80.9371 121.752 84.7978 124.774C88.8505 127.946 92.8115 131.224 96.9125 134.338C99.0624 135.971 101.222 137.591 103.377 139.217C104.149 139.8 104.922 140.383 105.687 140.974C106.069 141.333 106.502 141.634 106.971 141.868C108.145 142.31 109.706 141.897 110.869 141.622C112.763 141.143 114.624 140.541 116.441 139.822C120.912 138.135 125.273 136.171 129.675 134.315C132.759 133.051 135.906 131.946 139.104 131.007C149.77 127.733 160.382 123.944 171.439 122.203C177.669 121.223 183.159 117.749 188.079 113.978C193.653 109.706 198.744 104.834 204.398 100.663C210.488 96.1714 216.953 92.2098 223.229 87.9888C225.745 86.2962 228.251 84.571 230.603 82.6539C232.722 80.8772 234.672 78.9086 236.429 76.7734C238.074 74.6891 239.889 72.7449 241.856 70.961C244.023 69.128 246.668 67.9473 248.531 65.7662C251.445 62.3544 252.997 57.8475 254.004 53.5381C254.208 52.6644 254.399 51.7827 254.53 50.8947C254.583 50.5406 254.081 50.5599 253.846 50.5672C253.667 50.5744 253.487 50.5687 253.308 50.5499C252.913 50.5302 251.216 50.7502 251.321 51.402C251.562 52.8952 250.035 53.9324 248.918 54.5828C247.311 55.4663 245.613 56.1724 243.854 56.6888C242.965 56.9719 242.058 57.2571 241.144 57.4527C241.902 57.2905 240.887 57.4554 240.712 57.4772C235.815 58.0873 230.914 58.6663 226.01 59.214C217.969 60.1183 209.921 60.9612 201.859 61.6587C195.002 62.384 188.112 62.765 181.217 62.8005C179.2 62.7197 177.189 62.5166 175.197 62.1923C171.692 61.7306 168.14 61.5822 164.611 61.4302C154.773 61.0066 144.925 60.8896 135.087 60.4665C130.603 60.2736 126.115 60.0395 121.65 59.5826C117.926 59.2015 114.242 58.524 110.544 57.9526C100.859 56.456 91.1559 55.0722 81.478 53.5269C77.544 52.8988 73.6066 52.2624 69.701 51.4739C66.7981 50.8879 63.901 50.4551 62.163 47.7519C61.1096 46.1135 60.5747 44.1448 59.3014 42.6458C58.1107 41.2439 56.4319 40.9572 54.6984 40.7562C50.5281 40.374 46.3364 40.2807 42.1533 40.477C41.2181 40.499 40.2827 40.5249 39.3481 40.5644L39.9721 40.6674C37.8696 38.9222 35.6685 37.2994 33.3796 35.8072C32.0024 34.8322 30.5077 34.0348 28.9311 33.4338C27.5946 33.0522 26.2128 32.853 24.8229 32.8416C21.5617 32.7382 18.2971 32.8596 15.0525 33.2051C14.066 33.2967 13.0566 33.3593 12.0783 33.5212C11.4059 33.6324 12.5532 33.5559 12.5274 33.5289C12.2216 33.3552 11.893 33.225 11.5512 33.1423C8.51053 31.8576 4.75873 29.7951 3.73187 26.4274C3.52638 25.7535 1.69922 26.5461 1.41839 26.819C0.24169 27.9623 0.499361 29.6549 0.969171 31.0713C1.80646 33.2868 2.90454 35.3947 4.24029 37.3505C6.97578 41.7109 10.5036 45.9415 12.287 50.8179C12.516 51.4442 14.9084 50.7148 14.7088 50.169C12.9943 45.4809 9.64015 41.3896 6.98553 37.2135C5.66446 35.2695 4.53568 33.2014 3.61504 31.0387C3.11451 29.7513 2.46357 27.8118 3.62359 26.6846L1.31011 27.0763C2.05005 29.5031 4.19182 31.2162 6.28704 32.4748C7.61369 33.3799 9.07185 34.0753 10.6102 34.5365C10.8834 34.5778 11.1613 34.577 11.4343 34.5341C11.6894 34.5116 11.7116 34.5004 11.8058 34.4897C12.6585 34.3923 13.5123 34.3058 14.3672 34.2301C16.956 33.9708 19.5567 33.8485 22.1584 33.8638C24.4967 33.7693 26.8203 34.2748 28.9081 35.3321C31.4112 36.7654 33.7974 38.3938 36.0446 40.2021C36.5457 40.6801 37.0889 41.1123 37.6674 41.4931C38.0304 41.6246 38.4206 41.6621 38.8019 41.6021C40.7714 41.5379 42.7411 41.4907 44.7117 41.4826C47.3663 41.4383 50.0214 41.5311 52.6664 41.7607C53.7261 41.7855 54.7715 42.0107 55.7475 42.4242C56.7219 43.0282 57.4926 43.9107 57.9598 44.9576C59.1281 47.1622 59.9839 49.6561 62.309 50.9239C63.5357 51.5061 64.8378 51.9137 66.1775 52.1349C76.5929 54.4366 87.2698 55.7376 97.8108 57.3171C107.984 58.8414 118.082 60.6815 128.364 61.2668C140.197 61.9403 152.053 61.9842 163.891 62.5229C167.752 62.6137 171.602 62.9523 175.419 63.5367C178.218 63.913 181.048 64.0064 183.866 63.8152C193.238 63.5425 202.602 62.6105 211.925 61.6684C220.246 60.8277 228.557 59.8996 236.858 58.8842C238.245 58.7163 239.662 58.6124 241.038 58.3694C244.585 57.7242 247.983 56.4315 251.062 54.556C252.349 53.7507 254.021 52.4773 253.743 50.7532L251.756 51.6055C252.11 51.6231 252.464 51.6346 252.819 51.6236L252.135 51.2961C251.681 54.2319 250.887 57.1052 249.771 59.8581C248.929 62.1348 247.702 64.2497 246.143 66.1103C244.286 68.1996 241.631 69.391 239.518 71.2079C235.393 74.7565 232.526 79.4887 228.248 82.9053C223.053 87.0548 217.302 90.5121 211.764 94.1745C205.773 98.0955 200.021 102.37 194.539 106.974C189.468 111.269 184.397 115.866 178.452 118.933C175.861 120.212 173.083 121.07 170.222 121.474C167.47 121.942 164.744 122.571 162.038 123.258C156.309 124.711 150.658 126.457 145.023 128.233C141.417 129.369 137.735 130.344 134.158 131.563C130.229 132.902 126.442 134.693 122.625 136.314C118.845 138.094 114.928 139.565 110.911 140.714C109.937 140.951 109.308 141.161 108.53 140.565C107.008 139.4 105.482 138.24 103.952 137.086C95.9609 131.069 88.2575 124.687 80.1907 118.774C76.1088 115.782 71.9936 112.826 68.0245 109.684C66.6157 108.569 65.206 107.437 63.9144 106.186C63.4832 105.791 63.087 105.36 62.7303 104.897C62.3022 104.306 62.0322 103.512 61.3746 103.12C60.8017 102.881 60.1696 102.823 59.5626 102.952C58.7045 102.788 57.9284 102.336 57.363 101.67C55.714 100.062 54.1406 98.4148 52.4128 96.8814C48.0331 92.9945 43.4747 89.2705 39.4417 85.013C35.0265 80.352 32.2363 74.5824 28.6779 69.3009C26.6615 66.358 24.3981 63.5921 21.9123 61.0334C20.2973 59.5181 18.8002 57.8819 17.434 56.139C16.2686 54.2767 15.3524 52.2695 14.7088 50.169C14.4838 49.5439 12.0892 50.2682 12.287 50.8179Z" fill="#1D1D1B"/>
<path d="M251.519 49.4338C254.177 46.2377 256.316 42.5561 258.656 39.129C259.881 37.3352 261.105 35.5303 262.446 33.8199C263.349 32.667 265.293 30.3923 263.66 29.0136C263.047 28.4962 261.511 28.7459 261.324 29.6394C261.025 31.0715 257.76 31.1251 256.599 31.2281C253.353 31.4532 250.097 31.4951 246.847 31.3535C243.879 31.2809 240.903 31.1348 237.934 31.2299C236.717 31.2689 231.904 31.0959 232.275 33.3584C232.396 34.0946 232.84 34.6405 232.773 35.437C232.668 36.1656 232.387 36.8575 231.953 37.452C231.519 38.0465 230.946 38.5256 230.283 38.8471C227.74 40.1195 224.627 40.0419 223.029 42.7962C222.004 44.5651 221.922 46.311 223.886 47.263C225.958 48.2669 228.504 48.3859 230.759 48.5327C234.241 48.7594 237.734 48.7496 241.221 48.8687C244.046 48.9653 247.104 48.9569 249.807 49.8927C250.688 50.1979 252.647 48.9212 251.252 48.4384C248.938 47.7682 246.541 47.4223 244.132 47.4108C241.037 47.2488 237.936 47.2385 234.839 47.1373C232.241 47.1591 229.648 46.9162 227.1 46.4124C225.189 45.9483 224.163 45.2219 225.179 43.1917C225.488 42.6507 225.911 42.1839 226.42 41.8243C226.929 41.4647 227.51 41.221 228.123 41.1104C229.561 40.7695 230.945 40.2316 232.236 39.5122C234.239 38.2422 235.825 35.7546 234.949 33.3706C234.876 33.1193 234.787 32.8732 234.681 32.6337C234.858 32.6875 233.694 33.1281 234.775 32.9711C236.134 32.7984 237.504 32.7233 238.874 32.7464C241.931 32.7462 244.988 32.89 248.045 32.9404C251.48 33.1042 254.922 32.9602 258.331 32.5101C260.184 32.2043 263.295 31.6135 263.76 29.3879L261.424 30.0136C262.777 31.1551 260.398 33.3476 259.684 34.2976C258.405 35.9989 257.203 37.7596 256.006 39.5192C253.889 42.632 251.95 45.9983 249.54 48.8973C248.596 50.0325 250.918 50.1564 251.519 49.4338Z" fill="#1D1D1B"/>
<path d="M60.2306 47.9309C60.6794 50.7489 61.8045 53.416 63.5095 55.7041C64.931 57.6307 66.6376 59.3355 67.942 61.3503C69.7398 64.1272 71.0524 67.2418 72.7571 70.0865C74.5695 73.1112 76.5275 76.0465 78.5713 78.9192C86.4679 90.0188 95.6213 100.204 102.684 111.893C106.865 118.674 110.073 126.009 112.214 133.682L114.54 132.85C108.305 124.129 101.915 115.521 95.3724 107.026C92.1465 102.842 88.8827 98.6867 85.5809 94.5615C82.4496 90.4438 79.0916 86.5034 75.5225 82.7588C72.3588 79.6997 68.7877 77.0923 64.9104 75.0106C61.2215 72.938 57.4276 70.9097 54.4346 67.8592C51.5023 64.8707 49.9676 60.7062 46.8027 57.9531C45.0829 56.4571 42.9837 56.1353 40.999 55.162C39.2685 54.1759 37.9199 52.6365 37.1702 50.7913C36.1574 48.7188 35.4214 46.5222 34.3469 44.4783C33.2961 42.4752 31.8561 40.702 30.1113 39.2624C26.7212 36.4514 22.4579 35.0454 18.296 33.8198C17.3697 33.547 15.4401 34.9002 16.8623 35.319C20.5963 36.4185 24.3675 37.6439 27.5173 40.0085C31.034 42.6486 32.5008 46.3815 34.21 50.2683C34.875 52.0303 35.866 53.6512 37.1311 55.0464C38.6899 56.5785 40.6897 56.9956 42.6366 57.8173C46.5196 59.456 48.1592 63.9588 50.6183 67.0748C55.9986 73.8926 64.7956 76.2111 71.1864 81.7994C74.8569 85.2239 78.2241 88.9596 81.2501 92.9648C84.5144 97.0104 87.7419 101.085 90.9327 105.189C98.2516 114.603 105.377 124.162 112.309 133.866C112.808 134.564 114.892 133.986 114.635 133.034C111.057 119.757 103.723 108.068 95.5063 97.1931C87.0196 85.961 77.7689 75.2209 71.4058 62.5647C70.0769 60.1662 68.4868 57.922 66.6646 55.873C64.5747 53.4249 63.1881 50.4559 62.6523 47.282C62.4923 46.2893 60.0614 46.8818 60.2306 47.9309Z" fill="#1D1D1B"/>
<path d="M176.527 63.0279C175.783 64.8468 174.817 66.5671 173.652 68.1497C172.63 69.74 171.683 71.3758 170.812 73.0571C168.952 76.6663 167.419 80.4351 166.233 84.318C163.645 92.7039 162.381 101.486 160.795 110.099L163.237 109.873L161.636 62.3559C161.597 61.1729 159.161 61.6085 159.194 62.5826L160.795 110.099C160.835 111.295 163.06 110.835 163.237 109.873C164.823 101.259 166.088 92.4772 168.675 84.0914C169.89 80.1428 171.476 76.3185 173.414 72.6697C175.173 69.3649 177.764 66.3637 178.969 62.8013C179.31 61.7935 176.849 62.0749 176.527 63.0279Z" fill="#1D1D1B"/>
<path d="M1.31019 27.0762C2.16107 29.8572 4.74275 31.7382 7.17994 33.0849C8.42715 33.774 10.1153 34.8633 11.5997 34.7798C16.4887 34.5049 21.6538 33.345 26.5178 34.4553C29.4639 35.1279 32.2306 37.4158 34.6107 39.1774C35.7994 40.0571 37.2948 41.8495 38.8561 41.8366C43.9085 41.7946 49.0631 41.3665 54.085 42.1207C54.7086 42.1688 55.315 42.3482 55.8644 42.6472C56.4137 42.9462 56.8936 43.3581 57.2726 43.8557C58.0328 45.0505 58.7012 46.3013 59.2721 47.5973C59.7843 48.6423 60.5145 49.5654 61.4135 50.3046C62.3124 51.0437 63.3593 51.5818 64.4837 51.8823C69.1658 53.0393 73.9087 53.9349 78.6903 54.5651C91.4187 56.6209 104.179 58.6133 116.941 60.4485C122.997 61.2127 129.089 61.6666 135.192 61.8085C142.304 62.0957 149.42 62.2489 156.535 62.47C162.07 62.642 167.646 62.7499 173.153 63.3792C174.572 63.5414 175.968 63.86 177.391 63.9771C179.037 64.1124 180.696 64.1076 182.346 64.0818C193.093 63.9136 203.845 62.7661 214.528 61.6627C222.988 60.7889 231.439 59.828 239.88 58.7802C242.111 58.4499 244.296 57.8641 246.393 57.0343C248.652 56.2048 251.268 55.1655 252.884 53.2988C253.204 52.9791 253.449 52.5915 253.6 52.1647C253.751 51.7379 253.804 51.2827 253.756 50.8325C253.485 49.2808 251.953 48.6171 250.592 48.2415C248.185 47.6817 245.724 47.3933 243.253 47.3817C240.265 47.2529 237.273 47.2397 234.284 47.1309C231.795 47.1466 229.311 46.8902 226.877 46.3665C224.932 45.8555 224.182 44.9696 225.275 43.0049C225.626 42.4786 226.083 42.0307 226.616 41.6895C227.149 41.3483 227.747 41.1212 228.372 41.0224C229.737 40.6991 231.047 40.1791 232.262 39.4789C234.233 38.2032 235.817 35.7662 234.959 33.3942C234.903 33.1528 234.815 32.9202 234.696 32.7029C234.699 32.705 234.43 32.6421 234.268 33.0449C234.237 33.1218 234.396 32.9689 234.587 32.9817C235.926 33.072 237.383 32.7363 238.747 32.7339C241.737 32.7287 244.727 32.8681 247.716 32.9221C250.777 33.0339 253.841 32.9557 256.892 32.688C258.892 32.4747 261.478 32.173 263.001 30.695C264.286 29.4478 263.74 27.5833 262.933 26.2168C261.917 24.678 260.553 23.4001 258.952 22.4865C254.691 19.7977 249.634 18.3229 244.815 16.9983C239.875 15.6402 234.861 14.5838 229.903 13.2959C228.241 12.9198 226.61 12.4128 225.028 11.7796C223.755 11.2211 223.435 10.354 222.258 9.5298C220.093 8.0138 217.226 7.41237 214.676 6.92568C212.413 6.49798 210.13 6.19125 207.835 6.00698C204.681 5.74856 201.488 5.78175 198.327 5.68593L191.323 5.47353C190.28 5.40757 189.233 5.46887 188.204 5.6559C184.816 6.37439 181.308 6.30277 177.951 5.44655C176.282 4.99363 174.776 4.14417 173.122 3.64895C171.76 3.26169 170.372 2.97474 168.968 2.79018C163.259 2.08193 157.495 1.92969 151.756 2.33571C151.155 2.36606 150.55 2.3898 149.95 2.44204C149.66 2.46728 149.908 2.45265 150.067 2.44655C149.933 2.45169 149.799 2.45212 149.665 2.45424C148.001 2.4805 146.337 2.49663 144.673 2.50246C138.653 2.51837 132.619 2.43714 126.613 2.00441C123.993 1.87195 121.386 1.54898 118.814 1.03798C116.877 0.543193 114.884 0.301497 112.886 0.318867C110.731 0.440487 108.596 0.802376 106.521 1.39785C104.523 2.03797 102.48 2.52851 100.409 2.8655C98.3285 3.09359 96.2794 2.3543 94.2316 2.05764C90.3774 1.6259 86.4965 1.48149 82.6209 1.62551C79.2209 1.65514 75.8397 2.13562 72.566 3.05434C68.1039 4.25111 63.7109 5.7067 59.334 7.18032C58.1998 7.56218 57.04 7.90728 55.9238 8.33864C55.5688 8.47582 55.7628 8.53604 55.869 8.50087C55.7088 8.55387 55.4166 8.53124 55.2327 8.57058C54.5003 8.77544 53.7804 9.02269 53.0768 9.31118C50.7644 10.1071 48.4536 10.9076 46.1372 11.6917C43.2279 12.82 40.2351 13.7199 37.1859 14.383C27.4277 16.0448 17.4443 18.1138 8.18568 21.674C6.38745 22.2941 4.6753 23.1401 3.09034 24.1918C2.19839 24.8337 1.01893 25.8321 1.31031 27.0762C1.53105 28.0187 3.95836 27.3935 3.73206 26.4273C3.55637 25.6772 4.64119 25.0056 5.39906 24.557C7.07905 23.6291 8.84581 22.8676 10.674 22.2833C15.6368 20.6128 20.6893 19.2214 25.8076 18.1155C29.4831 17.2729 33.176 16.4905 36.8983 15.8847C39.5558 15.3563 42.1669 14.6172 44.707 13.6745C46.6928 13.0139 48.672 12.3336 50.6508 11.6525C51.7411 11.2772 52.8314 10.9016 53.9216 10.526C54.1658 10.4595 54.4054 10.3771 54.6388 10.2794C54.6432 10.2772 55.3731 9.88876 54.9795 10.0187C55.4607 9.85982 56.0164 9.81172 56.5193 9.63979C60.6545 8.22647 64.7975 6.82933 68.9816 5.56655C72.1307 4.48769 75.3724 3.70068 78.6657 3.21535C80.4844 3.09332 82.3083 3.06505 84.13 3.13063C85.8891 3.12391 87.6496 3.1231 89.4071 3.20742C91.0933 3.2777 92.7727 3.46342 94.4335 3.7632C96.2131 4.2331 98.0512 4.44391 99.891 4.38918C103.779 4.02256 107.401 2.30216 111.29 1.90822C114.416 1.59157 117.341 2.57001 120.4 2.99172C125.968 3.65756 131.571 3.9869 137.179 3.97792C141.074 4.04039 144.972 4.04732 148.867 3.97011C151.657 3.91479 154.439 3.69025 157.233 3.68142C160.202 3.65104 163.171 3.77978 166.126 4.06704C168.619 4.23373 171.07 4.79405 173.388 5.72731C176.817 7.21799 180.555 7.8591 184.285 7.59609C185.611 7.52301 186.93 7.35775 188.233 7.10158C188.529 7.05655 188.821 6.99458 189.109 6.91591C189.631 6.74929 188.53 6.8782 188.742 6.94057C189.219 7.00987 189.703 7.02452 190.184 6.98427L192.866 7.06557L199.967 7.28078C202.501 7.35756 205.05 7.34694 207.575 7.5812C209.84 7.77854 212.092 8.11252 214.318 8.5812C216.45 9.04287 219.147 9.58348 220.789 11.1415C221.449 11.9355 222.262 12.5882 223.18 13.0603C224.639 13.6575 226.14 14.1465 227.671 14.5235C236.65 16.9361 246.199 18.2788 254.619 22.4015C257.195 23.6629 261.291 25.9098 261.343 29.2792C261.367 30.8111 259.066 30.9438 257.928 31.0971C255.204 31.4043 252.46 31.5126 249.719 31.4212C246.872 31.3868 244.026 31.2705 241.179 31.228C238.741 31.0421 236.29 31.1907 233.892 31.6696C233.251 31.8452 232.357 32.216 232.248 32.9701C232.17 33.5108 232.587 34.0577 232.706 34.568C233.308 37.1482 230.731 38.8439 228.627 39.464C226.182 40.1852 223.716 40.9869 222.677 43.555C222.058 45.0848 222.147 46.3204 223.676 47.1521C225.433 47.9303 227.327 48.355 229.248 48.4021C231.872 48.6486 234.514 48.6919 237.148 48.751C239.817 48.8109 242.492 48.8489 245.155 49.0679C246.787 49.2021 251.204 49.2976 251.347 51.5608C251.462 53.3914 248.597 54.5405 247.282 55.1206C245.463 55.9051 243.586 56.5448 241.667 57.0342C241.344 57.1192 240.818 57.2004 241.356 57.1303C241.174 57.154 240.992 57.1759 240.81 57.1986C239.89 57.3135 238.97 57.4268 238.05 57.5386C234.463 57.9756 230.873 58.3979 227.282 58.8056C217.074 59.9661 206.852 61.0464 196.609 61.8364C192.196 62.1767 187.771 62.4894 183.345 62.5625C181.792 62.5882 180.234 62.5922 178.683 62.4879C177.339 62.3975 176.461 62.1773 175.056 61.9859C170.338 61.3427 165.532 61.2312 160.78 61.0628C154.378 60.8359 147.974 60.697 141.572 60.4885C135.522 60.2915 129.464 60.0694 123.432 59.5492C118.51 59.1247 113.657 58.2471 108.777 57.4995C96.725 55.6531 84.6262 54.0322 72.6271 51.8567C69.1879 51.2332 64.4682 51.0301 62.2872 47.9055C60.8668 45.8705 60.3554 43.0515 58.1957 41.5939C56.3107 40.3218 53.4511 40.3932 51.27 40.2927C47.1809 40.1044 43.0676 40.1688 38.9784 40.3414L39.9531 40.5962C37.9507 38.9369 35.864 37.382 33.7014 35.9376C32.2378 34.8921 30.6596 34.0169 28.9976 33.3291C27.7473 32.9159 26.4438 32.6855 25.1276 32.645C21.796 32.4868 18.4573 32.5857 15.1409 32.9407C14.1265 33.0308 13.0758 33.0751 12.072 33.2559C11.399 33.3771 12.2914 33.2008 12.2993 33.3176C12.0475 33.1991 11.7883 33.0967 11.5234 33.011C8.51953 31.7459 4.75283 29.7639 3.73194 26.4273C3.44307 25.483 1.02561 26.1461 1.31019 27.0762Z" fill="#1D1D1B"/>
</svg>
