<svg width="466" height="298" viewBox="0 0 466 298" fill="none" xmlns="http://www.w3.org/2000/svg">
<path d="M463.02 71.2723C463.571 91.0967 460.032 107.855 453.335 126.507C446.638 145.159 432.056 162.083 412.796 166.297C398.63 169.397 381.601 166.214 371.459 176.638C367.629 180.574 365.546 185.868 362.417 190.387C356.577 198.821 347.408 204.185 338.536 209.28C324.637 217.262 308.831 225.526 293.381 221.332C290.077 220.435 286.837 218.969 283.415 219.048C280.139 219.124 277.069 220.617 274.232 222.269C247.651 237.747 233.584 267.79 221.091 296.019C212.329 291.953 210.461 280.314 204.155 272.966C191.608 258.342 167.343 265.141 150.056 256.734C145.706 254.619 141.837 251.536 137.33 249.784C118.688 242.541 95.0348 259.612 78.8464 247.823C64.6418 237.478 67.4237 211.645 51.6266 203.988C47.7705 202.119 43.3832 201.74 39.3093 200.419C26.6721 196.322 18.6208 183.762 14.2017 171.164C9.78263 158.566 2.71973 140.839 2.71973 126.368C111.721 93.778 226.242 94.787 340.01 95.1336C353.18 95.1737 366.54 95.2055 379.245 91.7371C388.363 89.2478 396.896 85.0189 405.736 81.6719C423.378 74.9917 444.165 70.6561 463.02 71.2723Z" fill="#F7FBFD"/>
<path d="M395.846 143.099C404.316 135.189 412.784 127.434 420.895 119.157C427.685 112.228 436.075 109.659 444.102 104.583C451.538 99.8817 456.915 92.6094 462.036 85.4558C462.591 86.8535 461.881 88.4113 461.124 89.7107C455.14 99.9794 445.465 107.474 436.031 114.701C428.617 120.381 422.296 127.922 414.882 133.601C411.77 135.985 408.255 138.178 405.767 141.181C403.07 144.437 400.249 147.609 397.363 150.743C389.474 159.311 378.609 172.082 369.386 179.097C371.661 166.849 387.123 151.245 395.846 143.099Z" fill="#071462"/>
<path d="M254.705 236.682C268.808 226.788 279.295 212.444 287.156 197.115C293.384 184.969 298.191 171.987 302.998 159.275C307.092 148.449 310.082 136.471 320.58 129.889C328.032 125.218 336.305 124.276 344.805 122.829L372.329 118.144C387.997 115.477 404.399 110.574 420.441 113.122C410.502 119.594 400.288 121.418 388.908 124.42C385.295 125.373 381.738 126.533 378.237 127.838C362.245 133.802 349.219 143.542 334.99 152.618C330.39 155.552 325.681 158.367 321.548 161.928C307.949 173.649 302.095 191.986 290.5 205.692C286.164 210.566 281.469 215.108 276.454 219.281L253.881 239.036" fill="#071462"/>
<path d="M460.707 71.892C461.033 85.364 459.394 98.8117 455.842 111.811C452.647 123.571 448.65 135.323 441.356 145.227C434.845 154.069 425.901 161.783 415.179 164.845C404.82 167.803 393.751 166.485 383.322 169.214C378.287 170.38 373.637 172.822 369.819 176.305C365.584 180.406 363.451 186.009 360.129 190.772C352.864 201.188 340.184 207.551 329.225 213.313C323.251 216.454 316.977 219.375 310.32 220.714C307.052 221.395 303.702 221.598 300.376 221.316C296.735 220.982 293.448 219.708 289.95 218.779C278.655 215.776 267.763 224.315 259.742 231.353C240.205 248.495 229.119 273.107 218.803 296.404L223.265 295.209C214.188 290.762 212.489 279.338 206.329 272.155C199.937 264.702 189.969 262.692 180.683 261.553C170.314 260.282 159.429 260.023 150.09 254.796C144.98 251.936 140.337 248.598 134.462 247.51C129.611 246.741 124.671 246.729 119.816 247.474C109.91 248.731 99.433 252.592 89.3946 250.62C79.77 248.728 74.4883 240.994 71.0949 232.428C68.0313 224.694 66.1683 216.12 61.0944 209.357C58.4579 205.809 54.7605 203.193 50.5377 201.888C47.4699 200.915 44.2603 200.477 41.1989 199.48C38.5596 198.608 36.0626 197.354 33.7876 195.757C23.2504 188.431 18.6383 176.447 14.4879 164.855C10.0024 152.328 5.1366 139.22 5.03335 125.748L2.9341 127.167C32.1596 118.552 61.9508 111.986 92.0904 107.518C122.208 102.959 152.573 100.2 182.98 98.5278C213.603 96.8432 244.275 96.2631 274.94 96.0983C290.284 96.0159 305.628 96.0395 320.973 96.0832C336.057 96.1261 351.372 96.8838 366.379 95.0514C373.704 94.1487 380.899 92.3939 387.817 89.8229C394.752 87.2606 401.46 84.126 408.407 81.5915C422.047 76.5322 436.343 73.4566 450.857 72.4587C454.414 72.2369 457.973 72.1761 461.536 72.276C462.694 72.3621 463.847 72.053 464.808 71.3993C465.396 70.8839 465.54 70.2983 464.504 70.2682C450.303 69.9956 436.135 71.7504 422.43 75.4797C415.526 77.2869 408.74 79.517 402.111 82.1574C395.001 84.992 388.031 88.2764 380.682 90.466C365.635 94.9491 349.555 94.1551 334.036 94.1061C318.65 94.0576 303.265 94.0117 287.88 94.049C256.907 94.1242 225.927 94.5424 194.985 96.0075C164.455 97.4532 133.958 99.931 103.671 104.093C73.2212 108.17 43.0803 114.29 13.4519 122.412C9.79298 123.429 6.14424 124.48 2.50558 125.568C1.89511 125.75 0.399811 126.144 0.406271 126.987C0.499401 139.14 4.53463 151.032 8.53518 162.372C12.1839 172.714 15.6012 183.24 23.0188 191.603C26.4313 195.551 30.7132 198.654 35.5277 200.668C40.9838 202.872 47.2107 202.883 52.1282 206.383C59.2262 211.435 61.7919 220.615 64.5373 228.427C67.3323 236.38 70.6238 245.08 78.2118 249.655C86.5994 254.713 96.9768 253.218 106.119 251.561C116.353 249.707 127.483 246.749 137.362 251.571C142.602 254.129 147.174 257.677 152.771 259.528C157.568 260.989 162.5 261.962 167.492 262.433C178.265 263.705 190.729 263.743 199.412 271.203C207.656 278.287 208.697 291.823 218.917 296.83C219.999 297.36 222.837 296.856 223.379 295.634C232.732 274.511 242.58 252.591 258.94 235.848C263.027 231.631 267.555 227.864 272.445 224.613C275.1 222.863 278.182 220.619 281.386 220.134C284.802 219.618 288.274 221.405 291.491 222.27C303.974 225.629 316.982 221.427 328.206 215.959C334.131 213.073 339.874 209.763 345.524 206.373C350.645 203.456 355.406 199.948 359.708 195.919C364.182 191.532 366.819 186.205 370.128 180.983C373.031 176.115 377.682 172.537 383.132 170.98C393.698 167.996 405.004 169.456 415.608 166.445C425.942 163.384 435.168 157.394 442.17 149.2C450.986 139.097 455.814 126.901 459.533 114.175C463.709 100.055 465.666 85.3727 465.334 70.6523C465.311 69.7472 460.672 70.4891 460.707 71.892Z" fill="#1D1D1B"/>
<path d="M211.591 157.999C173.946 165.197 135.132 163.383 98.3217 152.706C96.4354 152.157 94.2478 151.627 92.6331 152.746C90.1141 154.492 91.1656 158.388 92.498 161.149C108.969 195.26 128.722 227.687 151.477 257.971C113.291 239.92 100.383 189.756 64.3788 167.673C49.0023 158.243 13.7104 146.754 3.12939 132.145C5.99561 121.358 35.5893 127.936 46.7268 127.213C69.2429 125.751 91.8194 125.454 114.366 126.325C133.212 127.053 152.644 128.769 169.307 137.604C180.93 143.768 198.508 159.389 211.591 157.999Z" fill="#071462"/>
<path d="M71.0153 59.906C70.7678 62.0016 69.1599 63.646 67.6391 65.1013C63.2151 69.3216 58.6965 73.4327 54.0833 77.4346C51.6894 66.3382 53.4939 57.7959 52.2061 46.5176C55.1602 54.2887 71.9685 51.6474 71.0153 59.906Z" fill="#F7FBFD"/>
<path d="M69.5681 60.0946C69.1579 61.8662 68.1732 63.4525 66.7676 64.6063C65.2917 66.0459 63.7752 67.4462 62.2623 68.8468C59.1953 71.686 56.0832 74.4754 52.926 77.2147L55.532 77.0465C53.3779 66.8406 54.7948 56.4287 53.6547 46.1295L50.7569 46.9058C52.4398 51.1073 57.4387 52.3749 61.3516 53.5487C64.574 54.5153 69.9967 55.7038 69.5681 60.0946C69.4586 61.2166 72.3691 60.6684 72.462 59.7176C72.9026 55.2033 68.3707 53.6167 64.82 52.5199C60.9718 51.3312 55.3473 50.3553 53.6547 46.1295C53.2711 45.1717 50.6443 45.8884 50.7569 46.9058C51.897 57.205 50.4801 67.6169 52.6342 77.8228C52.8328 78.764 54.8358 78.0058 55.2402 77.6546C58.6383 74.703 61.9861 71.695 65.2836 68.6305C66.8486 67.1743 68.4584 65.7421 69.9302 64.1905C71.2132 62.9948 72.0972 61.4331 72.462 59.7176C72.6354 58.6333 69.7218 59.1331 69.5681 60.0946Z" fill="#1D1D1B"/>
<path d="M52.2211 52.2285C52.1996 52.8195 52.3052 53.4084 52.5307 53.955C52.7563 54.5017 53.0965 54.9935 53.5285 55.3974C54.4279 56.0914 55.6786 56.1188 56.6726 56.6687C57.911 57.5415 58.7807 58.8435 59.1128 60.3217C60.4692 64.4385 60.9134 69.269 58.4677 72.8476C61.8452 72.2 65.9525 67.4466 68.0783 64.9619C69.1153 63.8475 69.9322 62.5471 70.4858 61.1291C70.7572 60.4181 70.8698 59.6561 70.8157 58.8969C70.7617 58.1378 70.5421 57.3997 70.1726 56.7343C69.2094 55.1881 67.3457 54.4931 65.5949 53.9895C63.7687 53.5034 62.0227 52.7544 60.4118 51.7663C59.3839 51.1752 58.2937 50.6998 57.1611 50.3491C55.1973 49.7188 52.0938 49.2391 52.2211 52.2285Z" fill="#071462"/>
<path d="M69.5681 60.0946C69.1579 61.8662 68.1732 63.4525 66.7676 64.6063C65.2917 66.0459 63.7752 67.4462 62.2623 68.8468C59.1953 71.686 56.0832 74.4754 52.926 77.2147L55.532 77.0465C53.3779 66.8406 54.7948 56.4287 53.6547 46.1295L50.7569 46.9058C52.4398 51.1073 57.4387 52.3749 61.3516 53.5487C64.574 54.5153 69.9967 55.7038 69.5681 60.0946C69.4586 61.2166 72.3691 60.6684 72.462 59.7176C72.9026 55.2033 68.3707 53.6167 64.82 52.5199C60.9718 51.3312 55.3473 50.3553 53.6547 46.1295C53.2711 45.1717 50.6443 45.8884 50.7569 46.9058C51.897 57.205 50.4801 67.6169 52.6342 77.8228C52.8328 78.764 54.8358 78.0058 55.2402 77.6546C58.6383 74.703 61.9861 71.695 65.2836 68.6305C66.8486 67.1743 68.4584 65.7421 69.9302 64.1905C71.2132 62.9948 72.0972 61.4331 72.462 59.7176C72.6354 58.6333 69.7218 59.1331 69.5681 60.0946Z" fill="#1D1D1B"/>
<path d="M462.917 74.7642C461.92 86.9374 453.843 99.5981 442.914 106.096C425.698 116.334 404.59 116.428 384.718 118.997C324.813 126.746 268.916 159.257 208.516 158.558C153.652 157.925 99.9241 129.722 45.9268 139.479C37.4572 141.007 30.1412 136.902 21.6207 135.738C13.0929 134.574 3.19304 134.961 2.72011 126.368C2.18891 116.836 11.2261 109.916 19.0918 104.51C31.2529 96.1462 42.9351 87.1069 54.0835 77.4346C58.6966 73.4326 63.2153 69.3215 67.6392 65.1013C69.16 63.6461 70.768 62.0016 71.0154 59.906C71.9686 51.6474 55.1604 54.2887 52.2062 46.5176C57.8599 26.3768 77.3531 12.5447 97.6831 7.61133C141.384 -2.99029 192.246 2.15409 236.18 7.53857C263.954 10.9366 292.12 14.3345 319.792 10.2671C333.915 8.19337 352.594 6.44715 358.262 19.5444C359.877 23.2772 359.892 27.5047 361.085 31.3901C366.258 48.293 389.019 50.9418 406.511 48.4097C424.003 45.8702 444.842 42.4648 456.768 55.5039C461.709 60.9101 463.492 67.7571 462.917 74.7642Z" fill="#3BCBA4"/>
<path d="M461.444 74.8579C460.523 83.3959 456.906 91.4185 451.118 97.7627C444.958 104.675 436.545 108.798 427.781 111.409C410.129 116.667 391.299 116.443 373.248 119.67C335.585 126.402 300.091 141.345 263.016 150.389C244.554 154.892 225.641 157.853 206.591 157.4C187.168 156.938 168 153.073 149.095 148.876C130.329 144.71 111.604 140.073 92.4921 137.756C83.2029 136.573 73.8351 136.121 64.4752 136.405C59.7812 136.57 55.0992 136.984 50.449 137.645C45.5233 138.351 41.1415 139.004 36.1929 137.954C31.6044 136.981 27.1691 135.384 22.5179 134.691C19.0273 134.17 15.4816 134.024 12.017 133.326C8.91191 132.7 5.57031 131.457 4.53687 128.153C3.35893 124.387 4.83805 120.095 6.95509 116.96C11.8444 109.718 20.2318 105.225 27.1644 100.229C35.3798 94.309 43.3591 88.0785 51.1024 81.5376C54.9841 78.2593 58.8008 74.9059 62.5524 71.4775C64.3782 69.8089 66.1881 68.1228 67.9821 66.4194C69.4742 65.1846 70.7514 63.7111 71.7618 62.0588C74.4575 56.8473 69.6883 53.8747 65.3832 52.4692C62.8552 51.7799 60.368 50.9486 57.9335 49.9795C56.8163 49.5127 55.7932 48.8469 54.9141 48.0144C53.4339 46.5131 53.9449 45.4027 54.6177 43.5554C57.4141 36.1399 61.9681 29.5137 67.8889 24.2456C80.8802 12.4541 97.5234 8.00434 114.467 5.43504C133.821 2.50013 153.508 2.10041 173.04 2.91843C192.17 3.71965 211.228 5.70314 230.232 7.98362C251.006 10.4767 271.811 13.2635 292.776 13.2451C302.743 13.1519 312.693 12.396 322.56 10.9826C329.503 10.0523 336.739 9.32153 343.681 10.6391C351.222 12.0705 356.493 16.5437 358.079 24.1975C358.893 28.1248 359.339 32.019 361.22 35.6235C362.671 38.3497 364.675 40.7437 367.103 42.6526C377.393 50.8639 392.798 51.3097 405.263 49.687C419.937 47.7766 438.199 43.4171 451.371 52.6111C458.726 57.7441 462.061 66.0523 461.444 74.8579C461.335 76.4223 464.291 76.0646 464.389 74.6706C464.994 66.0363 462.071 57.8166 455.327 52.2033C449.523 47.3728 441.947 45.4518 434.543 45.0249C418.898 44.1229 403.63 49.4968 388.001 47.7058C381.238 46.9308 374.233 45.0259 368.913 40.5844C366.335 38.4485 364.333 35.7014 363.089 32.5935C361.351 28.1743 361.533 23.2484 359.594 18.8982C353.721 5.72687 335.747 7.08747 323.963 8.58518C313.703 10.041 303.362 10.8483 293 11.0019C281.987 10.9317 270.984 10.3026 260.034 9.11741C239.643 7.06285 219.358 4.12687 198.937 2.34739C179.055 0.61493 159.038 -0.301249 139.092 0.759011C129.312 1.25222 119.571 2.32353 109.918 3.96726C101.27 5.46409 92.6645 7.35647 84.5972 10.8928C70.3295 17.1471 57.2662 28.2056 51.8299 43.1599C51.3303 44.5341 50.4294 46.1398 51.0378 47.5407C51.5321 48.5726 52.2599 49.4751 53.1634 50.177C55.3055 51.7223 57.7271 52.8375 60.294 53.4607C62.7327 54.2123 65.4874 54.7561 67.6398 56.1919C70.6138 58.1757 69.6093 61.3213 67.4254 63.6279C60.2531 71.2032 51.8818 77.9586 43.8073 84.5395C35.5064 91.305 26.9426 97.7231 18.116 103.794C11.9314 108.071 4.76869 113.107 2.15162 120.518C1.09262 123.516 0.69196 127.177 2.11738 130.124C3.40886 132.794 6.09352 134.219 8.83552 135.009C12.1838 135.818 15.5936 136.345 19.0296 136.587C23.7232 137.292 28.3647 138.309 32.9232 139.63C37.2397 140.859 41.7663 141.168 46.2096 140.536C51.1205 139.694 56.0727 139.115 61.0452 138.801C80.8726 137.626 100.64 140.808 119.986 144.854C139.582 148.953 158.991 154.028 178.796 157.071C197.997 160.146 217.548 160.371 236.815 157.74C275.731 152.236 312.243 136.881 350.099 127.046C359.754 124.484 369.535 122.418 379.401 120.854C388.925 119.396 398.539 118.716 408.092 117.497C425.379 115.291 444.115 110.945 455.394 96.519C460.415 90.2434 463.536 82.6622 464.389 74.6704C464.533 73.1139 461.573 73.4651 461.444 74.8579Z" fill="#1D1D1B"/>
<path d="M462.916 74.7642C461.919 86.9374 453.843 99.5981 442.914 106.096C425.698 116.334 404.59 116.428 384.718 118.997C324.812 126.746 268.916 159.257 208.515 158.558C153.652 157.925 99.9238 129.722 45.9264 139.479C37.4568 141.007 21.3787 135.836 12.8582 134.672C4.33038 133.508 3.08218 132.383 2.71975 126.368C2.14555 116.838 11.2258 109.916 19.0915 104.51C31.2525 96.1462 42.9347 87.1069 54.0831 77.4346C58.6963 73.4326 63.2149 69.3215 67.6389 65.1013C69.1596 63.6461 70.7676 62.0016 71.015 59.906C71.9682 51.6474 55.16 54.2887 52.2058 46.5176C57.8595 26.3768 77.3527 12.5447 97.6827 7.61133C141.384 -2.99029 192.245 2.15409 236.18 7.53857C263.953 10.9366 292.12 14.3345 319.792 10.2671C333.915 8.19337 352.593 6.44715 358.261 19.5444C359.877 23.2772 359.891 27.5047 361.085 31.3901C366.258 48.293 389.018 50.9418 406.511 48.4097C424.003 45.8702 444.842 42.4648 456.768 55.5039C461.709 60.9101 463.491 67.7571 462.916 74.7642Z" stroke="#1D1D1B" stroke-width="2" stroke-miterlimit="10"/>
</svg>
