<svg width="532" height="288" viewBox="0 0 532 288" fill="none" xmlns="http://www.w3.org/2000/svg">
<path d="M520.823 37.3968C517.38 49.1946 492.361 61.0844 475.008 86.3331C457.655 111.582 427.632 117.366 419.736 127.374C416.044 131.96 411.805 136.076 407.112 139.631C383.883 136.188 343.164 133.801 336.599 132.286C327.464 130.174 316.262 133.342 307.448 134.765C298.68 136.142 266.408 144.91 266.408 144.91C266.408 144.91 220.822 138.3 212.743 140.916C204.663 143.533 193.416 147.022 195.528 150.878C198.374 156.065 248.871 154.734 252.039 157.213C255.206 159.646 244.648 168.782 252.728 167.358C260.807 165.981 294.962 161.666 311.672 161.758C327.968 161.896 419.552 150.832 423.225 144.772C421.618 161.207 403.852 166.945 393.982 176.31C383.975 185.813 355.558 198.942 340.272 206.333C325.031 213.678 273.936 230.021 265.031 237.917C256.079 245.813 204.48 279.463 195.298 285.293C186.071 291.077 165.688 262.294 152.926 246.869C140.118 231.444 109.361 192.653 93.9362 173.189C78.5575 153.724 63.454 157.397 49.7739 152.622C36.5068 148.032 6.75924 119.937 4.18848 116.953C10.5696 123.058 33.6605 133.158 39.0315 134.397C45.3666 135.821 95.9101 140.365 96.9202 136.142C97.9759 131.918 81.4952 128.567 78.6949 124.619C75.8947 120.717 75.8948 119.294 67.8152 116.861C67.1724 116.677 66.2086 116.448 64.969 116.172C65.9791 107.221 56.6139 94.5962 52.62 90.6024C61.7094 94.9176 117.119 104.696 126.071 109.148C135.895 114.061 142.551 107.634 146.407 114.153C150.264 120.717 156.92 125.262 163.944 124.574C170.968 123.885 203.607 118.973 215.91 122.094C228.167 125.262 247.816 122.462 254.839 118.606C261.863 114.749 269.208 113.694 283.255 112.638C297.303 111.582 336.232 111.995 346.056 107.083C355.88 102.125 371.304 99.6463 383.608 98.2689C395.911 96.8917 444.664 97.2129 447.831 90.8777C450.999 84.5886 396.232 54.9328 399.216 48.1846C402.2 41.3905 437.915 38.59 447.969 39.6461C457.976 40.7018 470.968 42.4464 477.625 38.5901C484.327 34.7341 512.376 36.0653 516.232 32.4388C520.088 28.7663 528.856 23.1654 527.479 19.3094C534.136 18.6206 524.22 25.5528 520.823 37.3968Z" fill="#F7FBFD"/>
<path d="M516.232 32.4387C512.376 36.0652 484.327 34.7338 477.624 38.5898C470.968 42.4461 457.976 40.7017 447.968 39.6459C437.915 38.5899 402.2 41.3904 399.215 48.1845C396.232 54.9327 450.998 84.5884 447.831 90.8776C444.663 97.2128 395.91 96.8913 383.607 98.2685C371.304 99.6459 355.879 102.125 346.055 107.083C336.232 111.995 297.302 111.582 283.255 112.637C269.208 113.693 261.863 114.749 254.839 118.605C247.815 122.461 228.167 125.262 215.91 122.094C203.607 118.973 170.967 123.885 163.944 124.573C156.92 125.262 150.263 120.717 146.407 114.153C142.551 107.634 135.895 114.06 126.07 109.148C117.119 104.696 61.7091 94.9174 52.6197 90.6022C52.5671 90.583 52.5199 90.5514 52.4821 90.5102C51.6555 90.1431 51.2884 89.7759 51.3344 89.5004C51.3344 89.4544 51.3802 89.4087 51.3802 89.3627C53.033 84.3591 86.407 90.8776 86.407 90.8776C86.407 90.8776 113.079 84.5886 122.214 84.5886C131.304 84.5886 158.343 74.7644 166.422 71.5969C174.502 68.4293 201.863 64.9405 216.599 63.1501C231.335 61.4056 230.646 53.0045 235.558 46.6694C240.47 40.3802 296.247 27.7098 305.382 26.3327C314.472 24.9096 306.759 10.541 306.759 5.2619C306.759 0.0284688 463.255 2.09417 463.255 2.09417C478.68 3.14993 526.056 15.453 527.479 19.3093C528.856 23.1653 520.088 28.7662 516.232 32.4387Z" fill="#3BCBA4"/>
<path d="M78.6949 124.619C75.8947 120.717 75.8947 119.294 67.815 116.861C67.1723 116.677 66.2084 116.448 64.9688 116.172C50.9674 113.28 3.22426 107.496 2.53586 114.153C2.48991 114.887 3.0407 115.759 4.05051 116.769C4.10721 116.822 4.154 116.884 4.18845 116.953C10.5696 123.059 33.6605 133.158 39.0315 134.397C45.3666 135.821 95.9099 140.366 96.92 136.142C97.9758 131.919 81.4952 128.567 78.6949 124.619Z" fill="#3BCBA4"/>
<path d="M407.112 139.631C383.883 136.188 343.164 133.801 336.599 132.286C327.464 130.174 316.262 133.342 307.448 134.765C298.68 136.142 266.408 144.91 266.408 144.91C266.408 144.91 220.822 138.3 212.743 140.916C204.663 143.533 193.416 147.022 195.528 150.878C198.374 156.065 248.871 154.734 252.039 157.213C255.206 159.646 244.648 168.782 252.728 167.358C260.807 165.981 294.962 161.666 311.672 161.758C327.969 161.896 419.553 150.832 423.225 144.772C423.225 144.589 423.271 144.405 423.271 144.221C422.766 142.523 416.339 141.008 407.112 139.631Z" fill="#3BCBA4"/>
<path d="M195.527 150.878C192.829 164.264 192.741 178.045 195.268 191.464C199.548 212.87 203.016 249.592 199.995 259.91C196.974 270.227 220.679 212.573 220.679 212.573L249.223 167.508C249.223 167.508 259.592 154.416 252.039 157.213C244.485 160.01 214.485 154.22 211.853 154.747C209.221 155.273 195.518 159.641 195.527 150.878Z" fill="#071462"/>
<path d="M58.0186 92.4556C59.9193 92.9841 67.8151 116.861 67.8151 116.861C67.8151 116.861 75.117 119.852 77.3523 122.684C79.5876 125.517 89.3208 129.88 92.3558 131.681C95.3909 133.482 95.2363 139.432 95.2363 139.432C95.2363 139.432 117.718 156.822 121.385 177.765C125.053 198.709 139.003 229.759 139.003 229.759C139.003 229.759 139.221 168.026 143.432 149.544C147.642 131.062 153.988 122.083 153.988 122.083C153.988 122.083 150.644 111.063 141.747 111.074C132.851 111.086 130.8 114.245 125.537 111.074C120.274 107.904 92.9051 103.694 87.6418 101.062C82.3786 98.4307 58.0186 92.4556 58.0186 92.4556Z" fill="#071462"/>
<path d="M523.818 25.9429C523.818 25.9429 523.555 26.9148 522.991 28.4607C520.936 34.0848 514.88 47.3052 502.907 48.9565C487.644 51.0618 475.539 54.2197 462.381 56.325C449.223 58.4302 441.731 70.5115 441.854 76.8516C441.978 83.1917 447.831 90.8777 447.831 90.8777C447.831 90.8777 419.426 66.9529 414.122 63.0002C408.818 59.0475 400.521 51.1959 401.492 45.9883C402.463 40.7807 416.806 39.4503 427.225 40.2561C437.644 41.0619 447.702 42.0477 455.888 40.4688C464.074 38.8898 481.855 33.7841 489.223 32.4229" fill="#071462"/>
<path d="M518.704 37.6428C517.71 40.8503 515.421 43.5153 513.124 45.8857C509.943 49.1688 506.431 52.124 502.966 55.0984C494.115 62.6958 485.418 70.4428 478.054 79.5354C474.059 84.4696 470.745 89.8711 466.332 94.4685C462.352 98.5693 457.949 102.238 453.198 105.414C445.343 110.727 436.777 114.719 428.498 119.289C425.121 120.979 421.993 123.126 419.203 125.67C417.041 127.818 415.266 130.328 413.107 132.494C410.689 134.907 408.116 137.158 405.403 139.233L408.393 138.432C387.135 135.309 365.655 134.222 344.303 131.965C341.306 131.648 338.394 131.06 335.416 130.646C328.653 129.707 321.777 130.903 315.137 132.159C306.401 133.812 297.772 135.569 289.145 137.743C281.805 139.593 274.323 141.264 267.093 143.514C265.384 144.046 266.803 143.199 267.62 143.701C267.048 143.528 266.452 143.443 265.854 143.452C263.088 143.066 260.32 142.697 257.549 142.343C249.039 141.251 240.509 140.261 231.954 139.597C225.714 139.112 218.578 138.098 212.44 139.787C209.893 140.488 187.95 146.983 194.155 152.331C195.766 153.72 198.456 154.062 200.472 154.415C203.983 155.029 207.548 155.354 211.099 155.629C219.757 156.298 228.442 156.535 237.115 156.942C240.378 157.095 243.652 157.236 246.902 157.577C248.497 157.745 250.468 157.512 250.503 159.206C250.559 161.931 246.847 164.328 247.51 167.124C248.174 169.926 253.013 168.495 254.904 168.21C264.336 166.789 273.83 165.713 283.321 164.77C298.655 163.246 314.028 163.254 329.361 161.823C346.906 160.185 364.416 158.005 381.844 155.403C389.952 154.192 398.05 152.879 406.092 151.281C411.282 150.249 416.715 149.268 421.63 147.237C423.026 146.803 424.267 145.975 425.203 144.853L421.106 145.018C419.913 155.596 411.754 161.82 403.553 167.422C396.103 172.51 389.574 178.709 381.901 183.461C372.379 189.163 362.573 194.378 352.521 199.083C345.233 202.627 337.982 206.229 330.45 209.23C313.47 215.997 296.098 221.776 279.294 228.988C273.754 231.366 267.846 233.767 263.166 237.656C258.772 241.306 254.045 244.553 249.359 247.812C235.124 257.714 220.639 267.262 206.121 276.74C203.513 278.443 200.902 280.14 198.288 281.831C196.952 282.694 195.123 284.426 193.561 284.771C190.934 285.351 187.259 282.285 185.433 280.829C181.877 277.884 178.57 274.652 175.543 271.165C168.549 263.393 162.267 255.026 155.644 246.945C150.294 240.419 144.97 233.873 139.67 227.308C126.223 210.585 112.851 193.803 99.5542 176.96C96.0395 172.526 92.6192 168.021 88.233 164.392C84.3004 161.136 79.8082 158.623 74.976 156.975C66.657 154.124 57.3213 154.384 49.3005 150.687C41.8184 147.239 35.152 141.755 28.8186 136.577C22.388 131.32 16.1604 125.82 10.1355 120.079C8.78233 118.789 7.37991 117.514 6.14648 116.106L2.23022 117.799C6.2107 121.51 11.356 124.081 16.1663 126.522C21.6353 129.328 27.2543 131.833 32.9978 134.023C39.8392 136.595 47.2192 136.919 54.4471 137.561C65.0207 138.645 75.644 139.173 86.2729 139.14C89.6091 139.084 93.4058 139.179 96.5728 137.95C99.8199 136.69 99.5123 134.127 96.8386 132.235C94.3001 130.643 91.5984 129.327 88.7799 128.31C86.3016 127.261 83.1625 126.287 81.188 124.373C79.4849 122.722 78.657 120.456 76.724 118.975C73.7898 116.727 69.7836 115.771 66.2498 114.974L67.0878 115.926C67.5399 110.738 65.4448 105.758 62.9792 101.308C60.7094 97.098 57.8837 93.2127 54.578 89.7561L50.9471 91.6611C57.8998 94.8866 66.1216 96.1084 73.5376 97.7888C84.5115 100.275 95.527 102.578 106.483 105.144C110.73 106.138 114.98 107.151 119.168 108.371C123.048 109.501 126.697 111.595 130.696 112.182C133.8 112.638 136.828 112.134 139.93 112.256C143.452 112.395 144.353 115.214 146.266 117.679C150.484 123.113 156.856 126.411 163.789 125.801C174.009 124.901 184.136 123.272 194.39 122.638C200.114 122.13 205.873 122.161 211.591 122.73C214.208 123.065 216.737 123.833 219.355 124.188C222.751 124.631 226.177 124.803 229.6 124.704C236.37 124.617 243.101 123.663 249.629 121.865C254.698 120.398 259.106 117.51 264.251 116.242C275.921 113.368 288.46 113.549 300.417 113.159C312.467 112.766 324.69 112.581 336.625 110.717C340.847 110.071 344.962 108.854 348.857 107.101C356.194 103.851 364.284 102.253 372.169 101C393.137 97.6702 414.486 99.1081 435.492 96.126C438.401 95.713 451.296 94.4954 449.998 89.1911C449.46 86.9911 447.074 85.0788 445.48 83.6614C442.474 80.9885 439.22 78.5917 435.971 76.2266C428.091 70.4905 419.938 65.1293 412.156 59.2593C409.147 57.1037 406.311 54.7156 403.675 52.1172C402.638 51.0421 400.583 49.0987 401.528 47.6926C403.219 45.1769 408.609 44.4437 411.25 43.8452C416.761 42.6628 422.344 41.8434 427.962 41.3923C433.034 40.886 438.129 40.6555 443.225 40.7016C449.369 40.8078 455.45 41.9447 461.594 42.1743C465.137 42.376 468.691 42.1886 472.193 41.6152C474.902 41.1151 477.087 39.9679 479.606 38.9993C483.944 37.331 489.186 37.3166 493.758 36.9612C499.153 36.5419 504.595 36.3277 509.951 35.5261C511.878 35.3046 513.773 34.8607 515.597 34.2031C517.436 33.4644 518.705 32.1087 520.208 30.8562C523.242 28.3286 530.894 23.617 529.593 18.7427L527.209 20.5483C527.959 20.4863 527.614 20.7061 527.195 21.5649C526.456 22.8904 525.634 24.1677 524.734 25.3894C522.138 29.1586 520.107 33.2864 518.704 37.6426C518.229 39.2174 522.488 38.6537 522.941 37.1504C524.633 31.5411 527.961 27.1811 530.866 22.2185C531.388 21.3262 532.281 19.9745 531.627 18.9426C530.886 17.7726 528.903 17.9747 527.749 18.0701C527.04 18.1287 525.074 18.7855 525.365 19.8757C526.059 22.4741 522.754 25.0008 521.078 26.4792C519.041 28.4683 516.869 30.315 514.579 32.0063C513.292 32.6009 511.906 32.9541 510.492 33.0481C508.029 33.4176 505.542 33.6308 503.06 33.8303C497.533 34.2746 491.982 34.5359 486.479 35.2385C484.242 35.4821 482.026 35.8942 479.851 36.4712C477.748 37.0724 475.929 38.2853 473.834 38.866C466.65 40.8568 458.403 39.4209 451.133 38.6382C446.865 38.2037 442.572 38.0835 438.286 38.2781C427.714 38.6863 416.659 39.5805 406.49 42.6728C403.502 43.5812 399.314 44.813 397.508 47.6257C396.363 49.4084 397.456 51.118 398.641 52.5698C403.439 58.4504 410.628 62.8036 416.755 67.1352C424.253 72.436 431.978 77.4969 439.115 83.2856C441.249 85.0161 443.871 86.9355 445.307 89.3393C446.333 91.0562 445.709 91.3238 443.987 91.9556C440.452 93.2531 436.491 93.6343 432.777 94.0644C427.436 94.683 422.067 95.0499 416.7 95.3552C406.812 95.9177 396.897 96.0724 387.016 96.759C380.924 97.2331 374.863 98.0393 368.859 99.1741C361.487 100.506 354.026 102.179 347.149 105.226C338.03 109.266 327.707 109.47 317.858 109.997C306.745 110.592 295.599 110.596 284.495 111.331C277.635 111.784 270.65 112.303 263.946 113.913C258.851 115.137 254.543 117.933 249.597 119.437C242.997 121.35 236.151 122.283 229.28 122.205C225.77 122.25 222.264 121.937 218.817 121.271C216.637 120.762 214.431 120.371 212.208 120.101C200.61 118.959 188.607 120.484 177.085 121.804C172.955 122.277 168.831 122.905 164.691 123.285C161.253 123.558 157.828 122.61 155.019 120.609C151.702 118.371 150.128 115.24 147.656 112.285C143.979 107.892 137.108 110.537 132.259 109.624C128.591 108.934 124.997 106.912 121.367 105.868C101.999 100.301 81.981 97.2419 62.4945 92.1296C59.6898 91.5103 56.9453 90.6449 54.2926 89.5434C53.4094 89.1337 49.331 90.0944 50.6619 91.4485C53.6389 94.5559 56.2227 98.0176 58.3553 101.755C60.8892 106.085 63.298 111.278 62.85 116.418C62.8024 116.965 63.1853 117.258 63.6879 117.371C66.7749 118.068 70.2709 118.834 72.8826 120.73C74.5928 121.971 75.4375 123.869 76.7368 125.466C79.4668 128.821 84.8315 130.111 88.6305 131.792C90.4315 132.589 92.8843 133.445 94.2126 134.983C94.4182 135.247 94.6047 135.525 94.7705 135.816C94.921 136.045 94.9506 136.301 94.8728 136.23C94.8085 136.171 95.4017 135.93 95.2358 135.941C92.5667 136.123 89.3386 136.622 86.3384 136.635C76.5817 136.677 66.8044 135.973 57.0896 135.13C50.7662 134.582 43.8258 134.527 37.7679 132.425C32.1309 130.388 26.6251 128.005 21.282 125.289C16.1088 122.739 10.4079 120.079 6.14648 116.106C5.09204 115.124 1.03519 116.435 2.23034 117.799C6.06341 122.174 10.6995 126.01 15.0405 129.857C21.9776 136.145 29.2868 142.01 36.9285 147.421C39.8823 149.561 43.0295 151.42 46.3291 152.975C50.2112 154.53 54.2657 155.615 58.4059 156.206C63.1519 156.888 67.836 157.947 72.4141 159.373C78.1008 161.404 83.2573 164.689 87.5013 168.985C91.2729 172.741 94.4259 177.125 97.7283 181.289C100.898 185.287 104.069 189.283 107.242 193.278C114.334 202.206 121.439 211.123 128.558 220.029C140.666 235.159 152.777 250.314 165.112 265.258C171.009 272.401 177.357 280.6 185.504 285.318C188.12 286.833 191.147 287.802 194.166 287.029C196.289 286.484 198.14 285.018 199.958 283.845C213.732 274.963 227.409 265.929 240.989 256.744C247.465 252.36 253.938 247.957 260.253 243.342C264.174 240.477 267.724 237.249 272.056 235.005C279.632 231.08 287.692 228.027 295.64 224.957C304.665 221.47 313.752 218.147 322.801 214.722C340.078 208.042 356.898 200.237 373.154 191.359C377.981 188.767 382.768 186.071 387.349 183.061C390.874 180.624 394.249 177.977 397.456 175.135C404.829 168.923 413.904 164.786 420.043 157.143C422.982 153.531 424.821 149.152 425.344 144.526C425.561 142.602 421.817 143.826 421.247 144.692C421.309 144.598 421.213 144.726 421.225 144.718C420.629 145.138 421.093 144.842 420.54 145.096C419.647 145.506 418.722 145.844 417.776 146.109C414.569 147.095 411.28 147.823 407.998 148.511C398.316 150.539 388.519 152.044 378.732 153.462C358.961 156.327 339.039 158.916 319.095 160.229C310.239 160.812 301.334 160.762 292.45 161.503C280.338 162.513 268.225 163.85 256.2 165.62C255.588 165.71 252.111 166.573 251.815 166.233C251.138 165.455 253.221 162.505 253.567 161.81C254.867 159.193 255.556 156.412 252.125 155.576C249 154.975 245.827 154.656 242.645 154.622C237.778 154.345 232.905 154.172 228.034 153.96C219.013 153.569 209.375 153.725 200.564 151.507C199.58 151.373 198.642 151.008 197.825 150.444C196.271 148.703 199.663 147.112 200.865 146.515C205.391 144.267 211.063 141.953 215.839 141.638C225.422 141.004 235.347 142.46 244.851 143.527C251.572 144.281 258.353 145.649 265.096 146.104C267.334 146.255 269.754 145.217 271.89 144.647C276.962 143.294 282.04 141.967 287.125 140.666C298.345 137.678 309.715 135.287 321.188 133.503C325.587 132.706 330.087 132.641 334.507 133.312C335.996 133.594 337.464 133.865 338.969 134.057C343.68 134.658 348.418 135.056 353.147 135.476C366.984 136.707 380.835 137.812 394.638 139.389C397.874 139.758 401.106 140.154 404.331 140.612C405.706 140.807 406.902 141.093 408.203 140.444C409.654 139.549 410.997 138.491 412.207 137.289C415.321 134.63 418.202 131.709 420.818 128.558C422.111 126.926 423.617 125.475 425.297 124.245C429.474 121.489 433.837 119.025 438.353 116.869C443.953 114.049 449.405 110.945 454.689 107.568C460.699 103.702 466.199 99.0962 471.061 93.8586C476.518 87.8544 480.711 80.868 486.178 74.8486C495.338 64.7614 506.424 56.8664 515.991 47.2412C518.867 44.3472 521.712 41.1204 522.942 37.1506C523.426 35.5859 519.168 36.1423 518.704 37.6428Z" fill="#1D1D1B"/>
<path d="M191.478 149.797C188.35 165.116 190.854 180.727 193.904 195.842C197.003 211.197 200.821 226.743 199.975 242.528C199.466 252.022 197.39 261.345 194.858 270.484L199.09 269.971C200.724 262.281 203.767 255.019 206.957 247.865C210.115 240.781 213.286 233.697 216.683 226.723C220.006 219.786 223.698 213.032 227.742 206.489C231.621 200.301 236.112 194.589 240.437 188.716C245.064 182.432 249.348 175.745 251.339 168.117C251.749 166.547 247.492 167.156 247.107 168.63C245.333 175.426 241.666 181.421 237.599 187.075C233.376 192.944 228.824 198.554 224.898 204.636C216.559 217.556 210.238 231.626 203.959 245.622C200.342 253.683 196.703 261.801 194.858 270.484C194.504 272.146 198.7 271.376 199.09 269.971C201.448 261.927 203.08 253.687 203.965 245.351C204.6 237.441 204.337 229.483 203.181 221.632C201.063 206.107 196.649 190.976 194.926 175.389C193.826 166.699 194.09 157.891 195.711 149.283C196.044 147.65 191.781 148.316 191.478 149.797Z" fill="#1D1D1B"/>
<path d="M442.621 92.7169C428.513 105.793 415.029 119.5 402.167 133.837C401.486 134.597 402.749 134.962 403.285 134.976C403.804 134.991 404.321 134.899 404.802 134.705C405.284 134.511 405.72 134.219 406.083 133.849C418.753 119.728 432.052 106.213 445.982 93.3033C446.623 92.7092 446.461 92.1105 445.61 91.9158C445.084 91.8334 444.546 91.8621 444.031 92.0001C443.516 92.138 443.036 92.3821 442.621 92.7169Z" fill="#1D1D1B"/>
<path d="M93.5753 140.535C103.895 147.73 111.872 157.802 116.511 169.496C121.737 182.739 121.159 197.33 125.802 210.718C128.072 217.266 131.599 223.513 137.051 227.918C137.463 228.2 137.945 228.364 138.444 228.39C138.942 228.417 139.439 228.307 139.879 228.071C140.35 227.859 141.757 226.828 140.955 226.18C130.193 217.482 127.833 203.094 125.865 190.218C124.792 183.192 123.658 176.152 121.163 169.465C116.45 156.849 107.98 145.981 96.8972 138.329C95.6087 137.436 91.7662 139.28 93.5753 140.535Z" fill="#1D1D1B"/>
<path d="M514.843 31.5249C513.72 32.1653 512.474 32.5583 511.186 32.6777C508.781 33.0977 506.331 33.3002 503.9 33.5047C498.228 33.9817 492.532 34.2381 486.88 34.9292C484.573 35.1696 482.285 35.5746 480.036 36.1414C477.951 36.7078 476.17 37.8871 474.121 38.5049C466.911 40.6793 458.541 39.2183 451.213 38.4287C441.154 37.3448 430.866 38.1575 420.869 39.5183C415.696 40.1088 410.586 41.1631 405.602 42.6685C402.823 43.5765 398.381 44.9764 397.182 48.0247C396.388 50.0423 398.065 52.0275 399.344 53.4219C401.802 55.9593 404.473 58.2804 407.33 60.3591C415.02 66.2718 423.13 71.6184 431.004 77.2781C434.385 79.7086 437.763 82.1704 440.935 84.8726C442.728 86.4 444.835 88.2547 445.746 90.2461C445.987 90.7715 445.901 90.7374 445.446 91.002C444.426 91.5152 443.353 91.9153 442.246 92.1956C437.934 93.2157 433.546 93.8825 429.127 94.1892C418.138 95.2379 407.092 95.5683 396.068 96.0391C384.61 96.4278 373.211 97.8464 362.007 100.278C358.17 101.12 354.391 102.208 350.694 103.535C348.279 104.418 346.015 105.701 343.592 106.528C339.106 108.058 334.165 108.466 329.478 108.912C317.266 110.073 304.981 110.258 292.729 110.695C286.865 110.904 281.019 111.257 275.182 111.865C269.056 112.503 262.879 113.43 257.169 115.841C254.932 116.786 252.878 118.069 250.568 118.847C247.528 119.837 244.409 120.561 241.244 121.013C234.21 122.214 227.031 122.309 219.968 121.295C217.487 120.888 215.09 120.191 212.584 119.92C209.849 119.655 207.101 119.54 204.354 119.575C198.133 119.585 191.914 120.05 185.724 120.636C180.219 121.157 174.729 121.811 169.242 122.485C167.616 122.685 165.988 122.92 164.356 123.062C160.696 123.315 157.072 122.194 154.194 119.918C152.69 118.783 151.346 117.45 150.198 115.956C149.277 114.502 148.279 113.099 147.208 111.752C145.476 109.97 143.11 109.508 140.712 109.501C137.449 109.49 134.236 109.991 131.017 109.171C129.001 108.657 127.197 107.625 125.251 106.924C116.882 103.91 107.907 102.274 99.2466 100.344C88.5013 97.9505 77.719 95.7024 67.0218 93.0979C63.3422 92.202 59.6299 91.313 56.0455 90.0794C55.5073 89.8941 54.9635 89.7087 54.4417 89.4802C54.3671 89.4475 53.8535 89.2463 54.1198 89.3201C51.8213 88.6832 54.3597 89.1963 53.3936 89.5747C53.5114 89.5286 53.447 89.22 53.4835 89.3718C53.5174 89.513 53.255 89.5559 53.4312 89.4871C53.563 89.4175 53.7054 89.3705 53.8527 89.3477C54.5345 89.2019 55.2254 89.1023 55.9206 89.0496C64.6306 88.3794 73.8059 90.2501 82.3547 91.7566C84.1339 92.0701 85.6428 92.509 87.4217 92.1172C91.326 91.2573 95.2209 90.3631 99.1368 89.5549C104.708 88.4052 110.305 87.3035 115.949 86.5752C120.109 86.0385 124.252 86.0707 128.379 85.251C139.987 82.9458 151.329 78.7595 162.403 74.6607C166.179 73.1683 170.055 71.944 174.003 70.9968C180.345 69.6081 186.777 68.6263 193.199 67.6909C199.94 66.709 206.696 65.8332 213.457 65C219.46 64.2601 225.66 63.3896 230.109 58.8753C233.285 55.6521 234.442 51.202 237.049 47.6055C237.593 46.8846 238.308 46.3098 239.129 45.9324C240.539 45.1871 241.992 44.527 243.481 43.9558C252.718 40.2576 262.506 37.7775 272.124 35.3035C281.537 32.8824 291.005 30.6244 300.531 28.6931C303.546 28.0819 306.915 28.1753 309.512 26.0886C313.395 22.9675 311.807 17.0029 310.736 12.9331C310.019 10.6612 309.437 8.34932 308.99 6.00929C308.81 4.72693 309.128 5.29 308.716 5.47145C308.615 5.51545 307.998 6.18708 308.193 5.9507C308.485 5.5966 307.788 6.04755 308.294 5.91139C308.573 5.83607 308.852 5.76648 309.133 5.69728C309.299 5.65655 309.467 5.62871 309.634 5.59425C310.183 5.48073 309.429 5.62438 309.758 5.56984C310.185 5.49897 310.613 5.43614 311.041 5.3777C316.389 4.64888 321.822 4.43613 327.209 4.20167C344.967 3.42875 362.757 3.30847 380.53 3.2234C398.978 3.1351 417.426 3.16838 435.874 3.32325C444.718 3.38663 453.624 3.1877 462.462 3.57911C471.421 3.97589 480.549 6.42235 489.23 8.48561C499.465 10.9184 509.803 13.5169 519.671 17.2068C521.049 17.6936 522.399 18.2586 523.713 18.8987C524.161 19.1249 524.595 19.3768 525.013 19.6531C525.356 19.8811 525.398 19.9322 525.413 19.9736C526.109 21.8191 522.932 24.5832 521.542 25.8318C519.238 27.9018 516.74 29.7433 514.474 31.8567C513.722 32.5578 514.191 33.4903 515 33.8215C515.524 33.9705 516.079 33.9748 516.606 33.8338C517.132 33.6927 517.61 33.4117 517.99 33.0205C520.349 30.8212 522.98 28.9311 525.347 26.7373C527.15 25.0662 529.509 22.8399 529.752 20.2246C530.012 17.4236 526.846 16.3764 524.763 15.4839C515.551 11.5378 505.528 9.13498 495.831 6.72584C483.238 3.59672 470.635 0.675762 457.636 0.534192C442.886 0.373526 428.135 0.270282 413.384 0.224622C393.641 0.164222 373.895 0.18966 354.154 0.50514C340.164 0.72867 325.887 0.565369 311.98 2.32765C310.392 2.47583 308.822 2.77336 307.291 3.21608C305.195 3.90069 304.433 4.91277 304.762 7.1421C305.483 12.0192 308.298 16.9794 307.598 22.0042C307.597 22.7585 307.309 23.4842 306.793 24.0342C306.277 24.5842 305.571 24.9173 304.818 24.9663C303.397 25.2348 301.973 25.477 300.554 25.76C291.118 27.6429 281.743 29.8783 272.421 32.2581C262.35 34.8292 252.194 37.4867 242.487 41.2442C239.795 42.2866 236.774 43.4012 234.569 45.3298C231.402 48.0995 230.422 52.7125 228.004 56.0496C224.275 61.1981 217.956 61.5091 212.15 62.2317C205.168 63.1007 198.191 64.0178 191.233 65.0608C184.888 66.0119 178.524 67.0095 172.266 68.44C168.137 69.5103 164.082 70.8474 160.126 72.4429C154.418 74.5481 148.661 76.5197 142.857 78.3574C137.36 80.2414 131.73 81.7145 126.015 82.7644C121.659 83.4471 117.218 83.4161 112.838 84.1013C107.148 84.9914 101.494 86.1119 95.8616 87.3057C93.6479 87.7748 91.4372 88.2582 89.2295 88.7559C88.8193 88.8483 86.3054 89.0907 86.1023 89.4727C86.359 88.9899 87.6038 89.6546 86.8547 89.335C86.4494 89.2156 86.0329 89.1379 85.6119 89.103C84.018 88.8104 82.4215 88.5327 80.8223 88.27C76.0618 87.485 71.2778 86.7981 66.4717 86.3606C62.288 85.9798 57.7657 85.5303 53.6194 86.4497C52.1776 86.6618 50.8462 87.3438 49.8318 88.3902C48.3974 90.1849 50.0418 91.3791 51.712 92.1328C54.6648 93.3214 57.7132 94.2573 60.8243 94.9304C71.3989 97.6571 82.1078 99.8669 92.7695 102.22C102.225 104.308 111.844 106.186 121.084 109.119C122.15 109.458 123.701 110.013 124.433 110.339C127.692 111.873 131.25 112.67 134.853 112.671C137.241 112.661 140.576 111.784 142.732 113.128C144.008 113.922 144.633 115.422 145.456 116.613C146.559 118.208 147.847 119.666 149.294 120.957C151.488 122.932 154.092 124.395 156.919 125.241C159.747 126.088 162.726 126.297 165.644 125.853C170.534 125.28 175.416 124.648 180.312 124.123C186.728 123.435 193.166 122.858 199.617 122.638C204.833 122.459 210.151 122.423 215.258 123.621C222.223 125.086 229.38 125.398 236.446 124.545C242.56 123.938 249.065 122.93 254.691 120.329C257.018 119.116 259.424 118.062 261.893 117.173C264.945 116.272 268.067 115.631 271.227 115.258C277.402 114.449 283.633 114.016 289.855 113.768C302.176 113.277 314.519 113.127 326.813 112.094C332.074 111.773 337.301 111.023 342.44 109.849C344.402 109.319 346.309 108.603 348.134 107.711C351.641 106.138 355.282 104.883 359.014 103.963C370.789 101.056 382.84 99.409 394.963 99.0496C406.136 98.5654 417.33 98.2425 428.468 97.1934C433.079 96.844 437.659 96.1707 442.175 95.1785C444.645 94.5873 448.471 93.7042 449.777 91.2117C450.772 89.3134 449.165 87.3448 447.942 85.9971C445.456 83.4221 442.742 81.0775 439.833 78.992C432.068 73.0695 423.901 67.6954 415.989 61.9758C412.518 59.467 409.046 56.9223 405.824 54.0957C404.213 52.6822 401.789 50.7195 401.271 48.6819C401.165 48.2643 401.417 47.8868 402.308 47.2581C403.805 46.3212 405.44 45.6247 407.153 45.1936C412.412 43.7062 417.791 42.6868 423.23 42.147C428.809 41.4848 434.428 41.0576 440.046 40.9443C445.324 40.838 450.463 41.5389 455.715 42.0056C462.71 42.6275 470.715 43.3224 477.32 40.3938C481.557 38.5148 485.719 37.9275 490.352 37.5027C495.821 37.0012 501.313 36.7551 506.776 36.1795C510.117 35.8275 514.926 35.6866 517.62 33.3523C519.783 31.4789 516.398 30.1783 514.843 31.5249Z" fill="#1D1D1B"/>
<path d="M94.8295 136.495C94.7805 136.67 94.8352 136.791 94.8494 136.541C94.8378 136.746 94.8419 136.563 94.8953 136.521C94.5954 136.759 95.3172 136.293 94.9418 136.49C95.7996 136.039 94.3468 136.594 95.3572 136.338C95.1816 136.382 95.0013 136.428 94.8278 136.48C95.2457 136.355 95.0681 136.439 94.6727 136.505C94.4637 136.539 94.2552 136.575 94.0456 136.606C93.911 136.626 93.7761 136.643 93.6413 136.661C93.2315 136.718 94.0562 136.62 93.5953 136.667C90.9124 136.913 88.2183 137.017 85.5244 136.98C77.9916 136.941 70.4574 136.479 62.9486 135.908C56.6322 135.427 50.3073 134.883 44.0252 134.058C43.5282 133.993 43.0316 133.925 42.5355 133.853C41.9191 133.762 42.1794 133.806 41.6119 133.707C40.8384 133.568 40.0751 133.378 39.3269 133.138C36.0195 132.038 32.7723 130.765 29.5988 129.325C25.3997 127.493 21.2569 125.519 17.2123 123.367C13.7916 121.656 10.5331 119.637 7.477 117.337C6.35118 116.443 4.46327 115.037 4.70319 113.466C4.75259 113.143 4.74786 113.218 5.04938 112.985C4.66487 113.282 5.0924 112.955 5.17976 112.91C5.49011 112.75 4.83472 113.168 5.12165 112.947C5.20984 112.889 5.30545 112.844 5.40583 112.812C4.74027 112.992 5.45457 112.814 5.62104 112.751C5.90104 112.645 5.04563 112.902 5.48908 112.796C5.61872 112.764 5.74845 112.725 5.87702 112.69C5.9668 112.665 6.05808 112.646 6.14826 112.623C6.64231 112.496 5.63428 112.72 6.15107 112.622C6.46036 112.564 6.76894 112.505 7.07978 112.455C7.35797 112.411 7.63688 112.372 7.91608 112.335C8.49585 112.257 7.50289 112.377 8.09968 112.313C8.28395 112.293 8.4682 112.274 8.65266 112.256C9.37796 112.187 10.105 112.136 10.8326 112.097C18.4843 111.85 26.1438 112.157 33.7512 113.016C41.4716 113.728 49.1836 114.655 56.8398 115.882C60.1101 116.319 63.3471 116.977 66.5285 117.852C68.7441 118.399 70.853 119.312 72.7683 120.553C73.8943 121.459 74.8555 122.552 75.6092 123.786C76.3485 125.032 77.344 126.107 78.5297 126.94C80.0652 127.87 81.6726 128.677 83.3365 129.351C86.646 130.798 90.3553 131.942 93.2873 134.109C93.9932 134.631 95.0435 135.477 94.8295 136.495C94.6054 137.56 98.7755 136.905 99.0102 135.789C99.6215 132.883 94.8176 131.132 92.8518 130.244C89.3148 128.645 85.3816 127.461 82.1679 125.238C80.9903 124.272 79.9973 123.101 79.2374 121.781C78.3966 120.501 77.296 119.413 76.0068 118.587C72.3908 116.396 68.0143 115.52 63.9018 114.781C56.2596 113.406 48.5376 112.422 40.8168 111.615C32.3341 110.613 23.7978 110.133 15.2563 110.177C12.1117 110.165 8.97464 110.487 5.89765 111.135C4.21572 111.531 1.19904 112.285 0.522529 114.172C-0.061401 115.801 1.91748 117.498 3.03327 118.433C4.42748 119.569 5.89994 120.605 7.43964 121.534C11.4067 123.95 15.5051 126.143 19.716 128.103C23.7063 130.009 27.7557 131.809 31.8773 133.413C34.0072 134.327 36.2258 135.019 38.4979 135.477C44.3995 136.457 50.4068 136.929 56.3635 137.428C64.3111 138.094 72.2829 138.625 80.2585 138.778C83.52 138.84 86.7956 138.862 90.0522 138.645C92.5508 138.619 95.0231 138.131 97.3439 137.205C97.9229 136.93 98.8181 136.476 99.0102 135.789C99.286 134.802 95.1465 135.36 94.8295 136.495Z" fill="#1D1D1B"/>
<path d="M421.157 144.788C421.147 144.927 421.126 145.064 421.093 145.199C421.114 145.115 421.177 144.968 421.155 145.108C421.145 145.173 420.972 145.286 420.924 145.327C421.448 144.882 420.114 145.757 420.852 145.376C420.547 145.534 420.239 145.677 419.929 145.823C420.257 145.669 420.153 145.736 419.796 145.873C419.584 145.955 419.371 146.036 419.158 146.113C418.944 146.191 418.73 146.265 418.515 146.338C418.36 146.39 417.645 146.62 417.98 146.515C418.319 146.408 417.597 146.63 417.445 146.675C417.156 146.761 416.867 146.845 416.577 146.926C415.311 147.283 414.035 147.605 412.755 147.91C412.03 148.083 411.304 148.25 410.576 148.411C410.469 148.435 410.829 148.357 410.412 148.447C410.225 148.488 410.039 148.529 409.852 148.569C409.437 148.658 409.023 148.746 408.608 148.833C406.893 149.191 405.175 149.532 403.453 149.856C399.541 150.597 395.616 151.272 391.686 151.911C382.714 153.37 373.712 154.647 364.699 155.822C355.987 156.958 347.263 157.985 338.524 158.904C331.804 159.606 325.072 160.268 318.327 160.669C317.193 160.736 316.059 160.795 314.924 160.833C314.46 160.848 313.996 160.86 313.532 160.867C314.04 160.859 313.494 160.866 313.305 160.866C312.927 160.865 312.549 160.863 312.171 160.864C307.177 160.88 302.186 161.166 297.206 161.531C286.194 162.34 275.207 163.549 264.256 164.954C260.745 165.404 257.233 165.862 253.74 166.431C253.249 166.551 252.745 166.604 252.241 166.589C251.879 166.463 251.708 166.214 251.727 165.712C251.777 164.381 252.874 162.919 253.467 161.776C254.44 159.903 255.866 156.921 253.043 156.054C250.807 155.512 248.518 155.219 246.217 155.181C238.246 154.605 230.247 154.44 222.267 154.034C218.091 153.821 213.915 153.574 209.753 153.172C206.7 152.954 203.669 152.489 200.691 151.783C199.201 151.39 196.491 150.644 197.639 148.545C198.586 146.811 201.154 145.879 202.851 145.16C205.695 143.955 208.649 143.005 211.585 142.053C211.933 141.939 212.282 141.826 212.632 141.714C212.837 141.647 213.222 141.523 213.064 141.572C213.162 141.554 213.259 141.528 213.353 141.493C213.711 141.296 212.958 141.554 213.264 141.513C213.506 141.48 213.748 141.43 213.99 141.392C214.361 141.334 213.612 141.43 214.002 141.391C214.169 141.374 214.336 141.356 214.504 141.341C215.875 141.224 217.251 141.176 218.627 141.199C222.587 141.226 226.545 141.49 230.49 141.807C239 142.488 247.486 143.478 255.952 144.571C258.548 144.907 261.141 145.255 263.733 145.617C263.897 145.64 264.06 145.663 264.224 145.686C264.487 145.723 264.638 145.745 264.313 145.699C264.431 145.716 264.55 145.738 264.669 145.75C265.598 145.805 266.529 145.681 267.412 145.386C274.579 143.45 281.76 141.568 288.955 139.74C293.254 138.654 297.558 137.586 301.885 136.616C302.391 136.503 302.193 136.546 302.811 136.413C303.237 136.321 303.664 136.231 304.091 136.143C304.799 135.997 305.508 135.857 306.22 135.73C309.043 135.228 311.864 134.713 314.682 134.183C321.399 132.912 328.249 131.745 335.034 133.164C337.757 133.664 340.503 134.022 343.262 134.235C353.551 135.283 363.865 136.071 374.163 137.014C385.599 138.06 397.086 139.079 408.423 140.948C411.418 141.394 414.385 142.014 417.308 142.808C418.347 143.108 420.722 143.578 421.157 144.788C421.531 145.83 425.71 144.561 425.385 143.655C424.823 142.09 422.136 141.52 420.77 141.126C417.243 140.181 413.659 139.462 410.04 138.972C403.899 138.021 397.72 137.31 391.542 136.657C378.805 135.312 366.039 134.292 353.284 133.141C349.072 132.761 344.85 132.4 340.656 131.84C339.33 131.664 337.356 131.206 335.772 130.99C331.805 130.537 327.796 130.599 323.844 131.173C317.525 131.956 311.188 133.199 304.949 134.478C300.206 135.451 295.5 136.614 290.803 137.788C282.745 139.803 274.659 141.808 266.672 144.091C266.522 144.134 266.371 144.172 266.221 144.213L268.139 144.069C259.254 142.782 250.342 141.682 241.404 140.771C235.191 140.139 228.95 139.565 222.704 139.432C220.382 139.343 218.058 139.407 215.745 139.623C212.58 140.142 209.483 141.007 206.507 142.201C202.591 143.541 198.192 144.932 194.942 147.598C193.557 148.735 192.259 150.817 194.09 152.192C195.377 152.986 196.814 153.507 198.31 153.724C200.645 154.206 203.003 154.562 205.375 154.79C217.46 156.104 229.646 156.099 241.769 156.852C243.801 156.978 245.841 157.111 247.859 157.388C247.859 157.388 248.291 157.452 248.627 157.515C248.909 157.569 249.193 157.625 249.47 157.704C249.655 157.757 250.08 157.967 249.832 157.814C250.043 157.922 250.222 158.083 250.351 158.282C251.852 160.825 244.003 168.003 249.625 168.392C251.993 168.556 254.601 167.813 256.948 167.479C259.991 167.047 263.039 166.644 266.092 166.271C274.222 165.265 282.37 164.386 290.533 163.692C297.387 163.11 304.234 162.711 311.111 162.65C314.887 162.616 318.66 162.326 322.421 162.023C334.544 161.046 346.636 159.652 358.701 158.137C371.822 156.49 384.933 154.666 397.958 152.366C403.121 151.454 408.279 150.47 413.378 149.244C416.733 148.585 419.999 147.534 423.109 146.114C424.231 145.54 425.274 144.987 425.385 143.655C425.438 143.016 421.266 143.481 421.157 144.788Z" fill="#1D1D1B"/>
</svg>
