<svg width="405" height="184" viewBox="0 0 405 184" fill="none" xmlns="http://www.w3.org/2000/svg">
<path d="M25.9784 82.6909C32.9599 98.1227 65.9929 121.018 65.9929 121.018C70.5189 128.482 75.643 135.566 81.3145 142.201C90.4514 152.807 140.142 165.995 140.142 165.995C140.142 165.995 164.038 175.338 177.462 180.809C190.886 186.28 204.052 174.047 215.883 177.583C219.282 178.506 222.398 180.261 224.95 182.689H224.973C241.536 177.386 259.646 171.802 266.651 171.802C279.536 171.802 286.33 171.382 295.725 173.514C298.275 174.013 300.902 173.965 303.432 173.374C304.07 172.829 304.616 172.185 305.049 171.466C312.569 158.615 320.089 154.744 328.43 150.254C336.746 145.737 348.554 115.827 354.481 107.129C360.385 98.4594 369.779 85.2721 381.329 78.8188C389.342 74.3576 396.885 63.4431 400.727 57.1863C393.699 63.836 375.074 69.7842 368.35 75.7324C360.104 82.9995 344.009 79.5764 344.009 79.5764L322.877 84.2903C322.877 84.2903 306.033 77.4441 301.019 79.9973C296.006 82.5786 304.252 90.2946 301.745 93.3811C299.239 96.4674 268.431 92.0062 258.404 92.876C248.377 93.7458 244.441 93.7458 238.702 91.1643C232.985 88.583 226.168 90.2944 220.451 90.2944C214.712 90.2944 197.891 88.5831 196.438 83.4485C195.009 78.2859 229.401 63.2749 226.519 53.4268C223.661 43.5503 147.029 55.1382 138.783 57.7195C130.56 60.2727 120.884 57.7194 103.688 57.2705C86.4921 56.8496 65.009 62.854 65.009 62.854C65.009 62.854 51.0461 61.1425 47.4617 59.8518C43.8774 58.5611 31.7183 51.7149 24.9009 52.5566C18.1068 53.4266 5.57307 46.1316 2.34004 37.5459C1.00459 49.6669 18.997 67.2591 25.9784 82.6909Z" fill="#F7FBFD"/>
<path d="M44.2519 21.2441C52.1237 17.4002 108.701 12.6585 116.597 11.8168C124.468 10.947 195.009 0.649653 207.543 1.94037C220.077 3.23109 248.729 8.39374 248.729 8.39374C248.729 8.39374 254.468 6.65414 257.678 5.81244C260.911 4.94265 271.664 8.39374 281.316 8.39374C290.992 8.39374 321.799 14.819 321.799 14.819C321.799 14.819 344.712 28.539 348.648 32.832C352.583 37.1247 404.054 45.2897 403.445 52.5566C403.445 52.5847 403.445 52.5846 403.421 52.6127C403.106 54.413 402.149 56.038 400.727 57.1862C393.699 63.8359 375.074 69.7841 368.35 75.7324C360.104 82.9994 344.009 79.5764 344.009 79.5764L322.877 84.2902C322.877 84.2902 306.033 77.4441 301.019 79.9973C296.006 82.5785 304.252 90.2946 301.745 93.3811C299.239 96.4673 268.431 92.0061 258.404 92.8759C248.377 93.7457 244.441 93.7457 238.702 91.1643C232.985 88.583 226.168 90.2944 220.451 90.2944C214.712 90.2944 197.891 88.5831 196.438 83.4484C195.009 78.2859 229.401 63.2749 226.519 53.4267C223.661 43.5503 147.029 55.1382 138.783 57.7194C130.559 60.2726 120.884 57.7193 103.688 57.2705C86.4921 56.8495 65.0089 62.8539 65.0089 62.8539C65.0089 62.8539 51.046 61.1425 47.4616 59.8517C43.8773 58.561 31.7182 51.7149 24.9008 52.5566C18.1067 53.4266 5.57297 46.1315 2.33994 37.5458C-0.893089 28.9602 36.3568 25.1161 44.2519 21.2441Z" fill="#3BCBA4"/>
<path d="M143.087 58.8275C144.43 58.8867 193.852 54.0615 192.509 66.9288C191.166 79.7961 187.137 105.531 190.629 113.894C194.12 122.258 212.073 171.508 211.959 169.857C211.844 168.205 204.472 113.571 204.472 113.571C204.472 113.571 195.039 83.7283 196.985 81.6666C198.931 79.6049 206.027 71.8255 211.959 68.859C217.891 65.8925 231.522 58.2607 226.52 53.4269C221.517 48.593 198.952 49.802 198.148 49.8487C197.344 49.8955 143.087 58.8275 143.087 58.8275Z" fill="#071462"/>
<path d="M128.579 60.1705C128.323 60.5833 123.039 67.3651 125.07 78.1144C127.1 88.8637 135.029 121.534 135.566 124.905C136.103 128.275 138.381 145.419 138.381 145.419L124.606 112.889C124.606 112.889 116.644 98.2068 113.625 93.0138C110.607 87.8207 104.997 79.7247 104.997 79.7247C104.997 79.7247 84.6994 65.2802 68.6343 61.9227C68.6343 61.9227 86.3271 60.3843 95.0075 58.8275C103.688 57.2707 120.793 60.4952 122.673 60.4952C124.553 60.4952 128.579 60.1705 128.579 60.1705Z" fill="#071462"/>
<path d="M300.75 93.936C299.943 94.0461 295.65 114.216 287.592 137.699C279.534 161.182 298.336 133.195 298.336 133.195L315.526 99.0969C315.526 99.0969 328.419 92.3417 340.506 91.0549C352.593 89.7682 372.901 85.7483 381.329 78.8188C389.757 71.8894 399.279 58.425 399.279 58.425C399.279 58.425 382.944 66.6069 377.304 69.8237C371.663 73.0406 365.508 80.8575 359.051 79.8442C353.541 79.0034 347.933 79.0318 342.432 79.9282L322.877 84.2903C322.877 84.2903 305.583 75.6951 301.019 79.9973C296.456 84.2995 301.678 89.4292 301.678 89.4292C301.678 89.4292 304.388 93.4402 300.75 93.936Z" fill="#071462"/>
<path d="M24.6958 83.0347C27.6358 89.3982 32.8616 94.7271 37.8398 99.5342C43.4141 104.845 49.2754 109.846 55.3973 114.515C57.5384 116.171 59.7029 117.796 61.8908 119.39C62.9023 119.999 63.8644 120.687 64.7684 121.447C64.7737 121.452 65.3603 122.44 65.5522 122.75C66.4149 124.145 67.3024 125.525 68.2148 126.889C71.142 131.285 74.2683 135.554 77.6027 139.65C79.433 142.091 81.6344 144.229 84.1269 145.988C86.6642 147.624 89.3169 149.075 92.0641 150.327C98.5779 153.32 105.25 155.955 112.051 158.22C118.327 160.381 124.663 162.367 131.034 164.229C133.705 165.01 136.455 165.631 139.097 166.502C144.193 168.181 149.167 170.453 154.154 172.423C158.379 174.091 162.601 175.767 166.82 177.45C170.804 179.042 174.862 181.135 179.033 182.165C188.606 184.529 197.479 179.453 206.677 177.829C209.249 177.375 211.886 177.443 214.431 178.03C216.976 178.617 219.377 179.71 221.49 181.245C222.862 182.213 223.496 183.503 225.252 183.047C228.241 182.272 231.183 181.155 234.132 180.235C239.742 178.485 245.369 176.776 251.045 175.25C255.265 173.992 259.575 173.061 263.938 172.464C268.746 171.942 273.797 172.257 278.633 172.321C283.271 172.322 287.899 172.734 292.464 173.554C294.811 174.132 297.225 174.398 299.642 174.346C301.848 174.2 304.028 174.107 305.527 172.341C307.25 170.311 308.414 167.758 310.014 165.612C311.573 163.504 313.312 161.535 315.209 159.727C318.35 156.857 321.837 154.39 325.588 152.383C328.299 150.869 330.825 149.66 332.913 147.308C337.77 141.837 341.12 134.924 344.429 128.462C347.815 121.848 350.847 114.984 354.671 108.605C359.342 100.834 364.967 93.6774 371.414 87.3013C375.189 83.7943 379.314 80.6827 383.722 78.0149C387.852 75.1436 391.502 71.6373 394.537 67.626C397.239 64.2287 399.729 60.6682 401.993 56.9644C402.293 56.4784 399.866 56.9962 399.564 57.2754C395.492 61.0404 390.15 63.4151 385.211 65.804C380.176 68.2395 374.97 70.5 370.259 73.542C368.161 74.897 366.396 76.7313 364.138 77.8277C361.561 78.9884 358.786 79.6444 355.962 79.7601C352.371 79.8699 348.778 79.6509 345.228 79.1058C343.372 78.8989 341.155 79.7769 339.366 80.1761L327.462 82.8316C326.135 83.1276 324.792 83.3849 323.475 83.721C323.32 83.7605 322.897 83.7656 322.776 83.8768C324.753 82.0612 324.155 84.1229 323.765 83.72C323.661 83.6126 323.347 83.5642 323.214 83.504C319.627 81.9786 315.908 80.7865 312.103 79.9427C308.531 79.0773 304.184 78.1248 300.65 79.6487C296.349 81.503 298.727 85.7057 300.032 88.8594C300.464 89.9044 301.716 92.5699 300.515 93.554C299.998 93.9775 298.242 93.8826 297.514 93.9136C293.069 94.0019 288.623 93.8495 284.194 93.4571C274.8 92.8361 265.464 91.8728 256.055 92.5857C253.08 92.893 250.084 92.9391 247.101 92.7234C244.509 92.3929 241.98 91.6747 239.601 90.5933C233.44 88.027 226.851 89.8932 220.445 89.7503C215.836 89.6524 211.249 89.08 206.756 88.0423C204.54 87.5248 197.411 86.0436 197.683 82.6453C197.854 80.5204 201.362 78.4197 202.837 77.325C206.266 74.7802 209.853 72.4553 213.349 70.0044C216.801 67.6905 220.073 65.1182 223.136 62.3094C225.185 60.3484 227.676 57.779 227.947 54.794C228.346 50.395 222.364 49.8169 219.221 49.4385C211.9 48.557 204.383 48.9557 197.046 49.4166C187.992 49.9853 178.963 50.9467 169.966 52.094C162.394 53.0596 154.832 54.1453 147.316 55.4839C141.877 56.4527 136.442 58.301 130.903 58.3038C124.989 58.3067 119.081 57.5392 113.187 57.1468C106.097 56.5934 98.9729 56.6555 91.8939 57.3323C85.7556 58.0059 79.6581 59.01 73.6279 60.3397C71.6135 60.7767 69.6044 61.2386 67.6045 61.7378C67.3405 61.8038 65.02 62.1574 64.9213 62.4363C65.0805 61.9863 66.4274 62.4788 65.1633 62.2354C64.366 62.0819 63.5381 62.0252 62.7336 61.9161C60.384 61.5974 58.0367 61.2581 55.6969 60.8738C51.8236 60.3039 48.0505 59.1888 44.4896 57.5618C39.6776 55.338 34.6489 52.9285 29.3569 52.1512C27.1752 51.8307 25.0162 52.2813 22.8531 51.9644C20.2043 51.5054 17.657 50.5833 15.3281 49.2405C10.419 46.5577 5.72362 42.5064 3.62249 37.2022C3.3749 36.5772 1.11441 37.277 1.05743 37.8895C0.342867 45.5696 5.73794 53.1609 9.75817 59.2208C14.9255 67.0097 20.7767 74.4995 24.6959 83.0347C24.9884 83.6718 27.4736 82.8108 27.2609 82.3475C23.3418 73.8123 17.4906 66.3224 12.3232 58.5335C8.30266 52.4731 2.9079 44.8827 3.62249 37.2022L1.05743 37.8895C3.12322 43.1045 7.66614 47.1451 12.4512 49.8643C14.7043 51.1864 17.1418 52.1658 19.6833 52.7701C21.8879 53.2571 23.9267 52.9136 26.1323 53.0467C31.7496 53.3856 37.2543 56.2138 42.2743 58.5357C45.727 60.1294 49.3861 61.2309 53.1447 61.8084C56.6889 62.4006 60.5162 63.3187 64.1217 63.3809C66.377 63.4198 68.957 62.2689 71.124 61.7708C77.1922 60.3531 83.3341 59.2715 89.5217 58.5308C96.943 57.7466 104.421 57.6483 111.86 58.2371C117.79 58.6387 123.738 59.4128 129.688 59.3702C133.145 59.2859 136.579 58.7758 139.911 57.8514C145.249 56.4999 150.898 55.733 156.378 54.899C173.705 52.2623 191.419 49.9217 208.977 50.0435C212.232 50.01 215.485 50.2179 218.709 50.6653C220.583 50.9593 222.91 51.3107 224.408 52.5916C226.095 54.0344 225.339 56.5319 224.39 58.1917C222.501 61.4935 219.226 64.0536 216.264 66.3418C212.684 69.1078 208.908 71.6097 205.183 74.1741C202.206 76.0377 199.411 78.1783 196.837 80.5672C195.223 82.2076 194.435 83.7892 196.363 85.585C199.454 88.4634 204.811 89.2168 208.793 89.8533C213.286 90.6418 217.852 90.9378 222.41 90.7361C226.311 90.5018 230.285 89.8826 234.17 90.6021C236.978 91.1221 239.473 92.6202 242.253 93.2754C247.646 94.5467 253.211 93.6561 258.656 93.3487C262.983 93.2246 267.314 93.3642 271.624 93.7671C276.787 94.1087 281.945 94.5281 287.112 94.8016C291.005 95.1509 294.921 95.1411 298.812 94.7718C301.219 94.4502 303.921 93.729 303.437 90.7388C303.06 88.4089 298.177 81.2813 302.196 80.0472C304.099 79.4627 306.844 80.252 308.712 80.6556C311.043 81.1744 313.346 81.8104 315.613 82.5608C317.309 83.1105 318.99 83.7032 320.657 84.3387C321.377 84.7251 322.208 84.8514 323.011 84.6966C329.459 83.4926 335.854 81.8317 342.257 80.4034C342.73 80.2977 343.216 80.2137 343.683 80.085C344.715 79.8013 343.12 80.1526 343.052 80.1001C343.656 80.5663 345.475 80.4919 346.201 80.5779C350.829 81.1914 355.527 81.0194 360.097 80.0691C362.581 79.55 364.965 78.6354 367.158 77.3602C369.213 76.1227 370.935 74.4231 372.987 73.1609C378.073 70.0331 383.63 67.6972 388.973 65.056C393.464 62.8361 398.18 60.5282 401.89 57.0972L399.461 57.4085C396.53 62.2776 393.159 66.8677 389.39 71.1214C387.381 73.4083 385.133 75.4741 382.684 77.2835C380.298 78.99 377.674 80.3018 375.321 82.0733C366.406 88.7851 359.542 97.9793 353.348 107.156C348.74 113.984 345.531 121.821 341.781 129.132C339.611 133.363 337.381 137.579 334.845 141.606C333.021 144.502 330.963 147.873 328.065 149.828C326.146 151.122 323.95 152.068 321.951 153.24C319.686 154.551 317.519 156.026 315.469 157.653C313.073 159.586 310.888 161.767 308.952 164.159C307.951 165.389 307.008 166.666 306.117 167.978C304.868 169.818 303.898 171.928 302.269 173.463L303.667 172.886C301.305 173.389 298.866 173.41 296.496 172.948C294.799 172.587 293.101 172.257 291.382 172.013C288.532 171.62 285.662 171.385 282.785 171.307C279.263 171.197 275.737 171.236 272.214 171.254C269.393 171.172 266.57 171.275 263.763 171.565C257.341 172.62 251.004 174.141 244.803 176.117C240.81 177.277 236.834 178.496 232.866 179.739C231.009 180.321 229.153 180.907 227.298 181.498C226.836 181.646 226.374 181.801 225.909 181.941C224.693 182.307 225.82 181.917 225.828 181.93C225.282 181.302 224.631 180.772 223.905 180.363C218.564 176.582 212.351 175.761 206.063 177.062C199.327 178.456 192.817 181.676 185.844 181.706C179.549 181.734 173.391 178.223 167.656 175.936C162.03 173.692 156.398 171.462 150.761 169.246C146.543 167.47 142.236 165.911 137.859 164.574C129.821 162.32 121.835 159.862 113.945 157.138C104.895 154.015 95.4776 150.743 87.3313 145.616C82.7604 142.739 79.6758 138.496 76.4543 134.214C74.3388 131.403 72.3118 128.527 70.3733 125.588C69.3819 124.085 68.5367 122.372 67.4378 120.948C66.4177 119.911 65.2625 119.016 64.0033 118.288C60.6263 115.823 57.3058 113.283 54.0419 110.667C45.5859 103.89 36.8781 96.6061 30.4983 87.763C29.248 86.0659 28.1639 84.2522 27.2609 82.3475C26.9664 81.7098 24.4827 82.5734 24.6958 83.0347Z" fill="#1D1D1B"/>
<path d="M195.702 82.8582C201.93 105.012 206.349 127.635 208.916 150.504C209.653 157.055 210.24 163.621 210.676 170.2C210.738 171.126 213.312 170.571 213.241 169.513C211.715 146.475 208.334 123.598 203.13 101.104C201.656 94.7559 200.036 88.4449 198.267 82.171C197.992 81.1947 195.428 81.8838 195.702 82.8582Z" fill="#1D1D1B"/>
<path d="M128.462 58.4664C125.561 61.9546 124.521 66.9157 123.998 71.3072C123.449 76.6387 123.885 82.0258 125.286 87.1993C126.889 93.6193 128.913 99.9218 130.459 106.36C131.991 112.746 133.289 119.181 134.353 125.667C135.579 133.135 136.495 140.644 137.099 148.195L139.664 147.508C135.774 132.327 129.086 118.101 121.571 104.409C117.846 97.6232 114.102 90.7631 109.952 84.2259C108.054 81.0547 105.574 78.2704 102.643 76.0196C99.4649 73.8699 96.1308 71.9605 92.6683 70.3072C84.9123 66.2562 76.6765 62.455 67.7756 62.2154C67.1931 62.1997 66.3529 62.3743 66.1029 62.992C66.056 63.113 66.0404 63.244 66.0576 63.3726C66.0748 63.5013 66.1244 63.6235 66.2016 63.7278C66.2788 63.8322 66.3811 63.9154 66.4991 63.9695C66.617 64.0237 66.7468 64.0469 66.8763 64.0374C74.6799 64.2475 81.9679 67.3156 88.8293 70.806C92.2078 72.5246 95.6515 74.238 98.8613 76.2601C102.017 78.2727 104.71 80.9318 106.762 84.0618C108.819 87.1056 110.587 90.3494 112.424 93.5272C114.317 96.7987 116.196 100.078 118.033 103.38C121.727 110.018 125.256 116.753 128.372 123.683C131.978 131.589 134.898 139.789 137.098 148.195C137.405 149.391 139.757 148.659 139.664 147.508C138.622 134.529 136.658 121.64 133.786 108.94C132.382 102.754 130.685 96.6581 128.946 90.5601C127.396 85.1254 126.049 79.5873 126.351 73.8963C126.608 69.0582 127.389 63.0486 130.6 59.1885C131.63 57.9492 129.189 57.5927 128.462 58.4664H128.462Z" fill="#1D1D1B"/>
<path d="M1.05749 37.8894C4.62349 46.8839 15.5315 53.8561 25.1406 53.3147C30.4076 53.0179 35.9307 55.778 40.598 57.8989C43.8482 59.5517 47.2899 60.7972 50.8451 61.6069C54.9768 62.3927 59.1526 62.9688 63.3229 63.5065C65.1817 63.7463 66.694 63.1794 68.511 62.7329C79.9127 59.9307 91.8206 57.7735 103.598 58.0871C110.288 58.2653 116.939 58.9254 123.61 59.3913C128.156 59.7087 132.796 59.9081 137.274 58.904C141.887 57.8698 146.437 56.8243 151.116 56.0537C167.618 53.2145 184.274 51.3571 200.997 50.4914C207.458 50.2047 214.365 49.8288 220.731 51.2458C222.115 51.554 224.221 51.9866 225.032 53.3208C226.294 55.3957 224.431 58.1863 223.157 59.7529C218.029 66.0599 210.307 70.2863 203.732 74.8855C201.08 76.5444 198.634 78.5115 196.445 80.746C194.83 82.5878 194.711 84.2886 196.726 85.9585C199.953 88.6325 204.886 89.4263 208.886 90.0788C213.165 90.8433 217.511 91.1701 221.857 91.0542C225.384 90.9038 228.907 90.355 232.443 90.612C235.658 90.8457 238.289 92.3017 241.306 93.2026C246.417 94.7288 251.894 94.2057 257.125 93.7692C266.052 93.0244 275.16 94.3065 284.069 94.8735C288.337 95.2267 292.621 95.3477 296.902 95.236C298.892 95.1459 302.211 95.1086 303.234 92.9941C304.825 89.7068 300.757 85.8798 300.67 82.5869C300.557 78.302 308.686 80.7995 310.897 81.3598C314.529 82.2805 318.002 83.588 321.531 84.8222C323.118 85.3773 325.003 84.592 326.598 84.2363L338.197 81.6489L342.747 80.6337C343.147 80.583 343.541 80.4952 343.924 80.3713C344.615 80.062 343.084 80.2056 343.408 80.3708C344.477 80.7032 345.59 80.8708 346.71 80.8679C348.743 81.1046 350.79 81.2097 352.836 81.1823C357.697 81.1126 362.767 80.3182 366.99 77.771C368.998 76.5597 370.682 74.8988 372.682 73.6572C374.988 72.2254 377.418 70.9997 379.852 69.8022C385.046 67.2465 390.357 64.8967 395.373 61.9963C398.631 60.1121 404.881 56.6293 404.736 52.196C404.677 50.394 402.683 49.2144 401.297 48.4328C395.071 44.9203 387.604 43.2433 380.759 41.4118C372.844 39.2938 364.838 37.4825 356.979 35.1606C354.812 34.5204 352.221 33.9636 350.316 32.6782C348.208 31.2552 346.26 29.2715 344.122 27.7658C337.574 23.1533 330.729 18.9423 323.878 14.7976C322.903 14.2203 321.824 13.8392 320.703 13.676C317.257 12.9763 313.806 12.3024 310.35 11.6545C301.626 10.0175 292.758 8.21331 283.883 7.6628C281.254 7.49974 278.634 7.52751 276.008 7.24263C272.591 6.87179 269.213 6.2436 265.827 5.6606C263.561 5.14467 261.245 4.88227 258.92 4.87813C256.687 4.99995 254.424 5.91881 252.293 6.54293C251.287 6.83752 250.249 7.09075 249.261 7.44185C249.025 7.4968 248.792 7.56698 248.564 7.65181C248.555 7.44067 249.749 7.87474 249.383 7.61251C248.578 7.33226 247.732 7.18186 246.88 7.16719C242.933 6.47027 238.983 5.79075 235.03 5.12838C225.916 3.60138 216.65 1.7185 207.419 1.08443C201.525 0.67958 195.449 1.44662 189.589 1.99263C171.523 3.67617 153.522 6.10535 135.542 8.52071C125.099 9.92349 114.709 11.2162 104.221 12.2119C86.895 13.8568 69.3827 15.2597 52.2517 18.4157C49.6707 18.8073 47.1282 19.4202 44.6523 20.2478C42.3453 21.1508 39.9897 21.9246 37.5966 22.5656C29.2133 24.6657 20.6465 26.0909 12.4058 28.7399C9.10201 29.8019 -0.762072 32.616 1.05749 37.8894C1.40249 38.8894 3.95535 38.1666 3.62255 37.2021C2.68423 34.4827 6.16444 32.856 8.13122 31.9643C12.3527 30.205 16.7283 28.8415 21.2018 27.8911C29.0261 25.9832 37.4609 25.0025 44.8962 21.8046C47.3255 20.9073 49.8452 20.2773 52.4109 19.9257C56.7305 19.1405 61.0835 18.535 65.4361 17.9663C75.6458 16.6322 85.8904 15.5659 96.1367 14.5578C108.417 13.3496 120.612 12.0859 132.841 10.4379C152.417 7.79978 172.022 5.08802 191.705 3.36885C198.321 2.79102 204.709 2.39426 211.306 3.24581C222.036 4.63091 232.712 6.47695 243.367 8.34151C245.308 8.68113 247.586 9.49608 249.528 8.94405C252.163 8.19496 254.772 7.2789 257.442 6.65914C259.805 6.11072 262.522 6.87373 264.857 7.28047C268.469 7.90972 272.082 8.56433 275.733 8.92476C278.394 9.1874 281.06 9.12591 283.722 9.33004C288.649 9.70785 293.551 10.5073 298.421 11.3225C303.414 12.1583 308.394 13.0795 313.364 14.0454C315.93 14.3912 318.471 14.8996 320.973 15.5676C320.864 15.5313 320.734 15.4744 321.072 15.6538C321.519 15.8917 321.946 16.1817 322.379 16.4443C323.847 17.3349 325.311 18.2319 326.771 19.1357C331.025 21.7679 335.257 24.4412 339.404 27.2397C342.351 29.2282 345.026 31.4004 347.766 33.6291C349.572 35.0978 352.259 35.7135 354.433 36.3791C363.004 39.0026 371.787 40.9162 380.435 43.2597C384.765 44.4329 389.094 45.6568 393.317 47.175C395.946 48.12 399.155 49.1448 401.237 51.1079C407.002 56.5435 381.632 67.1646 378.296 68.8176C375.679 70.069 373.132 71.4587 370.663 72.9812C368.421 74.4077 366.544 76.3578 364.13 77.5017C359.302 79.7894 353.543 79.8582 348.323 79.3276C346.253 79.1172 344.589 78.671 342.559 79.1237L330.725 81.7636L322.681 83.5581L323.886 83.624C318.405 81.4037 312.53 79.3652 306.628 78.7387C304.02 78.462 300.13 78.4218 298.564 81.0178C296.918 83.7455 299.553 87.3815 300.452 89.9257C300.773 90.8369 301.312 92.6234 300.574 93.2128C299.775 93.4745 298.937 93.6019 298.096 93.5903C294.735 93.7536 291.367 93.7035 288.013 93.4399C279.835 92.9939 271.667 92.1096 263.475 91.9682C259.289 91.896 255.151 92.4786 250.971 92.5776C248.798 92.6741 246.621 92.5147 244.486 92.103C242.458 91.5511 240.472 90.858 238.541 90.0285C233.004 88.0101 227.09 89.3835 221.387 89.4809C217.632 89.497 213.884 89.1747 210.187 88.518C206.598 87.923 202.363 87.2355 199.331 85.072C197.352 83.6599 197.434 82.4067 198.988 80.8107C203.453 76.223 209.544 73.0311 214.719 69.3261C217.612 67.3249 220.361 65.1245 222.948 62.7407C224.825 60.9524 226.783 58.865 227.636 56.3613C228.915 52.605 226.357 50.7942 223.084 49.9218C218.179 48.614 212.845 48.6541 207.809 48.7099C200.629 48.7896 193.456 49.2984 186.31 49.9631C172.823 51.2174 159.33 52.9538 146.004 55.3964C141.988 56.1326 137.91 57.5214 133.86 57.8916C129.503 58.1314 125.133 57.9965 120.8 57.4887C114.856 57.0053 108.897 56.4904 102.931 56.4455C92.4878 56.367 82.0232 58.1116 71.8595 60.3903C69.4929 60.7594 67.1625 61.3311 64.8939 62.0993C64.8887 62.1015 65.7804 62.2131 65.1967 62.0122C64.725 61.9062 64.2444 61.8447 63.7612 61.8281C62.0795 61.6083 60.3996 61.3756 58.7214 61.1298C55.2664 60.6218 51.5382 60.2728 48.2299 59.091C44.62 57.8015 41.2299 55.8556 37.6615 54.4411C33.8958 52.9484 29.7627 51.4542 25.6453 51.708C21.1487 51.9851 17.0591 50.3228 13.2939 47.9296C9.22901 45.346 5.4272 41.7538 3.62261 37.2021C3.22917 36.2097 0.688178 36.9579 1.05749 37.8894Z" fill="#1D1D1B"/>
</svg>
