<svg width="353" height="191" viewBox="0 0 353 191" fill="none" xmlns="http://www.w3.org/2000/svg">
<path d="M17.6764 67.8235C21.0739 77.3175 21.7017 76.2282 29.7521 84.9883C37.7842 93.7483 40.5539 101.206 46.8871 109.895C53.2389 118.584 68.9151 130.256 73.9928 135.962C79.0705 141.644 79.0705 135.962 81.6186 140.579C84.1482 145.196 108.927 161.745 116.96 168.54C125.01 175.311 140.262 186.439 143.641 189.162C147.019 191.861 173.904 178.034 181.326 176.14C188.731 174.222 213.713 165.273 228.946 163.095C244.198 160.917 258.378 144.367 272.78 134.044C287.164 123.746 303.043 114.772 309.82 108.001C316.596 101.206 318.074 96.8736 326.973 91.4282C335.855 86.0065 338.403 68.6284 338.403 68.6284C338.046 68.6413 337.688 68.6334 337.332 68.6047C338.403 73.8608 322.247 77.6963 322.247 77.6963C322.247 77.6963 248.001 87.0956 235.298 84.5623C222.594 82.0289 174.328 83.1178 154.867 79.8506C135.387 76.607 91.9217 70.8065 85.4222 68.2732C78.9412 65.7399 80.0676 57.4298 74.4175 55.9619C68.7674 54.5177 51.5586 55.2517 51.5586 55.2517C51.5586 55.2517 42.8064 48.0069 37.4333 45.8286C32.0786 43.6742 15.1468 45.8286 15.1468 45.8286C15.1468 45.8286 4.69597 42.2063 2.99717 36.0742C-2.17284 40.7857 14.2974 58.3295 17.6764 67.8235Z" fill="#F7FBFD"/>
<path d="M334.655 66.0479C337.055 63.2067 345.604 49.6404 349.611 44.7395C352.085 41.7326 351.512 40.3832 350.718 39.7676C349.777 45.3315 325.662 42.6087 316.596 43.1296C307.272 43.6978 315.175 44.3845 311.519 50.1851C307.844 55.9619 300.218 52.3395 298.538 59.9631C297.024 66.7344 325.792 62.8752 334.655 66.0479Z" fill="#F7FBFD"/>
<path d="M49.2872 20.5198C52.6477 20.0464 62.7478 16.4477 73.734 12.6832H73.7525C86.8069 8.20855 101.08 3.49688 106.601 3.49688C116.756 3.49688 122.111 3.14183 129.515 4.94121C131.523 5.36221 133.6 5.32168 135.59 4.8228C141.591 3.66257 148.422 0.276914 156.547 2.40776C167.57 5.29613 199.735 4.58599 199.735 4.58599C199.735 4.58599 223.739 2.76279 232.768 7.11919C241.797 11.4519 252.525 8.56353 252.525 8.56353L275.956 9.27373C275.956 9.27373 294.014 10.3629 297.116 15.4295C300.218 20.4961 350.054 24.3552 350.755 39.3182C350.762 39.4691 350.75 39.6204 350.718 39.7681C349.777 45.332 325.662 42.6092 316.596 43.1302C307.272 43.6984 315.174 44.385 311.518 50.1856C307.844 55.9625 300.218 52.34 298.538 59.9637C297.024 66.7349 325.791 62.8758 334.654 66.0484C335.549 66.2971 336.339 66.8285 336.907 67.5635C337.115 67.88 337.259 68.2336 337.332 68.605C338.403 73.8611 322.246 77.6968 322.246 77.6968C322.246 77.6968 248.001 87.0961 235.297 84.5628C222.594 82.0294 174.328 83.1184 154.867 79.8511C135.387 76.6076 91.9215 70.8071 85.422 68.2737C78.941 65.7404 80.0672 57.4303 74.4172 55.9625C68.7671 54.5183 51.5583 55.252 51.5583 55.252C51.5583 55.252 42.8061 48.0074 37.433 45.8292C32.0783 43.6747 15.1465 45.8292 15.1465 45.8292C15.1465 45.8292 4.69572 42.2068 2.99692 36.0748C1.31678 29.9192 41.9569 21.5853 49.2872 20.5198Z" fill="#3BCBA4"/>
<path d="M236.301 84.7191C237.289 84.9945 228.461 100.165 225.735 107.454C223.01 114.743 216.207 145.004 216.207 145.004L214.146 83.8387C214.146 83.8387 222.904 80.985 236.301 84.7191Z" fill="#071462"/>
<path d="M81.7629 65.4872C81.7629 65.4872 91.5418 80.5669 93.2256 83.8552C94.9094 87.1434 101.039 102.896 115.353 117.39C129.668 131.884 144.226 159.294 146.188 164.093C148.15 168.891 151.306 178.637 151.306 178.637C151.306 178.637 136.031 157.662 131.422 151.623C126.814 145.585 108.171 121.723 104.809 117.895C101.447 114.067 94.7357 105.264 89.3389 103.916C82.455 101.89 76.3115 97.9004 71.6613 92.4352C66.8981 86.6305 66.2228 82.2961 61.6378 79.3476C57.0527 76.3991 53.2716 79.0446 49.6525 71.9365C46.0334 64.8283 48.9069 62.1891 41.2783 56.3122C33.6496 50.4353 20.8574 46.5285 20.8574 46.5285C20.8574 46.5285 35.4779 44.1994 40.1573 47.183C44.8368 50.1667 49.6477 55.6086 52.8231 55.6086C55.9985 55.6086 74.5487 54.4 76.611 57.1171C78.4786 59.8118 80.1984 62.606 81.7629 65.4872Z" fill="#071462"/>
<path d="M344.719 51.4713C343.693 52.9871 324.214 52.3514 322.944 56.9659C322.253 59.5444 321.402 62.0772 320.396 64.5497C320.396 64.5497 299.319 66.2343 298.641 61.193C297.964 56.1516 309.1 52.5794 309.1 52.5794C309.1 52.5794 313.199 48.8786 312.518 46.5287C311.838 44.1787 309.826 44.9991 311.838 44.1786C313.851 43.358 332.682 43.3282 332.682 43.3282C332.682 43.3282 349.702 41.8419 350.718 39.7677C351.735 37.6935 350.291 43.2426 344.719 51.4713Z" fill="#071462"/>
<path d="M16.4654 68.1484C17.3574 71.0643 18.6489 73.8424 20.3031 76.404C22.1388 78.709 24.1325 80.8836 26.2699 82.912C29.841 86.5905 33.0634 90.5921 35.8959 94.8654C38.3756 98.665 40.5862 102.632 43.0672 106.431C47.4022 113.068 52.9652 118.425 58.8673 123.665C61.7911 126.261 64.765 128.8 67.68 131.405C68.8805 132.478 70.0742 133.561 71.2225 134.69C72.2789 135.872 73.3982 136.996 74.5755 138.057C75.4468 138.815 76.5615 139.235 77.7165 139.24C78.5551 139.225 78.8785 138.953 79.5226 139.593C80.191 140.257 80.5529 141.224 81.1636 141.954C81.7553 142.638 82.3904 143.282 83.0651 143.884C87.7009 147.95 92.5565 151.759 97.61 155.292C102.888 159.18 108.245 162.973 113.408 167.014C118.827 171.256 124.124 175.64 129.609 179.805C132.484 181.988 135.372 184.154 138.253 186.329C139.286 187.108 140.319 187.888 141.343 188.678C141.84 189.147 142.401 189.542 143.01 189.851C144.462 190.406 146.411 189.885 147.851 189.547C150.347 188.915 152.8 188.122 155.194 187.173C161.173 184.917 167.005 182.29 172.892 179.809C177.052 178.107 181.297 176.619 185.609 175.35C199.909 170.961 214.136 165.888 228.959 163.554C237.148 162.265 244.361 157.651 250.824 152.697C258.278 146.984 265.087 140.469 272.647 134.892C280.791 128.885 289.437 123.587 297.829 117.942C301.194 115.679 304.547 113.374 307.691 110.808C310.503 108.444 313.092 105.828 315.425 102.99C317.626 100.203 320.054 97.6032 322.683 95.2172C325.579 92.7661 329.121 91.1849 331.609 88.2704C335.492 83.7244 337.555 77.7043 338.897 71.9631C339.17 70.7947 339.424 69.6157 339.6 68.4281C339.653 68.0741 339.151 68.0935 338.916 68.1008C338.647 68.1103 338.377 68.1024 338.108 68.0773C337.713 68.0577 336.016 68.2778 336.121 68.9296C336.533 71.4809 333.324 73.1168 331.453 74.0356C328.981 75.205 326.408 76.1454 323.765 76.8449C323.229 76.9947 322.688 77.162 322.142 77.2726C322.711 77.1573 322.333 77.2294 322.106 77.248C321.193 77.3224 320.28 77.4753 319.372 77.5868C309.454 78.8043 299.527 79.9357 289.589 80.9811C276.914 82.3116 264.209 83.5752 251.478 84.2116C247.175 84.5161 242.857 84.5579 238.549 84.3371C234.567 84.0487 230.635 83.2686 226.634 83.0048C211.478 82.0056 196.264 82.0119 181.092 81.3842C174.025 81.0919 166.938 80.7534 159.911 79.9223C153.625 79.1788 147.376 77.996 141.117 77.0492C126.097 74.7772 111.023 72.7317 96.0793 69.987C91.9471 69.228 86.1833 68.8916 83.2494 65.488C81.1341 63.0338 80.5334 59.6139 78.3338 57.2316C76.4068 55.1444 73.3367 55.0121 70.6809 54.809C64.7027 54.3429 58.6987 54.3061 52.7151 54.6991C52.6113 54.7063 52.1918 54.6529 52.1054 54.7226C52.4765 54.4234 52.8674 55.1309 52.3523 54.5463C51.4399 53.6818 50.4481 52.9054 49.3897 52.2272C46.4251 49.8607 43.245 47.7771 39.8915 46.0041C37.2948 44.854 34.4754 44.2938 31.6363 44.3639C28.2009 44.3013 24.7646 44.4233 21.3422 44.7294C20.0189 44.8367 18.6972 44.9614 17.377 45.1034C16.9505 45.1494 15.7506 45.0609 15.4141 45.329C15.6393 45.1496 16.3479 45.5835 15.8904 45.247C15.5236 45.0545 15.138 44.9003 14.7396 44.7868C13.4544 44.2443 12.2053 43.6198 11.0003 42.9169C8.16142 41.2587 5.2062 39.0241 4.20793 35.7502C4.00244 35.0762 2.17522 35.8689 1.89439 36.1418C0.348788 37.6435 0.715059 39.8872 1.33018 41.7416C2.44988 44.7043 3.91841 47.5231 5.70469 50.1386C9.36281 55.9697 14.0804 61.6273 16.4654 68.1484C16.6944 68.7746 19.0868 68.0453 18.8871 67.4994C16.5943 61.2302 12.109 55.7588 8.559 50.1742C6.79236 47.5745 5.28283 44.809 4.05168 41.9169C3.36468 40.1498 2.51495 37.5472 4.09965 36.0075L1.78617 36.3991C2.77217 39.6327 5.62552 41.9076 8.41703 43.5844C10.064 44.5737 12.2172 45.9456 14.1479 46.3188C15.6173 46.6028 17.5063 46.0324 19.0119 45.8971C22.5033 45.5488 26.0107 45.3853 29.5194 45.4074C32.6893 45.2825 35.8385 45.9704 38.6676 47.4057C42.0149 49.3225 45.206 51.5 48.2112 53.9181C49.4221 54.8575 50.1427 55.8069 51.688 55.7555C54.3217 55.668 56.9558 55.6065 59.591 55.5956C63.1705 55.5349 66.7506 55.6591 70.3172 55.9677C71.777 56.0026 73.2167 56.3155 74.5593 56.8896C75.8727 57.7072 76.9115 58.8989 77.5425 60.3114C79.0994 63.2494 80.2344 66.5674 83.3339 68.256C84.959 69.024 86.6833 69.5613 88.457 69.8525C102.362 72.9253 116.616 74.6621 130.688 76.7707C144.293 78.8091 157.796 81.2699 171.546 82.0527C187.37 82.9533 203.226 83.0119 219.056 83.7323C224.242 83.8581 229.415 84.315 234.543 85.1C238.234 85.5924 241.965 85.7132 245.68 85.4606C258.213 85.0959 270.734 83.8494 283.203 82.5895C294.295 81.4687 305.376 80.2315 316.444 78.8781C322.968 78.088 329.341 76.8001 335.05 73.2331C336.731 72.1832 338.906 70.5294 338.543 68.2807L336.555 69.133C337.001 69.1551 337.444 69.1707 337.889 69.1569L337.205 68.8295C336.597 72.7556 335.536 76.5978 334.043 80.2792C332.91 83.3405 331.258 86.1841 329.16 88.6852C326.675 91.4818 323.127 93.0712 320.301 95.5021C314.765 100.264 310.915 106.607 305.174 111.191C298.225 116.739 290.535 121.363 283.129 126.261C275.138 131.49 267.464 137.19 260.15 143.332C253.327 149.111 246.505 155.287 238.505 159.414C234.942 161.173 231.123 162.353 227.189 162.911C223.545 163.531 219.936 164.364 216.354 165.272C208.693 167.216 201.136 169.55 193.6 171.925C188.813 173.434 183.926 174.728 179.178 176.344C173.923 178.134 168.86 180.53 163.755 182.699C158.63 184.876 153.41 187.29 147.983 188.616C146.674 188.936 145.492 189.272 144.377 188.418C142.342 186.86 140.301 185.31 138.255 183.767C127.569 175.72 117.267 167.185 106.479 159.277C101.021 155.276 95.5175 151.324 90.2097 147.122C88.3258 145.631 86.4407 144.117 84.7134 142.444C84.1376 141.915 83.6078 141.338 83.13 140.72C82.5583 139.935 82.1985 138.856 81.317 138.344C80.6508 138.061 79.9135 137.99 79.2057 138.142C77.8769 138.202 76.8668 137.297 75.9522 136.404C73.7471 134.254 71.643 132.051 69.3324 130.001C63.4756 124.803 57.3798 119.823 51.9865 114.13C46.0724 107.886 42.3339 100.159 37.5675 93.0842C34.8783 89.1607 31.8599 85.4734 28.5449 82.0622C26.3753 80.026 24.3649 77.8263 22.5314 75.4828C20.9738 72.9919 19.7487 70.3081 18.8871 67.4994C18.6622 66.8743 16.2676 67.5986 16.4654 68.1484Z" fill="#1D1D1B"/>
<path d="M335.644 66.3158C339.153 62.1119 341.97 57.2423 345.051 52.7269C346.702 50.3074 348.35 47.8707 350.156 45.5629C351.309 44.0902 353.995 41.0504 351.836 39.2675C351.224 38.762 349.68 38.9905 349.501 39.8932C349.092 41.9484 344.922 42.0997 343.28 42.2658C338.949 42.6133 334.601 42.6929 330.26 42.5043C326.248 42.4119 322.229 42.2154 318.215 42.3092C316.815 42.3419 310.068 42.039 310.655 44.8109C310.864 45.7978 311.422 46.5547 311.322 47.6239C311.18 48.6036 310.81 49.5365 310.242 50.3475C309.675 51.1586 308.925 51.8252 308.053 52.2941C304.716 54.127 300.414 53.855 298.27 57.5455C297.647 58.6173 296.92 60.258 297.419 61.5175C297.861 62.3902 298.625 63.0577 299.548 63.3807C302.385 64.6342 305.755 64.785 308.805 64.9686C313.396 65.245 317.999 65.2363 322.594 65.3986C326.324 65.5303 330.366 65.53 333.932 66.7748C334.813 67.0825 336.771 65.8072 335.377 65.3207C332.301 64.2467 328.864 64.1058 325.64 63.9457C321.572 63.7436 317.497 63.7269 313.427 63.5924C309.964 63.6133 306.507 63.2872 303.108 62.6185C302.093 62.455 301.131 62.0527 300.302 61.4447C299.475 60.7106 299.692 59.8166 300.026 58.8514C301.441 54.7517 306.221 55.0887 309.467 53.2599C312.237 51.6992 314.641 48.3336 313.429 45.0807C313.351 44.7335 313.227 44.3982 313.059 44.0844C313.055 44.0805 313.085 43.8271 312.838 44.2616C312.788 44.3504 312.739 44.2853 313.096 44.2116C314.918 43.9073 316.765 43.7801 318.611 43.8322C322.647 43.8044 326.683 43.9985 330.718 44.0761C335.373 44.3012 340.038 44.1388 344.666 43.5905C347.036 43.2373 351.356 42.5585 351.936 39.6417L349.601 40.2675C351.49 41.8276 348.365 44.7565 347.392 46.0431C345.652 48.3432 344.026 50.7297 342.404 53.1134C340.684 55.6412 338.988 58.1852 337.27 60.714C336.111 62.419 334.988 64.1944 333.665 65.7794C332.719 66.9126 335.042 67.0372 335.644 66.3158Z" fill="#1D1D1B"/>
<path d="M80.5791 64.2872C81.1482 67.9333 82.5785 71.3914 84.7515 74.3741C86.6586 77.0096 88.9859 79.3179 90.7748 82.0423C91.8911 83.7425 92.7164 85.6117 93.664 87.4073C94.7851 89.5317 95.9632 91.6244 97.1983 93.6859C99.6614 97.8085 102.327 101.807 105.111 105.719C115.742 120.654 128.069 134.357 137.533 150.115C143.041 159.1 147.269 168.808 150.095 178.961L152.421 178.128C144.034 166.395 135.437 154.815 126.631 143.389C122.306 137.782 117.93 132.214 113.503 126.687C109.411 121.317 105.03 116.173 100.38 111.278C96.1653 107.175 91.3997 103.679 86.2203 100.891C81.3046 98.1282 76.2497 95.4342 72.2284 91.4046C70.2267 89.2906 68.4542 86.9708 66.9406 84.4839C65.5297 82.0273 63.7634 79.7928 61.6988 77.8528C59.3994 75.9129 56.5487 75.5337 53.9508 74.1924C51.4618 72.9074 49.9593 70.5084 48.7892 68.0504C47.5347 65.4148 46.5802 62.6452 45.2333 60.0523C43.8311 57.3384 41.8935 54.9369 39.5375 52.9925C35.0312 49.2687 29.3758 47.4045 23.8507 45.7791C22.9243 45.5066 20.9948 46.8597 22.417 47.2781C27.3474 48.7286 32.3356 50.3433 36.524 53.42C38.7465 55.0513 40.6348 57.0944 42.086 59.4385C43.443 61.8767 44.6209 64.4104 45.6105 67.0193C46.4946 69.3918 47.789 71.5905 49.4344 73.5147C51.4359 75.6115 54.0568 76.2444 56.6614 77.2689C62.0401 79.3844 64.2784 85.4513 67.6083 89.7183C74.8024 98.9373 86.6936 102.025 95.2691 109.578C100.245 113.961 104.407 119.183 108.557 124.326C112.95 129.769 117.293 135.251 121.587 140.773C131.38 153.368 140.915 166.159 150.191 179.145C150.69 179.843 152.773 179.265 152.517 178.312C147.741 160.536 137.89 144.891 126.889 130.34C115.468 115.236 103.05 100.786 94.5379 83.7359C92.8865 80.4281 90.4745 77.7746 88.1788 74.9171C85.4747 71.6885 83.6865 67.7934 83.0009 63.6382C82.8437 62.6461 80.4127 63.2372 80.5791 64.2872Z" fill="#1D1D1B"/>
<path d="M236.104 84.5477C234.832 88.3656 232.032 91.6006 230.051 95.0665C227.953 98.7477 226.13 102.579 224.597 106.528C221.378 114.791 219.524 123.463 217.895 132.155C216.937 137.266 216.007 142.382 215.066 147.495L217.508 147.269L215.367 83.7254C215.327 82.5424 212.892 82.9779 212.925 83.952L215.066 147.495C215.106 148.691 217.331 148.231 217.508 147.269C220.729 129.779 223.124 111.789 231.914 96.0282C234.083 92.1385 237.128 88.5774 238.546 84.3209C238.883 83.3092 236.422 83.5929 236.104 84.5477Z" fill="#1D1D1B"/>
<path d="M1.78613 36.3988C2.91027 40.0729 6.32949 42.5531 9.54834 44.3317C11.1108 45.195 13.3192 46.6529 15.1863 46.5568C21.8038 46.216 28.7462 44.631 35.3321 46.1344C39.3022 47.0407 43.0234 50.1051 46.231 52.4791C47.5141 53.4288 48.7772 54.4043 50.0206 55.4059C50.2366 55.6072 50.4909 55.7629 50.7683 55.8639C51.0457 55.9649 51.3407 56.0092 51.6356 55.9938C58.4333 55.9561 65.3451 55.3714 72.1049 56.371C72.9802 56.4341 73.8324 56.6815 74.6057 57.0966C75.379 57.5116 76.056 58.085 76.5924 58.7797C77.6147 60.3868 78.5138 62.0691 79.2819 63.8121C79.9511 65.1828 80.9061 66.3943 82.0827 67.3649C83.2593 68.3355 84.6302 69.0429 86.1031 69.4393C92.2851 71.1635 98.7783 72.0055 105.101 73.0267C122.092 75.771 139.125 78.4307 156.161 80.8805C164.26 81.9025 172.406 82.5094 180.567 82.6991C190.078 83.0832 199.595 83.2879 209.109 83.5836C216.51 83.8137 223.968 83.9579 231.332 84.7994C233.23 85.0163 235.096 85.4424 237 85.599C239.201 85.78 241.419 85.7737 243.626 85.7391C257.962 85.5148 272.308 83.9789 286.558 82.507C297.871 81.3384 309.173 80.0533 320.461 78.652C323.37 78.2213 326.22 77.4576 328.954 76.3756C331.908 75.2906 335.361 73.9395 337.469 71.4882C337.869 71.0843 338.175 70.5966 338.363 70.0602C338.552 69.5238 338.619 68.9519 338.56 68.3864C338.221 66.3835 336.244 65.5371 334.492 65.0538C331.305 64.3134 328.044 63.9325 324.771 63.9183C320.775 63.7461 316.774 63.7284 312.777 63.5829C309.417 63.6026 306.064 63.255 302.779 62.5465C300.054 61.8307 298.968 60.5338 300.497 57.7865C302.308 54.5325 307.076 54.8142 309.966 52.9486C312.528 51.2943 314.532 48.1328 313.423 45.0665C313.338 44.7472 313.22 44.4375 313.071 44.1422C312.981 44.0063 313.171 43.8358 312.739 44.2951C312.942 44.2046 313.161 44.156 313.383 44.1522C315.269 44.1199 317.152 43.8216 319.05 43.8182C323.049 43.8112 327.047 43.9977 331.044 44.07C335.102 44.2182 339.166 44.1143 343.211 43.7594C345.746 43.489 349.06 43.1299 350.999 41.2606C352.635 39.6828 351.877 37.2491 350.863 35.5263C349.521 33.4863 347.716 31.7923 345.596 30.5822C339.919 27.0003 333.186 25.0376 326.768 23.2731C320.161 21.4569 313.456 20.0442 306.826 18.3219C304.576 17.8119 302.37 17.1239 300.229 16.2643C298.586 15.5419 297.957 14.2597 296.526 13.2555C293.655 11.2404 289.845 10.4488 286.463 9.80311C283.468 9.23751 280.445 8.83207 277.407 8.58875C273.19 8.24317 268.92 8.28745 264.692 8.15931L255.326 7.87537C254.003 7.7867 252.675 7.86088 251.37 8.09583C246.739 9.08676 241.941 8.99405 237.352 7.82508C235.118 7.21927 233.105 6.08347 230.894 5.42127C229.103 4.91055 227.277 4.5315 225.431 4.287C217.831 3.34174 210.157 3.13735 202.517 3.67664C201.712 3.71727 200.907 3.76173 200.103 3.81873C199.793 3.84065 199.928 3.83674 200.155 3.82752C199.976 3.8348 199.796 3.83489 199.617 3.83778C197.392 3.87364 195.167 3.89518 192.942 3.90223C184.891 3.92351 176.822 3.81494 168.79 3.23621C165.255 3.05659 161.739 2.61988 158.268 1.92957C155.743 1.27903 153.144 0.959625 150.537 0.979379C147.693 1.1403 144.875 1.61728 142.137 2.4015C139.428 3.26774 136.659 3.93064 133.852 4.3849C131.021 4.69422 128.27 3.71156 125.487 3.30726C120.333 2.7288 115.143 2.53572 109.96 2.72938C105.486 2.77048 101.037 3.40507 96.7291 4.61659C90.7619 6.21701 84.8873 8.16352 79.0341 10.1342C73.1778 12.1059 67.3627 14.1445 61.3863 16.1674C57.4544 17.4982 53.4169 19.1043 49.3051 19.787C43.6521 20.7255 38.0407 21.8997 32.4606 23.2025C25.0855 24.7947 17.8284 26.8917 10.7407 29.4789C8.36799 30.2946 6.10892 31.4093 4.01813 32.7963C2.9052 33.5987 1.42207 34.8444 1.78613 36.3988C2.00687 37.3413 4.43418 36.7161 4.20788 35.7499C3.91219 34.4874 5.72472 33.5049 6.58575 32.9938C8.89403 31.715 11.323 30.6675 13.8373 29.8663C20.4748 27.635 27.2312 25.7741 34.0753 24.2926C39.0268 23.1575 44.0025 22.1039 49.0175 21.2887C52.5338 20.5863 55.9887 19.6049 59.3492 18.3539C64.6329 16.5964 70.0151 14.7116 75.1454 12.9581C80.6753 11.0681 86.2157 9.19984 91.811 7.51112C96.0585 6.05803 100.431 4.99858 104.872 4.34608C107.339 4.18022 109.813 4.14153 112.283 4.23011C114.636 4.22111 116.99 4.22011 119.34 4.33289C121.626 4.42949 123.903 4.68248 126.154 5.09022C128.56 5.54008 130.779 6.14946 133.256 5.9159C138.454 5.42578 143.299 3.12525 148.5 2.59828C152.725 2.17028 156.656 3.47515 160.787 4.04456C168.233 4.93497 175.726 5.37516 183.224 5.36317C188.433 5.44671 193.646 5.45619 198.855 5.35291C202.586 5.27891 206.306 4.97849 210.043 4.96668C217.11 4.94435 225.24 4.79533 231.816 7.74671C236.315 9.70379 241.22 10.547 246.114 10.2045C247.85 10.1104 249.578 9.8962 251.284 9.56385C251.68 9.50714 252.071 9.42423 252.455 9.31556C253.047 9.11465 251.995 9.2403 252.178 9.32508C252.815 9.44237 253.465 9.46198 254.107 9.38343L257.694 9.49232L267.19 9.78016C270.578 9.88285 273.987 9.8685 277.364 10.1818C280.425 10.4486 283.466 10.9 286.473 11.5333C289.376 12.162 293.03 12.9048 295.26 15.0316C296.124 16.0781 297.193 16.9363 298.401 17.5531C300.328 18.3395 302.309 18.9836 304.33 19.4799C316.365 22.7138 329.157 24.5186 340.443 30.0448C343.976 31.7745 349.379 34.776 349.523 39.3446C349.596 41.6543 346.161 41.9145 344.5 42.1383C340.821 42.5526 337.118 42.6985 333.418 42.5746C329.61 42.5286 325.804 42.373 321.997 42.3163C318.92 42.2705 315.453 42.0494 312.468 42.8829C311.738 43.0867 310.739 43.4862 310.617 44.3461C310.518 45.0347 311.075 45.7646 311.227 46.4171C312.076 50.056 308.381 52.4355 305.427 53.3065C302.276 54.2355 299.114 55.2451 297.791 58.5678C297.011 60.5283 297.112 62.0812 299.064 63.1434C301.222 64.3174 303.95 64.5457 306.347 64.7709C309.856 65.1005 313.389 65.1584 316.911 65.2374C320.481 65.3175 324.058 65.3684 327.619 65.6613C329.914 65.8501 335.921 65.993 336.155 69.1415C336.349 71.7461 332.355 73.379 330.479 74.2064C328.013 75.2706 325.467 76.1388 322.864 76.8029C322.536 76.8895 321.767 77.0391 322.337 76.952C322.095 76.989 321.851 77.0133 321.608 77.0436C320.378 77.1972 319.147 77.3487 317.917 77.4982C313.119 78.0826 308.319 78.6474 303.517 79.1925C289.867 80.7445 276.197 82.189 262.498 83.2455C256.563 83.7032 250.611 84.1207 244.657 84.2191C240.948 84.2492 237.242 83.9915 233.573 83.4481C227.263 82.5881 220.837 82.4388 214.481 82.2135C205.92 81.9101 197.356 81.7244 188.795 81.4457C180.704 81.1823 172.603 80.8853 164.536 80.1896C157.954 79.6219 151.465 78.4484 144.939 77.4486C128.791 74.9746 112.58 72.803 96.5037 69.8883C91.8527 69.0451 85.4926 68.7546 82.5439 64.5302C80.6652 61.8386 79.9782 58.0667 77.1284 56.1342C74.6633 54.4625 70.8881 54.5697 68.0358 54.4384C62.602 54.1881 57.1362 54.2715 51.7023 54.5009L52.6769 54.7555C50.017 52.5523 47.2452 50.4879 44.3726 48.5702C42.438 47.1874 40.3535 46.0273 38.1587 45.1119C36.5172 44.5666 34.805 44.2632 33.076 44.2113C28.6554 44.0015 24.2252 44.1327 19.8248 44.6039C18.4663 44.7245 17.0661 44.7907 15.7208 45.0253C15.0122 45.1488 15.6288 44.936 15.8286 45.0963C15.4753 44.9075 15.1015 44.76 14.7146 44.6564C10.6516 42.9415 5.58843 40.2616 4.20794 35.7496C3.91897 34.8054 1.50155 35.4687 1.78613 36.3988Z" fill="#1D1D1B"/>
</svg>
